<?xml version="1.0" standalone="no"?>
<!DOCTYPE svg PUBLIC "-//W3C//DTD SVG 1.1//EN" "http://www.w3.org/Graphics/SVG/1.1/DTD/svg11.dtd">
<svg width="394.000000000001mm" height="404.0mm"
 viewBox="0 0 394.000000000001 404.0"
 xmlns="http://www.w3.org/2000/svg" version="1.1"
 xmlns:xlink="http://www.w3.org/1999/xlink">
<desc>Output from Flights of Ideas SVG Sketchup Plugin</desc>

  <g id="face0" fill="none" stroke="rgb(0,0,255)" stroke-width="1" stroke-miterlimit="4" stroke-dasharray="none" stroke-linejoin="round" stroke-linecap="round">
    <line x1="384.0" y1="373.999999999999" x2="383.989710423861" y2="214.80571354742"/>
    <line x1="383.989710423861" y1="214.80571354742" x2="368.989710423861" y2="214.80571354742"/>
    <line x1="368.989710423861" y1="214.80571354742" x2="368.988421359566" y2="169.2057136203"/>
    <line x1="368.988421359566" y1="169.2057136203" x2="383.988421359566" y2="169.2057136203"/>
    <line x1="383.988421359566" y1="169.2057136203" x2="384.000000000001" y2="29.9999999999993"/>
    <line x1="384.000000000001" y1="29.9999999999993" x2="382.000000000001" y2="30.0"/>
    <line x1="382.000000000001" y1="30.0" x2="382.000000000001" y2="12.0"/>
    <line x1="382.000000000001" y1="12.0" x2="364.000000000001" y2="12.0000000000001"/>
    <line x1="364.000000000001" y1="12.0000000000001" x2="364.0" y2="10.0000000000001"/>
    <line x1="364.0" y1="10.0000000000001" x2="30.0000000000001" y2="10.0"/>
    <line x1="30.0000000000001" y1="10.0" x2="30.0000000000007" y2="12.0000000000001"/>
    <line x1="30.0000000000007" y1="12.0000000000001" x2="12.0000000000007" y2="12.0"/>
    <line x1="12.0000000000007" y1="12.0" x2="12.0000000000007" y2="30.0"/>
    <line x1="12.0000000000007" y1="30.0" x2="10.0000000000007" y2="29.9999999999994"/>
    <line x1="10.0000000000007" y1="29.9999999999994" x2="10.0" y2="373.999999999999"/>
    <line x1="10.0" y1="373.999999999999" x2="12.0" y2="373.999999999999"/>
    <line x1="12.0" y1="373.999999999999" x2="12.0" y2="392.0"/>
    <line x1="12.0" y1="392.0" x2="30.0" y2="391.999999999999"/>
    <line x1="30.0" y1="391.999999999999" x2="30.0000000000007" y2="394.0"/>
    <line x1="30.0000000000007" y1="394.0" x2="364.000000000001" y2="393.999999999999"/>
    <line x1="364.000000000001" y1="393.999999999999" x2="364.0" y2="391.999999999999"/>
    <line x1="364.0" y1="391.999999999999" x2="382.0" y2="391.999999999999"/>
    <line x1="382.0" y1="391.999999999999" x2="382.0" y2="373.999999999999"/>
    <line x1="382.0" y1="373.999999999999" x2="384.0" y2="373.999999999999"/>
    <line x1="54.3431457505083" y1="84.343145750507" x2="56.0000000000006" y2="83.0717967697238"/>
    <line x1="56.0000000000006" y1="83.0717967697238" x2="57.9294476391804" y2="82.2725933896869"/>
    <line x1="57.9294476391804" y1="82.2725933896869" x2="60.0000000000006" y2="81.9999999999994"/>
    <line x1="60.0000000000006" y1="81.9999999999994" x2="62.0705523608207" y2="82.2725933896869"/>
    <line x1="62.0705523608207" y1="82.2725933896869" x2="64.0000000000005" y2="83.071796769724"/>
    <line x1="64.0000000000005" y1="83.071796769724" x2="65.656854249493" y2="84.3431457505069"/>
    <line x1="65.656854249493" y1="84.3431457505069" x2="66.9282032302761" y2="85.9999999999994"/>
    <line x1="66.9282032302761" y1="85.9999999999994" x2="67.7274066103131" y2="87.9294476391792"/>
    <line x1="67.7274066103131" y1="87.9294476391792" x2="68.0000000000006" y2="89.9999999999994"/>
    <line x1="68.0000000000006" y1="89.9999999999994" x2="67.7274066103132" y2="92.0705523608195"/>
    <line x1="67.7274066103132" y1="92.0705523608195" x2="66.9282032302761" y2="93.9999999999994"/>
    <line x1="66.9282032302761" y1="93.9999999999994" x2="65.6568542494929" y2="95.6568542494919"/>
    <line x1="65.6568542494929" y1="95.6568542494919" x2="64.0000000000005" y2="96.928203230275"/>
    <line x1="64.0000000000005" y1="96.928203230275" x2="62.0705523608207" y2="97.7274066103126"/>
    <line x1="62.0705523608207" y1="97.7274066103126" x2="60.0000000000006" y2="97.9999999999998"/>
    <line x1="60.0000000000006" y1="97.9999999999998" x2="57.9294476391804" y2="97.7274066103125"/>
    <line x1="57.9294476391804" y1="97.7274066103125" x2="56.0000000000005" y2="96.9282032302748"/>
    <line x1="56.0000000000005" y1="96.9282032302748" x2="54.3431457505082" y2="95.6568542494918"/>
    <line x1="54.3431457505082" y1="95.6568542494918" x2="53.0717967697251" y2="93.9999999999994"/>
    <line x1="53.0717967697251" y1="93.9999999999994" x2="52.272593389688" y2="92.0705523608197"/>
    <line x1="52.272593389688" y1="92.0705523608197" x2="52.0000000000005" y2="89.9999999999994"/>
    <line x1="52.0000000000005" y1="89.9999999999994" x2="52.2725933896881" y2="87.9294476391791"/>
    <line x1="52.2725933896881" y1="87.9294476391791" x2="53.0717967697251" y2="85.9999999999994"/>
    <line x1="53.0717967697251" y1="85.9999999999994" x2="54.3431457505083" y2="84.343145750507"/>
    <line x1="53.0717967697246" y1="309.999999999999" x2="54.3431457505078" y2="308.343145750506"/>
    <line x1="54.3431457505078" y1="308.343145750506" x2="56.0000000000001" y2="307.071796769723"/>
    <line x1="56.0000000000001" y1="307.071796769723" x2="57.92944763918" y2="306.272593389686"/>
    <line x1="57.92944763918" y1="306.272593389686" x2="60.0000000000001" y2="305.999999999999"/>
    <line x1="60.0000000000001" y1="305.999999999999" x2="62.0705523608203" y2="306.272593389686"/>
    <line x1="62.0705523608203" y1="306.272593389686" x2="64.0000000000001" y2="307.071796769723"/>
    <line x1="64.0000000000001" y1="307.071796769723" x2="65.6568542494925" y2="308.343145750506"/>
    <line x1="65.6568542494925" y1="308.343145750506" x2="66.9282032302756" y2="309.999999999999"/>
    <line x1="66.9282032302756" y1="309.999999999999" x2="67.7274066103127" y2="311.929447639178"/>
    <line x1="67.7274066103127" y1="311.929447639178" x2="68.0000000000001" y2="313.999999999999"/>
    <line x1="68.0000000000001" y1="313.999999999999" x2="67.7274066103127" y2="316.070552360819"/>
    <line x1="67.7274066103127" y1="316.070552360819" x2="66.9282032302756" y2="317.999999999999"/>
    <line x1="66.9282032302756" y1="317.999999999999" x2="65.6568542494925" y2="319.656854249491"/>
    <line x1="65.6568542494925" y1="319.656854249491" x2="64.0000000000001" y2="320.928203230274"/>
    <line x1="64.0000000000001" y1="320.928203230274" x2="62.0705523608203" y2="321.727406610311"/>
    <line x1="62.0705523608203" y1="321.727406610311" x2="60.0000000000001" y2="321.999999999999"/>
    <line x1="60.0000000000001" y1="321.999999999999" x2="57.92944763918" y2="321.727406610311"/>
    <line x1="57.92944763918" y1="321.727406610311" x2="56.0000000000001" y2="320.928203230274"/>
    <line x1="56.0000000000001" y1="320.928203230274" x2="54.3431457505078" y2="319.656854249491"/>
    <line x1="54.3431457505078" y1="319.656854249491" x2="53.0717967697247" y2="317.999999999998"/>
    <line x1="53.0717967697247" y1="317.999999999998" x2="52.2725933896876" y2="316.070552360819"/>
    <line x1="52.2725933896876" y1="316.070552360819" x2="52.0000000000001" y2="313.999999999999"/>
    <line x1="52.0000000000001" y1="313.999999999999" x2="52.2725933896876" y2="311.929447639179"/>
    <line x1="52.2725933896876" y1="311.929447639179" x2="53.0717967697246" y2="309.999999999999"/>
    <line x1="19.2235428646926" y1="349.897777478866" x2="18.5000000000001" y2="349.598076211352"/>
    <line x1="18.5000000000001" y1="349.598076211352" x2="17.8786796564404" y2="349.121320343559"/>
    <line x1="17.8786796564404" y1="349.121320343559" x2="17.4019237886469" y2="348.499999999999"/>
    <line x1="17.4019237886469" y1="348.499999999999" x2="17.1022225211329" y2="347.776457135307"/>
    <line x1="17.1022225211329" y1="347.776457135307" x2="17.0000000000001" y2="347.0"/>
    <line x1="17.0000000000001" y1="347.0" x2="17.1022225211329" y2="346.223542864692"/>
    <line x1="17.1022225211329" y1="346.223542864692" x2="17.4019237886468" y2="345.499999999999"/>
    <line x1="17.4019237886468" y1="345.499999999999" x2="17.8786796564405" y2="344.878679656439"/>
    <line x1="17.8786796564405" y1="344.878679656439" x2="18.5000000000001" y2="344.401923788645"/>
    <line x1="18.5000000000001" y1="344.401923788645" x2="19.2235428646926" y2="344.102222521131"/>
    <line x1="19.2235428646926" y1="344.102222521131" x2="20.0000000000001" y2="344.0"/>
    <line x1="20.0000000000001" y1="344.0" x2="20.7764571353077" y2="344.102222521132"/>
    <line x1="20.7764571353077" y1="344.102222521132" x2="21.5000000000001" y2="344.401923788645"/>
    <line x1="21.5000000000001" y1="344.401923788645" x2="22.1213203435597" y2="344.87867965644"/>
    <line x1="22.1213203435597" y1="344.87867965644" x2="22.5980762113534" y2="345.499999999999"/>
    <line x1="22.5980762113534" y1="345.499999999999" x2="22.8977774788673" y2="346.223542864692"/>
    <line x1="22.8977774788673" y1="346.223542864692" x2="23.0000000000001" y2="347.0"/>
    <line x1="23.0000000000001" y1="347.0" x2="22.8977774788673" y2="347.776457135307"/>
    <line x1="22.8977774788673" y1="347.776457135307" x2="22.5980762113534" y2="348.499999999999"/>
    <line x1="22.5980762113534" y1="348.499999999999" x2="22.1213203435598" y2="349.121320343559"/>
    <line x1="22.1213203435598" y1="349.121320343559" x2="21.5" y2="349.598076211354"/>
    <line x1="21.5" y1="349.598076211354" x2="20.7764571353077" y2="349.897777478867"/>
    <line x1="20.7764571353077" y1="349.897777478867" x2="20.0000000000001" y2="349.999999999999"/>
    <line x1="20.0000000000001" y1="349.999999999999" x2="19.2235428646926" y2="349.897777478866"/>
    <line x1="22.8977774788675" y1="271.223542864691" x2="23.0000000000002" y2="271.999999999999"/>
    <line x1="23.0000000000002" y1="271.999999999999" x2="22.8977774788675" y2="272.776457135306"/>
    <line x1="22.8977774788675" y1="272.776457135306" x2="22.5980762113536" y2="273.499999999999"/>
    <line x1="22.5980762113536" y1="273.499999999999" x2="22.1213203435599" y2="274.121320343558"/>
    <line x1="22.1213203435599" y1="274.121320343558" x2="21.5000000000003" y2="274.598076211352"/>
    <line x1="21.5000000000003" y1="274.598076211352" x2="20.7764571353078" y2="274.897777478866"/>
    <line x1="20.7764571353078" y1="274.897777478866" x2="20.0000000000003" y2="274.999999999998"/>
    <line x1="20.0000000000003" y1="274.999999999998" x2="19.2235428646927" y2="274.897777478866"/>
    <line x1="19.2235428646927" y1="274.897777478866" x2="18.5000000000002" y2="274.598076211352"/>
    <line x1="18.5000000000002" y1="274.598076211352" x2="17.8786796564406" y2="274.121320343558"/>
    <line x1="17.8786796564406" y1="274.121320343558" x2="17.401923788647" y2="273.499999999999"/>
    <line x1="17.401923788647" y1="273.499999999999" x2="17.1022225211331" y2="272.776457135306"/>
    <line x1="17.1022225211331" y1="272.776457135306" x2="17.0000000000003" y2="271.999999999998"/>
    <line x1="17.0000000000003" y1="271.999999999998" x2="17.1022225211331" y2="271.223542864691"/>
    <line x1="17.1022225211331" y1="271.223542864691" x2="17.401923788647" y2="270.499999999998"/>
    <line x1="17.401923788647" y1="270.499999999998" x2="17.8786796564406" y2="269.878679656439"/>
    <line x1="17.8786796564406" y1="269.878679656439" x2="18.5000000000002" y2="269.401923788645"/>
    <line x1="18.5000000000002" y1="269.401923788645" x2="19.2235428646926" y2="269.102222521131"/>
    <line x1="19.2235428646926" y1="269.102222521131" x2="20.0000000000003" y2="268.999999999998"/>
    <line x1="20.0000000000003" y1="268.999999999998" x2="20.7764571353078" y2="269.102222521131"/>
    <line x1="20.7764571353078" y1="269.102222521131" x2="21.5000000000003" y2="269.401923788645"/>
    <line x1="21.5000000000003" y1="269.401923788645" x2="22.1213203435599" y2="269.878679656439"/>
    <line x1="22.1213203435599" y1="269.878679656439" x2="22.5980762113535" y2="270.499999999998"/>
    <line x1="22.5980762113535" y1="270.499999999998" x2="22.8977774788675" y2="271.223542864691"/>
    <line x1="20.0000000000006" y1="128.999999999999" x2="20.776457135308" y2="129.102222521132"/>
    <line x1="20.776457135308" y1="129.102222521132" x2="21.5000000000005" y2="129.401923788646"/>
    <line x1="21.5000000000005" y1="129.401923788646" x2="22.1213203435601" y2="129.87867965644"/>
    <line x1="22.1213203435601" y1="129.87867965644" x2="22.5980762113537" y2="130.499999999999"/>
    <line x1="22.5980762113537" y1="130.499999999999" x2="22.8977774788676" y2="131.223542864692"/>
    <line x1="22.8977774788676" y1="131.223542864692" x2="23.0000000000005" y2="131.999999999999"/>
    <line x1="23.0000000000005" y1="131.999999999999" x2="22.8977774788677" y2="132.776457135307"/>
    <line x1="22.8977774788677" y1="132.776457135307" x2="22.5980762113537" y2="133.499999999999"/>
    <line x1="22.5980762113537" y1="133.499999999999" x2="22.1213203435602" y2="134.121320343559"/>
    <line x1="22.1213203435602" y1="134.121320343559" x2="21.5000000000005" y2="134.598076211353"/>
    <line x1="21.5000000000005" y1="134.598076211353" x2="20.7764571353081" y2="134.897777478866"/>
    <line x1="20.7764571353081" y1="134.897777478866" x2="20.0000000000005" y2="134.999999999999"/>
    <line x1="20.0000000000005" y1="134.999999999999" x2="19.2235428646929" y2="134.897777478866"/>
    <line x1="19.2235428646929" y1="134.897777478866" x2="18.5000000000005" y2="134.598076211353"/>
    <line x1="18.5000000000005" y1="134.598076211353" x2="17.8786796564408" y2="134.121320343559"/>
    <line x1="17.8786796564408" y1="134.121320343559" x2="17.4019237886472" y2="133.499999999999"/>
    <line x1="17.4019237886472" y1="133.499999999999" x2="17.1022225211333" y2="132.776457135307"/>
    <line x1="17.1022225211333" y1="132.776457135307" x2="17.0000000000005" y2="131.999999999999"/>
    <line x1="17.0000000000005" y1="131.999999999999" x2="17.1022225211333" y2="131.223542864692"/>
    <line x1="17.1022225211333" y1="131.223542864692" x2="17.4019237886472" y2="130.499999999999"/>
    <line x1="17.4019237886472" y1="130.499999999999" x2="17.8786796564407" y2="129.87867965644"/>
    <line x1="17.8786796564407" y1="129.87867965644" x2="18.5000000000004" y2="129.401923788646"/>
    <line x1="18.5000000000004" y1="129.401923788646" x2="19.2235428646929" y2="129.102222521132"/>
    <line x1="19.2235428646929" y1="129.102222521132" x2="20.0000000000006" y2="128.999999999999"/>
    <line x1="17.1022225211335" y1="57.7764571353069" x2="17.0000000000006" y2="56.9999999999992"/>
    <line x1="17.0000000000006" y1="56.9999999999992" x2="17.1022225211335" y2="56.2235428646918"/>
    <line x1="17.1022225211335" y1="56.2235428646918" x2="17.4019237886474" y2="55.4999999999992"/>
    <line x1="17.4019237886474" y1="55.4999999999992" x2="17.878679656441" y2="54.8786796564398"/>
    <line x1="17.878679656441" y1="54.8786796564398" x2="18.5000000000005" y2="54.4019237886461"/>
    <line x1="18.5000000000005" y1="54.4019237886461" x2="19.223542864693" y2="54.1022225211322"/>
    <line x1="19.223542864693" y1="54.1022225211322" x2="20.0000000000006" y2="53.9999999999993"/>
    <line x1="20.0000000000006" y1="53.9999999999993" x2="20.7764571353082" y2="54.102222521132"/>
    <line x1="20.7764571353082" y1="54.102222521132" x2="21.5000000000007" y2="54.4019237886459"/>
    <line x1="21.5000000000007" y1="54.4019237886459" x2="22.1213203435603" y2="54.8786796564396"/>
    <line x1="22.1213203435603" y1="54.8786796564396" x2="22.5980762113539" y2="55.4999999999993"/>
    <line x1="22.5980762113539" y1="55.4999999999993" x2="22.8977774788678" y2="56.2235428646917"/>
    <line x1="22.8977774788678" y1="56.2235428646917" x2="23.0000000000007" y2="56.9999999999994"/>
    <line x1="23.0000000000007" y1="56.9999999999994" x2="22.8977774788678" y2="57.776457135307"/>
    <line x1="22.8977774788678" y1="57.776457135307" x2="22.5980762113539" y2="58.4999999999993"/>
    <line x1="22.5980762113539" y1="58.4999999999993" x2="22.1213203435603" y2="59.121320343559"/>
    <line x1="22.1213203435603" y1="59.121320343559" x2="21.5000000000006" y2="59.5980762113523"/>
    <line x1="21.5000000000006" y1="59.5980762113523" x2="20.7764571353082" y2="59.897777478866"/>
    <line x1="20.7764571353082" y1="59.897777478866" x2="20.0000000000007" y2="59.9999999999988"/>
    <line x1="20.0000000000007" y1="59.9999999999988" x2="19.2235428646931" y2="59.8977774788659"/>
    <line x1="19.2235428646931" y1="59.8977774788659" x2="18.5000000000006" y2="59.5980762113522"/>
    <line x1="18.5000000000006" y1="59.5980762113522" x2="17.8786796564409" y2="59.1213203435591"/>
    <line x1="17.8786796564409" y1="59.1213203435591" x2="17.4019237886474" y2="58.4999999999994"/>
    <line x1="17.4019237886474" y1="58.4999999999994" x2="17.1022225211335" y2="57.7764571353069"/>
    <line x1="377.000000000001" y1="131.999999999999" x2="376.897777478868" y2="132.776457135307"/>
    <line x1="376.897777478868" y1="132.776457135307" x2="376.598076211354" y2="133.499999999999"/>
    <line x1="376.598076211354" y1="133.499999999999" x2="376.12132034356" y2="134.121320343559"/>
    <line x1="376.12132034356" y1="134.121320343559" x2="375.500000000001" y2="134.598076211352"/>
    <line x1="375.500000000001" y1="134.598076211352" x2="374.776457135308" y2="134.897777478866"/>
    <line x1="374.776457135308" y1="134.897777478866" x2="374.000000000001" y2="134.999999999999"/>
    <line x1="374.000000000001" y1="134.999999999999" x2="373.223542864693" y2="134.897777478866"/>
    <line x1="373.223542864693" y1="134.897777478866" x2="372.500000000001" y2="134.598076211352"/>
    <line x1="372.500000000001" y1="134.598076211352" x2="371.878679656441" y2="134.121320343559"/>
    <line x1="371.878679656441" y1="134.121320343559" x2="371.401923788647" y2="133.499999999999"/>
    <line x1="371.401923788647" y1="133.499999999999" x2="371.102222521133" y2="132.776457135307"/>
    <line x1="371.102222521133" y1="132.776457135307" x2="371.000000000001" y2="131.999999999999"/>
    <line x1="371.000000000001" y1="131.999999999999" x2="371.102222521133" y2="131.223542864692"/>
    <line x1="371.102222521133" y1="131.223542864692" x2="371.401923788647" y2="130.499999999999"/>
    <line x1="371.401923788647" y1="130.499999999999" x2="371.878679656441" y2="129.878679656439"/>
    <line x1="371.878679656441" y1="129.878679656439" x2="372.500000000001" y2="129.401923788646"/>
    <line x1="372.500000000001" y1="129.401923788646" x2="373.223542864693" y2="129.102222521132"/>
    <line x1="373.223542864693" y1="129.102222521132" x2="374.000000000001" y2="128.999999999999"/>
    <line x1="374.000000000001" y1="128.999999999999" x2="374.776457135308" y2="129.102222521132"/>
    <line x1="374.776457135308" y1="129.102222521132" x2="375.500000000001" y2="129.401923788646"/>
    <line x1="375.500000000001" y1="129.401923788646" x2="376.12132034356" y2="129.878679656439"/>
    <line x1="376.12132034356" y1="129.878679656439" x2="376.598076211354" y2="130.499999999999"/>
    <line x1="376.598076211354" y1="130.499999999999" x2="376.897777478868" y2="131.223542864692"/>
    <line x1="376.897777478868" y1="131.223542864692" x2="377.000000000001" y2="131.999999999999"/>
    <line x1="371.0" y1="271.999999999998" x2="371.102222521133" y2="271.223542864691"/>
    <line x1="371.102222521133" y1="271.223542864691" x2="371.401923788647" y2="270.499999999998"/>
    <line x1="371.401923788647" y1="270.499999999998" x2="371.878679656441" y2="269.878679656439"/>
    <line x1="371.878679656441" y1="269.878679656439" x2="372.5" y2="269.401923788645"/>
    <line x1="372.5" y1="269.401923788645" x2="373.223542864693" y2="269.102222521131"/>
    <line x1="373.223542864693" y1="269.102222521131" x2="374.0" y2="268.999999999998"/>
    <line x1="374.0" y1="268.999999999998" x2="374.776457135308" y2="269.102222521131"/>
    <line x1="374.776457135308" y1="269.102222521131" x2="375.5" y2="269.401923788645"/>
    <line x1="375.5" y1="269.401923788645" x2="376.12132034356" y2="269.878679656439"/>
    <line x1="376.12132034356" y1="269.878679656439" x2="376.598076211354" y2="270.499999999998"/>
    <line x1="376.598076211354" y1="270.499999999998" x2="376.897777478868" y2="271.223542864691"/>
    <line x1="376.897777478868" y1="271.223542864691" x2="377.0" y2="271.999999999999"/>
    <line x1="377.0" y1="271.999999999999" x2="376.897777478868" y2="272.776457135306"/>
    <line x1="376.897777478868" y1="272.776457135306" x2="376.598076211354" y2="273.499999999998"/>
    <line x1="376.598076211354" y1="273.499999999998" x2="376.12132034356" y2="274.121320343558"/>
    <line x1="376.12132034356" y1="274.121320343558" x2="375.5" y2="274.598076211352"/>
    <line x1="375.5" y1="274.598076211352" x2="374.776457135308" y2="274.897777478866"/>
    <line x1="374.776457135308" y1="274.897777478866" x2="374.0" y2="274.999999999998"/>
    <line x1="374.0" y1="274.999999999998" x2="373.223542864693" y2="274.897777478866"/>
    <line x1="373.223542864693" y1="274.897777478866" x2="372.5" y2="274.598076211352"/>
    <line x1="372.5" y1="274.598076211352" x2="371.878679656441" y2="274.121320343558"/>
    <line x1="371.878679656441" y1="274.121320343558" x2="371.401923788647" y2="273.499999999998"/>
    <line x1="371.401923788647" y1="273.499999999998" x2="371.102222521133" y2="272.776457135306"/>
    <line x1="371.102222521133" y1="272.776457135306" x2="371.0" y2="271.999999999998"/>
    <line x1="48.7500000000006" y1="267.149999999999" x2="48.6562960222954" y2="267.86175237403"/>
    <line x1="48.6562960222954" y1="267.86175237403" x2="48.3815698604077" y2="268.524999999998"/>
    <line x1="48.3815698604077" y1="268.524999999998" x2="47.9445436482636" y2="269.094543648262"/>
    <line x1="47.9445436482636" y1="269.094543648262" x2="47.3750000000005" y2="269.531569860406"/>
    <line x1="47.3750000000005" y1="269.531569860406" x2="46.7117523740325" y2="269.806296022293"/>
    <line x1="46.7117523740325" y1="269.806296022293" x2="46.0000000000006" y2="269.899999999999"/>
    <line x1="46.0000000000006" y1="269.899999999999" x2="45.2882476259686" y2="269.806296022294"/>
    <line x1="45.2882476259686" y1="269.806296022294" x2="44.6250000000006" y2="269.531569860406"/>
    <line x1="44.6250000000006" y1="269.531569860406" x2="44.0554563517376" y2="269.094543648262"/>
    <line x1="44.0554563517376" y1="269.094543648262" x2="43.6184301395933" y2="268.524999999999"/>
    <line x1="43.6184301395933" y1="268.524999999999" x2="43.3437039777055" y2="267.86175237403"/>
    <line x1="43.3437039777055" y1="267.86175237403" x2="43.2500000000006" y2="267.149999999999"/>
    <line x1="43.2500000000006" y1="267.149999999999" x2="43.3437039777056" y2="266.438247625967"/>
    <line x1="43.3437039777056" y1="266.438247625967" x2="43.6184301395933" y2="265.774999999999"/>
    <line x1="43.6184301395933" y1="265.774999999999" x2="44.0554563517375" y2="265.205456351736"/>
    <line x1="44.0554563517375" y1="265.205456351736" x2="44.6250000000004" y2="264.768430139591"/>
    <line x1="44.6250000000004" y1="264.768430139591" x2="45.2882476259686" y2="264.493703977704"/>
    <line x1="45.2882476259686" y1="264.493703977704" x2="46.0000000000006" y2="264.399999999999"/>
    <line x1="46.0000000000006" y1="264.399999999999" x2="46.7117523740325" y2="264.493703977704"/>
    <line x1="46.7117523740325" y1="264.493703977704" x2="47.3750000000004" y2="264.768430139591"/>
    <line x1="47.3750000000004" y1="264.768430139591" x2="47.9445436482636" y2="265.205456351736"/>
    <line x1="47.9445436482636" y1="265.205456351736" x2="48.3815698604077" y2="265.774999999999"/>
    <line x1="48.3815698604077" y1="265.774999999999" x2="48.6562960222955" y2="266.438247625967"/>
    <line x1="48.6562960222955" y1="266.438247625967" x2="48.7500000000006" y2="267.149999999999"/>
    <line x1="48.6562960222954" y1="234.938247625966" x2="48.7500000000006" y2="235.649999999998"/>
    <line x1="48.7500000000006" y1="235.649999999998" x2="48.6562960222954" y2="236.36175237403"/>
    <line x1="48.6562960222954" y1="236.36175237403" x2="48.3815698604078" y2="237.024999999998"/>
    <line x1="48.3815698604078" y1="237.024999999998" x2="47.9445436482636" y2="237.594543648262"/>
    <line x1="47.9445436482636" y1="237.594543648262" x2="47.3750000000004" y2="238.031569860406"/>
    <line x1="47.3750000000004" y1="238.031569860406" x2="46.7117523740324" y2="238.306296022293"/>
    <line x1="46.7117523740324" y1="238.306296022293" x2="46.0000000000006" y2="238.399999999999"/>
    <line x1="46.0000000000006" y1="238.399999999999" x2="45.2882476259687" y2="238.306296022293"/>
    <line x1="45.2882476259687" y1="238.306296022293" x2="44.6250000000004" y2="238.031569860406"/>
    <line x1="44.6250000000004" y1="238.031569860406" x2="44.0554563517376" y2="237.594543648262"/>
    <line x1="44.0554563517376" y1="237.594543648262" x2="43.6184301395934" y2="237.024999999999"/>
    <line x1="43.6184301395934" y1="237.024999999999" x2="43.3437039777056" y2="236.36175237403"/>
    <line x1="43.3437039777056" y1="236.36175237403" x2="43.2500000000005" y2="235.649999999999"/>
    <line x1="43.2500000000005" y1="235.649999999999" x2="43.3437039777056" y2="234.938247625967"/>
    <line x1="43.3437039777056" y1="234.938247625967" x2="43.6184301395934" y2="234.274999999999"/>
    <line x1="43.6184301395934" y1="234.274999999999" x2="44.0554563517376" y2="233.705456351736"/>
    <line x1="44.0554563517376" y1="233.705456351736" x2="44.6250000000005" y2="233.268430139591"/>
    <line x1="44.6250000000005" y1="233.268430139591" x2="45.2882476259686" y2="232.993703977704"/>
    <line x1="45.2882476259686" y1="232.993703977704" x2="46.0000000000006" y2="232.899999999999"/>
    <line x1="46.0000000000006" y1="232.899999999999" x2="46.7117523740324" y2="232.993703977704"/>
    <line x1="46.7117523740324" y1="232.993703977704" x2="47.3750000000005" y2="233.268430139591"/>
    <line x1="47.3750000000005" y1="233.268430139591" x2="47.9445436482636" y2="233.705456351736"/>
    <line x1="47.9445436482636" y1="233.705456351736" x2="48.3815698604078" y2="234.274999999998"/>
    <line x1="48.3815698604078" y1="234.274999999998" x2="48.6562960222954" y2="234.938247625966"/>
    <line x1="47.5529142706156" y1="245.604445042264" x2="49.0000000000005" y2="246.203847577292"/>
    <line x1="49.0000000000005" y1="246.203847577292" x2="50.2426406871198" y2="247.157359312879"/>
    <line x1="50.2426406871198" y1="247.157359312879" x2="51.1961524227071" y2="248.399999999999"/>
    <line x1="51.1961524227071" y1="248.399999999999" x2="51.7955549577349" y2="249.847085729384"/>
    <line x1="51.7955549577349" y1="249.847085729384" x2="52.0000000000005" y2="251.399999999999"/>
    <line x1="52.0000000000005" y1="251.399999999999" x2="51.7955549577348" y2="252.952914270614"/>
    <line x1="51.7955549577348" y1="252.952914270614" x2="51.1961524227072" y2="254.399999999999"/>
    <line x1="51.1961524227072" y1="254.399999999999" x2="50.2426406871198" y2="255.642640687118"/>
    <line x1="50.2426406871198" y1="255.642640687118" x2="49.0000000000004" y2="256.596152422705"/>
    <line x1="49.0000000000004" y1="256.596152422705" x2="47.5529142706156" y2="257.195554957733"/>
    <line x1="47.5529142706156" y1="257.195554957733" x2="46.0000000000005" y2="257.399999999999"/>
    <line x1="46.0000000000005" y1="257.399999999999" x2="44.4470857293854" y2="257.195554957733"/>
    <line x1="44.4470857293854" y1="257.195554957733" x2="43.0000000000004" y2="256.596152422705"/>
    <line x1="43.0000000000004" y1="256.596152422705" x2="41.7573593128811" y2="255.642640687118"/>
    <line x1="41.7573593128811" y1="255.642640687118" x2="40.803847577294" y2="254.399999999999"/>
    <line x1="40.803847577294" y1="254.399999999999" x2="40.2044450422661" y2="252.952914270614"/>
    <line x1="40.2044450422661" y1="252.952914270614" x2="40.0000000000005" y2="251.399999999999"/>
    <line x1="40.0000000000005" y1="251.399999999999" x2="40.2044450422661" y2="249.847085729384"/>
    <line x1="40.2044450422661" y1="249.847085729384" x2="40.803847577294" y2="248.399999999999"/>
    <line x1="40.803847577294" y1="248.399999999999" x2="41.7573593128811" y2="247.157359312879"/>
    <line x1="41.7573593128811" y1="247.157359312879" x2="43.0000000000004" y2="246.203847577292"/>
    <line x1="43.0000000000004" y1="246.203847577292" x2="44.4470857293853" y2="245.604445042264"/>
    <line x1="44.4470857293853" y1="245.604445042264" x2="46.0000000000005" y2="245.399999999998"/>
    <line x1="46.0000000000005" y1="245.399999999998" x2="47.5529142706156" y2="245.604445042264"/>
    <line x1="48.6562960222955" y1="136.138247625968" x2="48.7500000000007" y2="136.85"/>
    <line x1="48.7500000000007" y1="136.85" x2="48.6562960222955" y2="137.561752374032"/>
    <line x1="48.6562960222955" y1="137.561752374032" x2="48.3815698604077" y2="138.225"/>
    <line x1="48.3815698604077" y1="138.225" x2="47.9445436482637" y2="138.794543648263"/>
    <line x1="47.9445436482637" y1="138.794543648263" x2="47.3750000000006" y2="139.231569860407"/>
    <line x1="47.3750000000006" y1="139.231569860407" x2="46.7117523740326" y2="139.506296022295"/>
    <line x1="46.7117523740326" y1="139.506296022295" x2="46.0000000000006" y2="139.6"/>
    <line x1="46.0000000000006" y1="139.6" x2="45.2882476259688" y2="139.506296022295"/>
    <line x1="45.2882476259688" y1="139.506296022295" x2="44.6250000000005" y2="139.231569860407"/>
    <line x1="44.6250000000005" y1="139.231569860407" x2="44.0554563517377" y2="138.794543648263"/>
    <line x1="44.0554563517377" y1="138.794543648263" x2="43.6184301395933" y2="138.225"/>
    <line x1="43.6184301395933" y1="138.225" x2="43.3437039777057" y2="137.561752374032"/>
    <line x1="43.3437039777057" y1="137.561752374032" x2="43.2500000000006" y2="136.85"/>
    <line x1="43.2500000000006" y1="136.85" x2="43.3437039777056" y2="136.138247625968"/>
    <line x1="43.3437039777056" y1="136.138247625968" x2="43.6184301395935" y2="135.475"/>
    <line x1="43.6184301395935" y1="135.475" x2="44.0554563517377" y2="134.905456351736"/>
    <line x1="44.0554563517377" y1="134.905456351736" x2="44.6250000000006" y2="134.468430139592"/>
    <line x1="44.6250000000006" y1="134.468430139592" x2="45.2882476259685" y2="134.193703977705"/>
    <line x1="45.2882476259685" y1="134.193703977705" x2="46.0000000000007" y2="134.1"/>
    <line x1="46.0000000000007" y1="134.1" x2="46.7117523740324" y2="134.193703977705"/>
    <line x1="46.7117523740324" y1="134.193703977705" x2="47.3750000000007" y2="134.468430139593"/>
    <line x1="47.3750000000007" y1="134.468430139593" x2="47.9445436482636" y2="134.905456351737"/>
    <line x1="47.9445436482636" y1="134.905456351737" x2="48.3815698604078" y2="135.475"/>
    <line x1="48.3815698604078" y1="135.475" x2="48.6562960222955" y2="136.138247625968"/>
    <line x1="47.3750000000006" y1="170.731569860407" x2="46.7117523740325" y2="171.006296022295"/>
    <line x1="46.7117523740325" y1="171.006296022295" x2="46.0000000000005" y2="171.1"/>
    <line x1="46.0000000000005" y1="171.1" x2="45.2882476259687" y2="171.006296022295"/>
    <line x1="45.2882476259687" y1="171.006296022295" x2="44.6250000000006" y2="170.731569860407"/>
    <line x1="44.6250000000006" y1="170.731569860407" x2="44.0554563517377" y2="170.294543648263"/>
    <line x1="44.0554563517377" y1="170.294543648263" x2="43.6184301395934" y2="169.725"/>
    <line x1="43.6184301395934" y1="169.725" x2="43.3437039777056" y2="169.061752374032"/>
    <line x1="43.3437039777056" y1="169.061752374032" x2="43.2500000000007" y2="168.35"/>
    <line x1="43.2500000000007" y1="168.35" x2="43.3437039777055" y2="167.638247625968"/>
    <line x1="43.3437039777055" y1="167.638247625968" x2="43.6184301395934" y2="166.975"/>
    <line x1="43.6184301395934" y1="166.975" x2="44.0554563517375" y2="166.405456351737"/>
    <line x1="44.0554563517375" y1="166.405456351737" x2="44.6250000000006" y2="165.968430139592"/>
    <line x1="44.6250000000006" y1="165.968430139592" x2="45.2882476259685" y2="165.693703977705"/>
    <line x1="45.2882476259685" y1="165.693703977705" x2="46.0000000000005" y2="165.6"/>
    <line x1="46.0000000000005" y1="165.6" x2="46.7117523740324" y2="165.693703977705"/>
    <line x1="46.7117523740324" y1="165.693703977705" x2="47.3750000000006" y2="165.968430139593"/>
    <line x1="47.3750000000006" y1="165.968430139593" x2="47.9445436482637" y2="166.405456351737"/>
    <line x1="47.9445436482637" y1="166.405456351737" x2="48.3815698604079" y2="166.975"/>
    <line x1="48.3815698604079" y1="166.975" x2="48.6562960222954" y2="167.638247625968"/>
    <line x1="48.6562960222954" y1="167.638247625968" x2="48.7500000000007" y2="168.35"/>
    <line x1="48.7500000000007" y1="168.35" x2="48.6562960222954" y2="169.061752374031"/>
    <line x1="48.6562960222954" y1="169.061752374031" x2="48.3815698604077" y2="169.725"/>
    <line x1="48.3815698604077" y1="169.725" x2="47.9445436482637" y2="170.294543648263"/>
    <line x1="47.9445436482637" y1="170.294543648263" x2="47.3750000000006" y2="170.731569860407"/>
    <line x1="52.0000000000004" y1="152.6" x2="51.7955549577349" y2="154.152914270615"/>
    <line x1="51.7955549577349" y1="154.152914270615" x2="51.1961524227072" y2="155.6"/>
    <line x1="51.1961524227072" y1="155.6" x2="50.2426406871198" y2="156.842640687119"/>
    <line x1="50.2426406871198" y1="156.842640687119" x2="49.0000000000006" y2="157.796152422706"/>
    <line x1="49.0000000000006" y1="157.796152422706" x2="47.5529142706156" y2="158.395554957734"/>
    <line x1="47.5529142706156" y1="158.395554957734" x2="46.0000000000006" y2="158.6"/>
    <line x1="46.0000000000006" y1="158.6" x2="44.4470857293854" y2="158.395554957734"/>
    <line x1="44.4470857293854" y1="158.395554957734" x2="43.0000000000005" y2="157.796152422706"/>
    <line x1="43.0000000000005" y1="157.796152422706" x2="41.7573593128812" y2="156.842640687119"/>
    <line x1="41.7573593128812" y1="156.842640687119" x2="40.8038475772941" y2="155.6"/>
    <line x1="40.8038475772941" y1="155.6" x2="40.2044450422662" y2="154.152914270615"/>
    <line x1="40.2044450422662" y1="154.152914270615" x2="40.0000000000007" y2="152.6"/>
    <line x1="40.0000000000007" y1="152.6" x2="40.2044450422661" y2="151.047085729385"/>
    <line x1="40.2044450422661" y1="151.047085729385" x2="40.803847577294" y2="149.6"/>
    <line x1="40.803847577294" y1="149.6" x2="41.7573593128814" y2="148.35735931288"/>
    <line x1="41.7573593128814" y1="148.35735931288" x2="43.0000000000006" y2="147.403847577293"/>
    <line x1="43.0000000000006" y1="147.403847577293" x2="44.4470857293856" y2="146.804445042265"/>
    <line x1="44.4470857293856" y1="146.804445042265" x2="46.0000000000004" y2="146.6"/>
    <line x1="46.0000000000004" y1="146.6" x2="47.5529142706157" y2="146.804445042265"/>
    <line x1="47.5529142706157" y1="146.804445042265" x2="49.0000000000006" y2="147.403847577293"/>
    <line x1="49.0000000000006" y1="147.403847577293" x2="50.2426406871198" y2="148.35735931288"/>
    <line x1="50.2426406871198" y1="148.35735931288" x2="51.1961524227072" y2="149.6"/>
    <line x1="51.1961524227072" y1="149.6" x2="51.7955549577349" y2="151.047085729385"/>
    <line x1="51.7955549577349" y1="151.047085729385" x2="52.0000000000004" y2="152.6"/>
    <line x1="99.1213203435604" y1="22.1213203435589" x2="98.5000000000008" y2="22.5980762113526"/>
    <line x1="98.5000000000008" y1="22.5980762113526" x2="97.7764571353084" y2="22.8977774788665"/>
    <line x1="97.7764571353084" y1="22.8977774788665" x2="97.0000000000007" y2="22.9999999999993"/>
    <line x1="97.0000000000007" y1="22.9999999999993" x2="96.2235428646933" y2="22.8977774788665"/>
    <line x1="96.2235428646933" y1="22.8977774788665" x2="95.5000000000007" y2="22.5980762113532"/>
    <line x1="95.5000000000007" y1="22.5980762113532" x2="94.8786796564412" y2="22.1213203435589"/>
    <line x1="94.8786796564412" y1="22.1213203435589" x2="94.4019237886475" y2="21.4999999999992"/>
    <line x1="94.4019237886475" y1="21.4999999999992" x2="94.1022225211335" y2="20.7764571353069"/>
    <line x1="94.1022225211335" y1="20.7764571353069" x2="94.0000000000009" y2="19.9999999999999"/>
    <line x1="94.0000000000009" y1="19.9999999999999" x2="94.1022225211335" y2="19.2235428646918"/>
    <line x1="94.1022225211335" y1="19.2235428646918" x2="94.4019237886475" y2="18.4999999999992"/>
    <line x1="94.4019237886475" y1="18.4999999999992" x2="94.8786796564413" y2="17.8786796564396"/>
    <line x1="94.8786796564413" y1="17.8786796564396" x2="95.5000000000008" y2="17.4019237886465"/>
    <line x1="95.5000000000008" y1="17.4019237886465" x2="96.2235428646933" y2="17.1022225211321"/>
    <line x1="96.2235428646933" y1="17.1022225211321" x2="97.0000000000007" y2="16.9999999999994"/>
    <line x1="97.0000000000007" y1="16.9999999999994" x2="97.7764571353084" y2="17.102222521132"/>
    <line x1="97.7764571353084" y1="17.102222521132" x2="98.5000000000009" y2="17.4019237886458"/>
    <line x1="98.5000000000009" y1="17.4019237886458" x2="99.1213203435605" y2="17.8786796564396"/>
    <line x1="99.1213203435605" y1="17.8786796564396" x2="99.5980762113542" y2="18.4999999999999"/>
    <line x1="99.5980762113542" y1="18.4999999999999" x2="99.8977774788681" y2="19.2235428646918"/>
    <line x1="99.8977774788681" y1="19.2235428646918" x2="100.000000000001" y2="19.9999999999992"/>
    <line x1="100.000000000001" y1="19.9999999999992" x2="99.897777478868" y2="20.776457135307"/>
    <line x1="99.897777478868" y1="20.776457135307" x2="99.5980762113541" y2="21.4999999999999"/>
    <line x1="99.5980762113541" y1="21.4999999999999" x2="99.1213203435604" y2="22.1213203435589"/>
    <line x1="195.500000000001" y1="17.4019237886465" x2="196.223542864693" y2="17.1022225211321"/>
    <line x1="196.223542864693" y1="17.1022225211321" x2="197.000000000001" y2="16.9999999999993"/>
    <line x1="197.000000000001" y1="16.9999999999993" x2="197.776457135308" y2="17.1022225211321"/>
    <line x1="197.776457135308" y1="17.1022225211321" x2="198.500000000001" y2="17.401923788646"/>
    <line x1="198.500000000001" y1="17.401923788646" x2="199.12132034356" y2="17.8786796564397"/>
    <line x1="199.12132034356" y1="17.8786796564397" x2="199.598076211354" y2="18.4999999999999"/>
    <line x1="199.598076211354" y1="18.4999999999999" x2="199.897777478868" y2="19.2235428646918"/>
    <line x1="199.897777478868" y1="19.2235428646918" x2="200.000000000001" y2="19.9999999999993"/>
    <line x1="200.000000000001" y1="19.9999999999993" x2="199.897777478868" y2="20.7764571353068"/>
    <line x1="199.897777478868" y1="20.7764571353068" x2="199.598076211354" y2="21.4999999999998"/>
    <line x1="199.598076211354" y1="21.4999999999998" x2="199.121320343561" y2="22.1213203435589"/>
    <line x1="199.121320343561" y1="22.1213203435589" x2="198.500000000001" y2="22.5980762113526"/>
    <line x1="198.500000000001" y1="22.5980762113526" x2="197.776457135308" y2="22.8977774788665"/>
    <line x1="197.776457135308" y1="22.8977774788665" x2="197.000000000001" y2="22.9999999999993"/>
    <line x1="197.000000000001" y1="22.9999999999993" x2="196.223542864693" y2="22.8977774788665"/>
    <line x1="196.223542864693" y1="22.8977774788665" x2="195.500000000001" y2="22.5980762113532"/>
    <line x1="195.500000000001" y1="22.5980762113532" x2="194.878679656441" y2="22.121320343559"/>
    <line x1="194.878679656441" y1="22.121320343559" x2="194.401923788647" y2="21.4999999999993"/>
    <line x1="194.401923788647" y1="21.4999999999993" x2="194.102222521134" y2="20.7764571353068"/>
    <line x1="194.102222521134" y1="20.7764571353068" x2="194.000000000001" y2="19.9999999999993"/>
    <line x1="194.000000000001" y1="19.9999999999993" x2="194.102222521134" y2="19.2235428646918"/>
    <line x1="194.102222521134" y1="19.2235428646918" x2="194.401923788647" y2="18.4999999999992"/>
    <line x1="194.401923788647" y1="18.4999999999992" x2="194.878679656441" y2="17.8786796564397"/>
    <line x1="194.878679656441" y1="17.8786796564397" x2="195.500000000001" y2="17.4019237886465"/>
    <line x1="297.776457135309" y1="17.102222521132" x2="298.500000000003" y2="17.401923788646"/>
    <line x1="298.500000000003" y1="17.401923788646" x2="299.121320343562" y2="17.8786796564396"/>
    <line x1="299.121320343562" y1="17.8786796564396" x2="299.598076211355" y2="18.4999999999993"/>
    <line x1="299.598076211355" y1="18.4999999999993" x2="299.897777478869" y2="19.2235428646918"/>
    <line x1="299.897777478869" y1="19.2235428646918" x2="300.000000000002" y2="19.9999999999993"/>
    <line x1="300.000000000002" y1="19.9999999999993" x2="299.897777478869" y2="20.7764571353069"/>
    <line x1="299.897777478869" y1="20.7764571353069" x2="299.598076211355" y2="21.4999999999993"/>
    <line x1="299.598076211355" y1="21.4999999999993" x2="299.121320343562" y2="22.1213203435589"/>
    <line x1="299.121320343562" y1="22.1213203435589" x2="298.500000000002" y2="22.5980762113527"/>
    <line x1="298.500000000002" y1="22.5980762113527" x2="297.776457135309" y2="22.8977774788666"/>
    <line x1="297.776457135309" y1="22.8977774788666" x2="297.000000000002" y2="22.9999999999993"/>
    <line x1="297.000000000002" y1="22.9999999999993" x2="296.223542864694" y2="22.8977774788666"/>
    <line x1="296.223542864694" y1="22.8977774788666" x2="295.500000000002" y2="22.5980762113532"/>
    <line x1="295.500000000002" y1="22.5980762113532" x2="294.878679656442" y2="22.1213203435589"/>
    <line x1="294.878679656442" y1="22.1213203435589" x2="294.401923788649" y2="21.4999999999993"/>
    <line x1="294.401923788649" y1="21.4999999999993" x2="294.102222521135" y2="20.7764571353069"/>
    <line x1="294.102222521135" y1="20.7764571353069" x2="294.000000000002" y2="19.9999999999993"/>
    <line x1="294.000000000002" y1="19.9999999999993" x2="294.102222521135" y2="19.2235428646918"/>
    <line x1="294.102222521135" y1="19.2235428646918" x2="294.401923788649" y2="18.4999999999993"/>
    <line x1="294.401923788649" y1="18.4999999999993" x2="294.878679656442" y2="17.8786796564396"/>
    <line x1="294.878679656442" y1="17.8786796564396" x2="295.500000000002" y2="17.4019237886465"/>
    <line x1="295.500000000002" y1="17.4019237886465" x2="296.223542864694" y2="17.102222521132"/>
    <line x1="296.223542864694" y1="17.102222521132" x2="297.000000000002" y2="16.9999999999992"/>
    <line x1="297.000000000002" y1="16.9999999999992" x2="297.776457135309" y2="17.102222521132"/>
    <line x1="297.000000000002" y1="386.999999999999" x2="296.223542864694" y2="386.897777478867"/>
    <line x1="296.223542864694" y1="386.897777478867" x2="295.500000000001" y2="386.598076211353"/>
    <line x1="295.500000000001" y1="386.598076211353" x2="294.878679656442" y2="386.121320343559"/>
    <line x1="294.878679656442" y1="386.121320343559" x2="294.401923788648" y2="385.499999999999"/>
    <line x1="294.401923788648" y1="385.499999999999" x2="294.102222521134" y2="384.776457135307"/>
    <line x1="294.102222521134" y1="384.776457135307" x2="294.000000000001" y2="383.999999999999"/>
    <line x1="294.000000000001" y1="383.999999999999" x2="294.102222521134" y2="383.223542864692"/>
    <line x1="294.102222521134" y1="383.223542864692" x2="294.401923788648" y2="382.499999999999"/>
    <line x1="294.401923788648" y1="382.499999999999" x2="294.878679656442" y2="381.87867965644"/>
    <line x1="294.878679656442" y1="381.87867965644" x2="295.500000000002" y2="381.401923788646"/>
    <line x1="295.500000000002" y1="381.401923788646" x2="296.223542864694" y2="381.102222521132"/>
    <line x1="296.223542864694" y1="381.102222521132" x2="297.000000000001" y2="380.999999999999"/>
    <line x1="297.000000000001" y1="380.999999999999" x2="297.776457135309" y2="381.102222521132"/>
    <line x1="297.776457135309" y1="381.102222521132" x2="298.500000000002" y2="381.401923788646"/>
    <line x1="298.500000000002" y1="381.401923788646" x2="299.121320343561" y2="381.87867965644"/>
    <line x1="299.121320343561" y1="381.87867965644" x2="299.598076211355" y2="382.499999999999"/>
    <line x1="299.598076211355" y1="382.499999999999" x2="299.897777478869" y2="383.223542864692"/>
    <line x1="299.897777478869" y1="383.223542864692" x2="300.000000000002" y2="383.999999999999"/>
    <line x1="300.000000000002" y1="383.999999999999" x2="299.897777478869" y2="384.776457135307"/>
    <line x1="299.897777478869" y1="384.776457135307" x2="299.598076211355" y2="385.499999999999"/>
    <line x1="299.598076211355" y1="385.499999999999" x2="299.121320343561" y2="386.121320343559"/>
    <line x1="299.121320343561" y1="386.121320343559" x2="298.500000000002" y2="386.598076211353"/>
    <line x1="298.500000000002" y1="386.598076211353" x2="297.776457135309" y2="386.897777478867"/>
    <line x1="297.776457135309" y1="386.897777478867" x2="297.000000000002" y2="386.999999999999"/>
    <line x1="198.5" y1="386.598076211353" x2="197.776457135308" y2="386.897777478866"/>
    <line x1="197.776457135308" y1="386.897777478866" x2="197.0" y2="387.0"/>
    <line x1="197.0" y1="387.0" x2="196.223542864693" y2="386.897777478867"/>
    <line x1="196.223542864693" y1="386.897777478867" x2="195.5" y2="386.598076211353"/>
    <line x1="195.5" y1="386.598076211353" x2="194.878679656441" y2="386.12132034356"/>
    <line x1="194.878679656441" y1="386.12132034356" x2="194.401923788647" y2="385.499999999999"/>
    <line x1="194.401923788647" y1="385.499999999999" x2="194.102222521133" y2="384.776457135307"/>
    <line x1="194.102222521133" y1="384.776457135307" x2="194.0" y2="383.999999999999"/>
    <line x1="194.0" y1="383.999999999999" x2="194.102222521133" y2="383.223542864692"/>
    <line x1="194.102222521133" y1="383.223542864692" x2="194.401923788647" y2="382.5"/>
    <line x1="194.401923788647" y1="382.5" x2="194.87867965644" y2="381.87867965644"/>
    <line x1="194.87867965644" y1="381.87867965644" x2="195.5" y2="381.401923788646"/>
    <line x1="195.5" y1="381.401923788646" x2="196.223542864693" y2="381.102222521132"/>
    <line x1="196.223542864693" y1="381.102222521132" x2="197.0" y2="381.0"/>
    <line x1="197.0" y1="381.0" x2="197.776457135308" y2="381.102222521131"/>
    <line x1="197.776457135308" y1="381.102222521131" x2="198.5" y2="381.401923788646"/>
    <line x1="198.5" y1="381.401923788646" x2="199.12132034356" y2="381.878679656439"/>
    <line x1="199.12132034356" y1="381.878679656439" x2="199.598076211353" y2="382.499999999999"/>
    <line x1="199.598076211353" y1="382.499999999999" x2="199.897777478867" y2="383.223542864692"/>
    <line x1="199.897777478867" y1="383.223542864692" x2="200.0" y2="383.999999999999"/>
    <line x1="200.0" y1="383.999999999999" x2="199.897777478867" y2="384.776457135307"/>
    <line x1="199.897777478867" y1="384.776457135307" x2="199.598076211354" y2="385.499999999999"/>
    <line x1="199.598076211354" y1="385.499999999999" x2="199.12132034356" y2="386.121320343559"/>
    <line x1="199.12132034356" y1="386.121320343559" x2="198.5" y2="386.598076211353"/>
    <line x1="99.8977774788676" y1="383.223542864692" x2="100.0" y2="383.999999999999"/>
    <line x1="100.0" y1="383.999999999999" x2="99.8977774788676" y2="384.776457135306"/>
    <line x1="99.8977774788676" y1="384.776457135306" x2="99.5980762113538" y2="385.499999999999"/>
    <line x1="99.5980762113538" y1="385.499999999999" x2="99.1213203435601" y2="386.121320343559"/>
    <line x1="99.1213203435601" y1="386.121320343559" x2="98.5000000000004" y2="386.598076211352"/>
    <line x1="98.5000000000004" y1="386.598076211352" x2="97.776457135308" y2="386.897777478867"/>
    <line x1="97.776457135308" y1="386.897777478867" x2="97.0000000000003" y2="386.999999999999"/>
    <line x1="97.0000000000003" y1="386.999999999999" x2="96.2235428646929" y2="386.897777478866"/>
    <line x1="96.2235428646929" y1="386.897777478866" x2="95.5000000000004" y2="386.598076211353"/>
    <line x1="95.5000000000004" y1="386.598076211353" x2="94.8786796564409" y2="386.121320343559"/>
    <line x1="94.8786796564409" y1="386.121320343559" x2="94.4019237886471" y2="385.5"/>
    <line x1="94.4019237886471" y1="385.5" x2="94.1022225211331" y2="384.776457135306"/>
    <line x1="94.1022225211331" y1="384.776457135306" x2="94.0000000000004" y2="383.999999999999"/>
    <line x1="94.0000000000004" y1="383.999999999999" x2="94.1022225211332" y2="383.223542864693"/>
    <line x1="94.1022225211332" y1="383.223542864693" x2="94.4019237886472" y2="382.5"/>
    <line x1="94.4019237886472" y1="382.5" x2="94.8786796564408" y2="381.87867965644"/>
    <line x1="94.8786796564408" y1="381.87867965644" x2="95.5000000000004" y2="381.401923788646"/>
    <line x1="95.5000000000004" y1="381.401923788646" x2="96.2235428646929" y2="381.102222521133"/>
    <line x1="96.2235428646929" y1="381.102222521133" x2="97.0000000000004" y2="380.999999999999"/>
    <line x1="97.0000000000004" y1="380.999999999999" x2="97.776457135308" y2="381.102222521132"/>
    <line x1="97.776457135308" y1="381.102222521132" x2="98.5000000000004" y2="381.401923788646"/>
    <line x1="98.5000000000004" y1="381.401923788646" x2="99.1213203435601" y2="381.87867965644"/>
    <line x1="99.1213203435601" y1="381.87867965644" x2="99.5980762113538" y2="382.499999999998"/>
    <line x1="99.5980762113538" y1="382.499999999998" x2="99.8977774788676" y2="383.223542864692"/>
    <line x1="373.223542864693" y1="59.8977774788661" x2="372.5" y2="59.5980762113527"/>
    <line x1="372.5" y1="59.5980762113527" x2="371.878679656441" y2="59.121320343559"/>
    <line x1="371.878679656441" y1="59.121320343559" x2="371.401923788647" y2="58.4999999999993"/>
    <line x1="371.401923788647" y1="58.4999999999993" x2="371.102222521133" y2="57.7764571353069"/>
    <line x1="371.102222521133" y1="57.7764571353069" x2="371.000000000001" y2="56.9999999999992"/>
    <line x1="371.000000000001" y1="56.9999999999992" x2="371.102222521133" y2="56.2235428646917"/>
    <line x1="371.102222521133" y1="56.2235428646917" x2="371.401923788647" y2="55.4999999999993"/>
    <line x1="371.401923788647" y1="55.4999999999993" x2="371.878679656441" y2="54.8786796564396"/>
    <line x1="371.878679656441" y1="54.8786796564396" x2="372.5" y2="54.4019237886465"/>
    <line x1="372.5" y1="54.4019237886465" x2="373.223542864693" y2="54.1022225211321"/>
    <line x1="373.223542864693" y1="54.1022225211321" x2="374.0" y2="53.9999999999992"/>
    <line x1="374.0" y1="53.9999999999992" x2="374.776457135308" y2="54.102222521132"/>
    <line x1="374.776457135308" y1="54.102222521132" x2="375.5" y2="54.401923788646"/>
    <line x1="375.5" y1="54.401923788646" x2="376.12132034356" y2="54.8786796564396"/>
    <line x1="376.12132034356" y1="54.8786796564396" x2="376.598076211354" y2="55.4999999999998"/>
    <line x1="376.598076211354" y1="55.4999999999998" x2="376.897777478868" y2="56.2235428646916"/>
    <line x1="376.897777478868" y1="56.2235428646916" x2="377.000000000001" y2="56.9999999999993"/>
    <line x1="377.000000000001" y1="56.9999999999993" x2="376.897777478868" y2="57.7764571353069"/>
    <line x1="376.897777478868" y1="57.7764571353069" x2="376.598076211354" y2="58.4999999999998"/>
    <line x1="376.598076211354" y1="58.4999999999998" x2="376.12132034356" y2="59.121320343559"/>
    <line x1="376.12132034356" y1="59.121320343559" x2="375.5" y2="59.5980762113522"/>
    <line x1="375.5" y1="59.5980762113522" x2="374.776457135308" y2="59.8977774788661"/>
    <line x1="374.776457135308" y1="59.8977774788661" x2="374.0" y2="59.9999999999989"/>
    <line x1="374.0" y1="59.9999999999989" x2="373.223542864693" y2="59.8977774788661"/>
    <line x1="371.102222521133" y1="347.776457135307" x2="371.000000000001" y2="346.999999999999"/>
    <line x1="371.000000000001" y1="346.999999999999" x2="371.102222521133" y2="346.223542864691"/>
    <line x1="371.102222521133" y1="346.223542864691" x2="371.401923788647" y2="345.499999999998"/>
    <line x1="371.401923788647" y1="345.499999999998" x2="371.878679656441" y2="344.878679656439"/>
    <line x1="371.878679656441" y1="344.878679656439" x2="372.5" y2="344.401923788645"/>
    <line x1="372.5" y1="344.401923788645" x2="373.223542864693" y2="344.102222521131"/>
    <line x1="373.223542864693" y1="344.102222521131" x2="374.0" y2="343.999999999999"/>
    <line x1="374.0" y1="343.999999999999" x2="374.776457135308" y2="344.102222521131"/>
    <line x1="374.776457135308" y1="344.102222521131" x2="375.5" y2="344.401923788645"/>
    <line x1="375.5" y1="344.401923788645" x2="376.12132034356" y2="344.878679656439"/>
    <line x1="376.12132034356" y1="344.878679656439" x2="376.598076211354" y2="345.499999999998"/>
    <line x1="376.598076211354" y1="345.499999999998" x2="376.897777478868" y2="346.223542864691"/>
    <line x1="376.897777478868" y1="346.223542864691" x2="377.000000000001" y2="346.999999999999"/>
    <line x1="377.000000000001" y1="346.999999999999" x2="376.897777478868" y2="347.776457135307"/>
    <line x1="376.897777478868" y1="347.776457135307" x2="376.598076211354" y2="348.499999999999"/>
    <line x1="376.598076211354" y1="348.499999999999" x2="376.12132034356" y2="349.121320343558"/>
    <line x1="376.12132034356" y1="349.121320343558" x2="375.5" y2="349.598076211352"/>
    <line x1="375.5" y1="349.598076211352" x2="374.776457135308" y2="349.897777478866"/>
    <line x1="374.776457135308" y1="349.897777478866" x2="374.0" y2="349.999999999999"/>
    <line x1="374.0" y1="349.999999999999" x2="373.223542864693" y2="349.897777478866"/>
    <line x1="373.223542864693" y1="349.897777478866" x2="372.5" y2="349.598076211352"/>
    <line x1="372.5" y1="349.598076211352" x2="371.878679656441" y2="349.121320343558"/>
    <line x1="371.878679656441" y1="349.121320343558" x2="371.401923788647" y2="348.499999999999"/>
    <line x1="371.401923788647" y1="348.499999999999" x2="371.102222521133" y2="347.776457135307"/>
    <line x1="26.6420739046919" y1="178.439992376674" x2="26.472243186434" y2="178.849999999999"/>
    <line x1="26.472243186434" y1="178.849999999999" x2="26.2020815280176" y2="179.202081528016"/>
    <line x1="26.2020815280176" y1="179.202081528016" x2="25.8500000000005" y2="179.472243186433"/>
    <line x1="25.8500000000005" y1="179.472243186433" x2="25.4399923766747" y2="179.642073904691"/>
    <line x1="25.4399923766747" y1="179.642073904691" x2="25.0000000000004" y2="179.699999999999"/>
    <line x1="25.0000000000004" y1="179.699999999999" x2="24.5600076233262" y2="179.642073904691"/>
    <line x1="24.5600076233262" y1="179.642073904691" x2="24.1500000000005" y2="179.472243186433"/>
    <line x1="24.1500000000005" y1="179.472243186433" x2="23.7979184719833" y2="179.202081528016"/>
    <line x1="23.7979184719833" y1="179.202081528016" x2="23.5277568135669" y2="178.849999999999"/>
    <line x1="23.5277568135669" y1="178.849999999999" x2="23.3579260953091" y2="178.439992376673"/>
    <line x1="23.3579260953091" y1="178.439992376673" x2="23.3000000000005" y2="177.999999999999"/>
    <line x1="23.3000000000005" y1="177.999999999999" x2="23.3579260953091" y2="177.560007623325"/>
    <line x1="23.3579260953091" y1="177.560007623325" x2="23.527756813567" y2="177.149999999999"/>
    <line x1="23.527756813567" y1="177.149999999999" x2="23.7979184719834" y2="176.797918471982"/>
    <line x1="23.7979184719834" y1="176.797918471982" x2="24.1500000000005" y2="176.527756813566"/>
    <line x1="24.1500000000005" y1="176.527756813566" x2="24.5600076233262" y2="176.357926095308"/>
    <line x1="24.5600076233262" y1="176.357926095308" x2="25.0000000000005" y2="176.299999999999"/>
    <line x1="25.0000000000005" y1="176.299999999999" x2="25.4399923766748" y2="176.357926095308"/>
    <line x1="25.4399923766748" y1="176.357926095308" x2="25.8500000000005" y2="176.527756813566"/>
    <line x1="25.8500000000005" y1="176.527756813566" x2="26.2020815280176" y2="176.797918471982"/>
    <line x1="26.2020815280176" y1="176.797918471982" x2="26.4722431864341" y2="177.149999999999"/>
    <line x1="26.4722431864341" y1="177.149999999999" x2="26.6420739046918" y2="177.560007623325"/>
    <line x1="26.6420739046918" y1="177.560007623325" x2="26.7000000000005" y2="177.999999999999"/>
    <line x1="26.7000000000005" y1="177.999999999999" x2="26.6420739046919" y2="178.439992376674"/>
    <line x1="90.0600076233262" y1="179.607926095308" x2="90.5000000000004" y2="179.549999999999"/>
    <line x1="90.5000000000004" y1="179.549999999999" x2="90.9399923766747" y2="179.607926095308"/>
    <line x1="90.9399923766747" y1="179.607926095308" x2="91.3500000000004" y2="179.777756813566"/>
    <line x1="91.3500000000004" y1="179.777756813566" x2="91.7020815280176" y2="180.047918471982"/>
    <line x1="91.7020815280176" y1="180.047918471982" x2="91.972243186434" y2="180.399999999999"/>
    <line x1="91.972243186434" y1="180.399999999999" x2="92.1420739046918" y2="180.810007623325"/>
    <line x1="92.1420739046918" y1="180.810007623325" x2="92.2000000000004" y2="181.249999999999"/>
    <line x1="92.2000000000004" y1="181.249999999999" x2="92.1420739046918" y2="181.689992376674"/>
    <line x1="92.1420739046918" y1="181.689992376674" x2="91.972243186434" y2="182.099999999999"/>
    <line x1="91.972243186434" y1="182.099999999999" x2="91.7020815280176" y2="182.452081528016"/>
    <line x1="91.7020815280176" y1="182.452081528016" x2="91.3500000000004" y2="182.722243186433"/>
    <line x1="91.3500000000004" y1="182.722243186433" x2="90.9399923766747" y2="182.892073904691"/>
    <line x1="90.9399923766747" y1="182.892073904691" x2="90.5000000000005" y2="182.949999999999"/>
    <line x1="90.5000000000005" y1="182.949999999999" x2="90.0600076233262" y2="182.892073904691"/>
    <line x1="90.0600076233262" y1="182.892073904691" x2="89.6500000000005" y2="182.722243186433"/>
    <line x1="89.6500000000005" y1="182.722243186433" x2="89.2979184719833" y2="182.452081528016"/>
    <line x1="89.2979184719833" y1="182.452081528016" x2="89.0277568135669" y2="182.099999999999"/>
    <line x1="89.0277568135669" y1="182.099999999999" x2="88.857926095309" y2="181.689992376674"/>
    <line x1="88.857926095309" y1="181.689992376674" x2="88.8000000000004" y2="181.249999999999"/>
    <line x1="88.8000000000004" y1="181.249999999999" x2="88.857926095309" y2="180.810007623325"/>
    <line x1="88.857926095309" y1="180.810007623325" x2="89.0277568135668" y2="180.399999999999"/>
    <line x1="89.0277568135668" y1="180.399999999999" x2="89.2979184719833" y2="180.047918471982"/>
    <line x1="89.2979184719833" y1="180.047918471982" x2="89.6500000000004" y2="179.777756813566"/>
    <line x1="89.6500000000004" y1="179.777756813566" x2="90.0600076233262" y2="179.607926095308"/>
    <line x1="91.3500000000004" y1="221.277756813566" x2="91.7020815280175" y2="221.547918471982"/>
    <line x1="91.7020815280175" y1="221.547918471982" x2="91.9722431864339" y2="221.899999999999"/>
    <line x1="91.9722431864339" y1="221.899999999999" x2="92.1420739046917" y2="222.310007623325"/>
    <line x1="92.1420739046917" y1="222.310007623325" x2="92.2000000000003" y2="222.749999999999"/>
    <line x1="92.2000000000003" y1="222.749999999999" x2="92.1420739046917" y2="223.189992376674"/>
    <line x1="92.1420739046917" y1="223.189992376674" x2="91.9722431864339" y2="223.599999999999"/>
    <line x1="91.9722431864339" y1="223.599999999999" x2="91.7020815280175" y2="223.952081528016"/>
    <line x1="91.7020815280175" y1="223.952081528016" x2="91.3500000000004" y2="224.222243186433"/>
    <line x1="91.3500000000004" y1="224.222243186433" x2="90.9399923766746" y2="224.392073904691"/>
    <line x1="90.9399923766746" y1="224.392073904691" x2="90.5000000000003" y2="224.449999999999"/>
    <line x1="90.5000000000003" y1="224.449999999999" x2="90.0600076233261" y2="224.392073904691"/>
    <line x1="90.0600076233261" y1="224.392073904691" x2="89.6500000000003" y2="224.222243186433"/>
    <line x1="89.6500000000003" y1="224.222243186433" x2="89.2979184719832" y2="223.952081528016"/>
    <line x1="89.2979184719832" y1="223.952081528016" x2="89.0277568135667" y2="223.599999999999"/>
    <line x1="89.0277568135667" y1="223.599999999999" x2="88.8579260953089" y2="223.189992376674"/>
    <line x1="88.8579260953089" y1="223.189992376674" x2="88.8000000000004" y2="222.749999999999"/>
    <line x1="88.8000000000004" y1="222.749999999999" x2="88.8579260953089" y2="222.310007623325"/>
    <line x1="88.8579260953089" y1="222.310007623325" x2="89.0277568135669" y2="221.899999999999"/>
    <line x1="89.0277568135669" y1="221.899999999999" x2="89.2979184719832" y2="221.547918471982"/>
    <line x1="89.2979184719832" y1="221.547918471982" x2="89.6500000000003" y2="221.277756813566"/>
    <line x1="89.6500000000003" y1="221.277756813566" x2="90.060007623326" y2="221.107926095308"/>
    <line x1="90.060007623326" y1="221.107926095308" x2="90.5000000000003" y2="221.049999999999"/>
    <line x1="90.5000000000003" y1="221.049999999999" x2="90.9399923766746" y2="221.107926095308"/>
    <line x1="90.9399923766746" y1="221.107926095308" x2="91.3500000000004" y2="221.277756813566"/>
    <line x1="23.357926095309" y1="226.439992376674" x2="23.3000000000004" y2="225.999999999999"/>
    <line x1="23.3000000000004" y1="225.999999999999" x2="23.357926095309" y2="225.560007623325"/>
    <line x1="23.357926095309" y1="225.560007623325" x2="23.5277568135669" y2="225.149999999999"/>
    <line x1="23.5277568135669" y1="225.149999999999" x2="23.7979184719833" y2="224.797918471982"/>
    <line x1="23.7979184719833" y1="224.797918471982" x2="24.1500000000004" y2="224.527756813566"/>
    <line x1="24.1500000000004" y1="224.527756813566" x2="24.5600076233261" y2="224.357926095308"/>
    <line x1="24.5600076233261" y1="224.357926095308" x2="25.0000000000003" y2="224.3"/>
    <line x1="25.0000000000003" y1="224.3" x2="25.4399923766746" y2="224.357926095308"/>
    <line x1="25.4399923766746" y1="224.357926095308" x2="25.8500000000005" y2="224.527756813566"/>
    <line x1="25.8500000000005" y1="224.527756813566" x2="26.2020815280175" y2="224.797918471982"/>
    <line x1="26.2020815280175" y1="224.797918471982" x2="26.472243186434" y2="225.149999999999"/>
    <line x1="26.472243186434" y1="225.149999999999" x2="26.6420739046919" y2="225.560007623325"/>
    <line x1="26.6420739046919" y1="225.560007623325" x2="26.7000000000004" y2="225.999999999999"/>
    <line x1="26.7000000000004" y1="225.999999999999" x2="26.6420739046918" y2="226.439992376674"/>
    <line x1="26.6420739046918" y1="226.439992376674" x2="26.472243186434" y2="226.849999999999"/>
    <line x1="26.472243186434" y1="226.849999999999" x2="26.2020815280175" y2="227.202081528017"/>
    <line x1="26.2020815280175" y1="227.202081528017" x2="25.8500000000004" y2="227.472243186433"/>
    <line x1="25.8500000000004" y1="227.472243186433" x2="25.4399923766747" y2="227.642073904691"/>
    <line x1="25.4399923766747" y1="227.642073904691" x2="25.0000000000004" y2="227.699999999999"/>
    <line x1="25.0000000000004" y1="227.699999999999" x2="24.5600076233262" y2="227.642073904691"/>
    <line x1="24.5600076233262" y1="227.642073904691" x2="24.1500000000004" y2="227.472243186433"/>
    <line x1="24.1500000000004" y1="227.472243186433" x2="23.7979184719833" y2="227.202081528017"/>
    <line x1="23.7979184719833" y1="227.202081528017" x2="23.5277568135669" y2="226.849999999999"/>
    <line x1="23.5277568135669" y1="226.849999999999" x2="23.357926095309" y2="226.439992376674"/>
    <line x1="332.191452276734" y1="340.167032084421" x2="331.814042862748" y2="341.241479023828"/>
    <line x1="331.814042862748" y1="341.241479023828" x2="330.949973252905" y2="341.98327266138"/>
    <line x1="330.949973252905" y1="341.98327266138" x2="329.830770201367" y2="342.193649990945"/>
    <line x1="329.830770201367" y1="342.193649990945" x2="328.75632326196" y2="341.816240576958"/>
    <line x1="328.75632326196" y1="341.816240576958" x2="328.014529624408" y2="340.952170967116"/>
    <line x1="328.014529624408" y1="340.952170967116" x2="327.804152294844" y2="339.832967915577"/>
    <line x1="327.804152294844" y1="339.832967915577" x2="328.18156170883" y2="338.75852097617"/>
    <line x1="328.18156170883" y1="338.75852097617" x2="329.045631318673" y2="338.016727338618"/>
    <line x1="329.045631318673" y1="338.016727338618" x2="330.164834370211" y2="337.806350009054"/>
    <line x1="330.164834370211" y1="337.806350009054" x2="331.239281309618" y2="338.18375942304"/>
    <line x1="331.239281309618" y1="338.18375942304" x2="331.98107494717" y2="339.047829032883"/>
    <line x1="331.98107494717" y1="339.047829032883" x2="332.191452276734" y2="340.167032084421"/>
    <line x1="328.894693668158" y1="291.905326983214" x2="328.089385733529" y2="291.100123144555"/>
    <line x1="328.089385733529" y1="291.100123144555" x2="327.794570523602" y2="290.000142197737"/>
    <line x1="327.794570523602" y1="290.000142197737" x2="328.089243535791" y2="288.900123149151"/>
    <line x1="328.089243535791" y1="288.900123149151" x2="328.894447374451" y2="288.094815214522"/>
    <line x1="328.894447374451" y1="288.094815214522" x2="329.994428321268" y2="287.800000004595"/>
    <line x1="329.994428321268" y1="287.800000004595" x2="331.094447369855" y2="288.094673016784"/>
    <line x1="331.094447369855" y1="288.094673016784" x2="331.899755304483" y2="288.899876855443"/>
    <line x1="331.899755304483" y1="288.899876855443" x2="332.194570514411" y2="289.999857802261"/>
    <line x1="332.194570514411" y1="289.999857802261" x2="331.899897502221" y2="291.099876850848"/>
    <line x1="331.899897502221" y1="291.099876850848" x2="331.094693663562" y2="291.905184785476"/>
    <line x1="331.094693663562" y1="291.905184785476" x2="329.994712716744" y2="292.199999995404"/>
    <line x1="329.994712716744" y1="292.199999995404" x2="328.894693668158" y2="291.905326983214"/>
    <line x1="177.797801977055" y1="340.000142197737" x2="178.092474989245" y2="338.900123149151"/>
    <line x1="178.092474989245" y1="338.900123149151" x2="178.897678827904" y2="338.094815214522"/>
    <line x1="178.897678827904" y1="338.094815214522" x2="179.997659774721" y2="337.800000004595"/>
    <line x1="179.997659774721" y1="337.800000004595" x2="181.097678823308" y2="338.094673016784"/>
    <line x1="181.097678823308" y1="338.094673016784" x2="181.902986757937" y2="338.899876855444"/>
    <line x1="181.902986757937" y1="338.899876855444" x2="182.197801967864" y2="339.999857802261"/>
    <line x1="182.197801967864" y1="339.999857802261" x2="181.903128955675" y2="341.099876850848"/>
    <line x1="181.903128955675" y1="341.099876850848" x2="181.097925117015" y2="341.905184785476"/>
    <line x1="181.097925117015" y1="341.905184785476" x2="179.997944170198" y2="342.199999995404"/>
    <line x1="179.997944170198" y1="342.199999995404" x2="178.897925121611" y2="341.905326983214"/>
    <line x1="178.897925121611" y1="341.905326983214" x2="178.092617186983" y2="341.100123144555"/>
    <line x1="178.092617186983" y1="341.100123144555" x2="177.797801977055" y2="340.000142197737"/>
    <line x1="178.089243222462" y1="288.900123149151" x2="178.894447061121" y2="288.094815214522"/>
    <line x1="178.894447061121" y1="288.094815214522" x2="179.994428007939" y2="287.800000004595"/>
    <line x1="179.994428007939" y1="287.800000004595" x2="181.094447056526" y2="288.094673016784"/>
    <line x1="181.094447056526" y1="288.094673016784" x2="181.899754991154" y2="288.899876855443"/>
    <line x1="181.899754991154" y1="288.899876855443" x2="182.194570201081" y2="289.999857802261"/>
    <line x1="182.194570201081" y1="289.999857802261" x2="181.899897188892" y2="291.099876850848"/>
    <line x1="181.899897188892" y1="291.099876850848" x2="181.094693350233" y2="291.905184785476"/>
    <line x1="181.094693350233" y1="291.905184785476" x2="179.994712403415" y2="292.199999995404"/>
    <line x1="179.994712403415" y1="292.199999995404" x2="178.894693354828" y2="291.905326983214"/>
    <line x1="178.894693354828" y1="291.905326983214" x2="178.0893854202" y2="291.100123144555"/>
    <line x1="178.0893854202" y1="291.100123144555" x2="177.794570210272" y2="290.000142197737"/>
    <line x1="177.794570210272" y1="290.000142197737" x2="178.089243222462" y2="288.900123149151"/>
    <line x1="60.1500000000005" y1="218.472243186433" x2="59.527756813567" y2="217.849999999999"/>
    <line x1="59.527756813567" y1="217.849999999999" x2="59.3000000000005" y2="216.999999999999"/>
    <line x1="59.3000000000005" y1="216.999999999999" x2="59.527756813567" y2="216.149999999999"/>
    <line x1="59.527756813567" y1="216.149999999999" x2="60.1500000000005" y2="215.527756813566"/>
    <line x1="60.1500000000005" y1="215.527756813566" x2="61.0000000000005" y2="215.299999999999"/>
    <line x1="61.0000000000005" y1="215.299999999999" x2="61.8500000000005" y2="215.527756813566"/>
    <line x1="61.8500000000005" y1="215.527756813566" x2="62.4722431864341" y2="216.149999999999"/>
    <line x1="62.4722431864341" y1="216.149999999999" x2="62.7000000000006" y2="216.999999999999"/>
    <line x1="62.7000000000006" y1="216.999999999999" x2="62.472243186434" y2="217.849999999999"/>
    <line x1="62.472243186434" y1="217.849999999999" x2="61.8500000000006" y2="218.472243186433"/>
    <line x1="61.8500000000006" y1="218.472243186433" x2="61.0000000000005" y2="218.699999999999"/>
    <line x1="61.0000000000005" y1="218.699999999999" x2="60.1500000000005" y2="218.472243186433"/>
    <line x1="32.7000000000006" y1="216.999999999999" x2="32.472243186434" y2="217.849999999999"/>
    <line x1="32.472243186434" y1="217.849999999999" x2="31.8500000000006" y2="218.472243186433"/>
    <line x1="31.8500000000006" y1="218.472243186433" x2="31.0000000000006" y2="218.699999999999"/>
    <line x1="31.0000000000006" y1="218.699999999999" x2="30.1500000000006" y2="218.472243186433"/>
    <line x1="30.1500000000006" y1="218.472243186433" x2="29.527756813567" y2="217.849999999999"/>
    <line x1="29.527756813567" y1="217.849999999999" x2="29.3000000000005" y2="216.999999999999"/>
    <line x1="29.3000000000005" y1="216.999999999999" x2="29.527756813567" y2="216.149999999999"/>
    <line x1="29.527756813567" y1="216.149999999999" x2="30.1500000000005" y2="215.527756813566"/>
    <line x1="30.1500000000005" y1="215.527756813566" x2="31.0000000000005" y2="215.299999999999"/>
    <line x1="31.0000000000005" y1="215.299999999999" x2="31.8500000000005" y2="215.527756813566"/>
    <line x1="31.8500000000005" y1="215.527756813566" x2="32.472243186434" y2="216.149999999999"/>
    <line x1="32.472243186434" y1="216.149999999999" x2="32.7000000000006" y2="216.999999999999"/>
    <line x1="31.0000000000006" y1="188.699999999999" x2="30.1500000000006" y2="188.472243186433"/>
    <line x1="30.1500000000006" y1="188.472243186433" x2="29.5277568135671" y2="187.849999999999"/>
    <line x1="29.5277568135671" y1="187.849999999999" x2="29.3000000000005" y2="186.999999999999"/>
    <line x1="29.3000000000005" y1="186.999999999999" x2="29.5277568135671" y2="186.149999999999"/>
    <line x1="29.5277568135671" y1="186.149999999999" x2="30.1500000000006" y2="185.527756813566"/>
    <line x1="30.1500000000006" y1="185.527756813566" x2="31.0000000000005" y2="185.299999999999"/>
    <line x1="31.0000000000005" y1="185.299999999999" x2="31.8500000000006" y2="185.527756813566"/>
    <line x1="31.8500000000006" y1="185.527756813566" x2="32.4722431864341" y2="186.149999999999"/>
    <line x1="32.4722431864341" y1="186.149999999999" x2="32.7000000000007" y2="186.999999999999"/>
    <line x1="32.7000000000007" y1="186.999999999999" x2="32.4722431864341" y2="187.849999999999"/>
    <line x1="32.4722431864341" y1="187.849999999999" x2="31.8500000000006" y2="188.472243186433"/>
    <line x1="31.8500000000006" y1="188.472243186433" x2="31.0000000000006" y2="188.699999999999"/>
    <line x1="59.5277568135671" y1="187.849999999999" x2="59.3000000000006" y2="186.999999999999"/>
    <line x1="59.3000000000006" y1="186.999999999999" x2="59.5277568135671" y2="186.149999999999"/>
    <line x1="59.5277568135671" y1="186.149999999999" x2="60.1500000000006" y2="185.527756813566"/>
    <line x1="60.1500000000006" y1="185.527756813566" x2="61.0000000000006" y2="185.299999999999"/>
    <line x1="61.0000000000006" y1="185.299999999999" x2="61.8500000000006" y2="185.527756813566"/>
    <line x1="61.8500000000006" y1="185.527756813566" x2="62.4722431864342" y2="186.149999999999"/>
    <line x1="62.4722431864342" y1="186.149999999999" x2="62.7000000000006" y2="186.999999999999"/>
    <line x1="62.7000000000006" y1="186.999999999999" x2="62.4722431864342" y2="187.849999999999"/>
    <line x1="62.4722431864342" y1="187.849999999999" x2="61.8500000000007" y2="188.472243186433"/>
    <line x1="61.8500000000007" y1="188.472243186433" x2="61.0000000000006" y2="188.699999999999"/>
    <line x1="61.0000000000006" y1="188.699999999999" x2="60.1500000000006" y2="188.472243186433"/>
    <line x1="60.1500000000006" y1="188.472243186433" x2="59.5277568135671" y2="187.849999999999"/>
  </g>
</svg>
