<?xml version="1.0" standalone="no"?>
<!DOCTYPE svg PUBLIC "-//W3C//DTD SVG 1.1//EN" "http://www.w3.org/Graphics/SVG/1.1/DTD/svg11.dtd">
<svg width="74.6375655997995mm" height="404.0mm"
 viewBox="0 0 74.6375655997995 404.0"
 xmlns="http://www.w3.org/2000/svg" version="1.1"
 xmlns:xlink="http://www.w3.org/1999/xlink">
<desc>Output from Flights of Ideas SVG Sketchup Plugin</desc>

  <g id="face0" fill="none" stroke="rgb(0,0,255)" stroke-width="1" stroke-miterlimit="4" stroke-dasharray="none" stroke-linejoin="round" stroke-linecap="round">
    <line x1="10.0" y1="10.0" x2="10.0" y2="394.0"/>
    <line x1="10.0" y1="394.0" x2="64.6375655997995" y2="394.0"/>
    <line x1="64.6375655997995" y1="394.0" x2="64.6375655997994" y2="10.0"/>
    <line x1="64.6375655997994" y1="10.0" x2="10.0" y2="10.0"/>
    <line x1="58.414022735107" y1="154.897777478867" x2="57.6375655997994" y2="155.0"/>
    <line x1="57.6375655997994" y1="155.0" x2="56.8611084644918" y2="154.897777478867"/>
    <line x1="56.8611084644918" y1="154.897777478867" x2="56.1375655997994" y2="154.598076211353"/>
    <line x1="56.1375655997994" y1="154.598076211353" x2="55.5162452562398" y2="154.12132034356"/>
    <line x1="55.5162452562398" y1="154.12132034356" x2="55.039489388446" y2="153.5"/>
    <line x1="55.039489388446" y1="153.5" x2="54.7397881209322" y2="152.776457135308"/>
    <line x1="54.7397881209322" y1="152.776457135308" x2="54.6375655997994" y2="152.0"/>
    <line x1="54.6375655997994" y1="152.0" x2="54.7397881209322" y2="151.223542864692"/>
    <line x1="54.7397881209322" y1="151.223542864692" x2="55.039489388446" y2="150.5"/>
    <line x1="55.039489388446" y1="150.5" x2="55.5162452562398" y2="149.87867965644"/>
    <line x1="55.5162452562398" y1="149.87867965644" x2="56.1375655997994" y2="149.401923788647"/>
    <line x1="56.1375655997994" y1="149.401923788647" x2="56.8611084644918" y2="149.102222521133"/>
    <line x1="56.8611084644918" y1="149.102222521133" x2="57.6375655997994" y2="149.0"/>
    <line x1="57.6375655997994" y1="149.0" x2="58.414022735107" y2="149.102222521133"/>
    <line x1="58.414022735107" y1="149.102222521133" x2="59.1375655997994" y2="149.401923788647"/>
    <line x1="59.1375655997994" y1="149.401923788647" x2="59.758885943359" y2="149.87867965644"/>
    <line x1="59.758885943359" y1="149.87867965644" x2="60.2356418111527" y2="150.5"/>
    <line x1="60.2356418111527" y1="150.5" x2="60.5353430786666" y2="151.223542864692"/>
    <line x1="60.5353430786666" y1="151.223542864692" x2="60.6375655997994" y2="152.0"/>
    <line x1="60.6375655997994" y1="152.0" x2="60.5353430786666" y2="152.776457135308"/>
    <line x1="60.5353430786666" y1="152.776457135308" x2="60.2356418111527" y2="153.5"/>
    <line x1="60.2356418111527" y1="153.5" x2="59.758885943359" y2="154.12132034356"/>
    <line x1="59.758885943359" y1="154.12132034356" x2="59.1375655997994" y2="154.598076211353"/>
    <line x1="59.1375655997994" y1="154.598076211353" x2="58.414022735107" y2="154.897777478867"/>
    <line x1="58.414022735107" y1="249.102222521133" x2="59.1375655997994" y2="249.401923788647"/>
    <line x1="59.1375655997994" y1="249.401923788647" x2="59.758885943359" y2="249.87867965644"/>
    <line x1="59.758885943359" y1="249.87867965644" x2="60.2356418111527" y2="250.5"/>
    <line x1="60.2356418111527" y1="250.5" x2="60.5353430786666" y2="251.223542864692"/>
    <line x1="60.5353430786666" y1="251.223542864692" x2="60.6375655997994" y2="252.0"/>
    <line x1="60.6375655997994" y1="252.0" x2="60.5353430786666" y2="252.776457135308"/>
    <line x1="60.5353430786666" y1="252.776457135308" x2="60.2356418111527" y2="253.5"/>
    <line x1="60.2356418111527" y1="253.5" x2="59.758885943359" y2="254.12132034356"/>
    <line x1="59.758885943359" y1="254.12132034356" x2="59.1375655997994" y2="254.598076211353"/>
    <line x1="59.1375655997994" y1="254.598076211353" x2="58.414022735107" y2="254.897777478867"/>
    <line x1="58.414022735107" y1="254.897777478867" x2="57.6375655997994" y2="255.0"/>
    <line x1="57.6375655997994" y1="255.0" x2="56.8611084644918" y2="254.897777478867"/>
    <line x1="56.8611084644918" y1="254.897777478867" x2="56.1375655997994" y2="254.598076211353"/>
    <line x1="56.1375655997994" y1="254.598076211353" x2="55.5162452562398" y2="254.12132034356"/>
    <line x1="55.5162452562398" y1="254.12132034356" x2="55.039489388446" y2="253.5"/>
    <line x1="55.039489388446" y1="253.5" x2="54.7397881209322" y2="252.776457135308"/>
    <line x1="54.7397881209322" y1="252.776457135308" x2="54.6375655997994" y2="252.0"/>
    <line x1="54.6375655997994" y1="252.0" x2="54.7397881209322" y2="251.223542864692"/>
    <line x1="54.7397881209322" y1="251.223542864692" x2="55.039489388446" y2="250.5"/>
    <line x1="55.039489388446" y1="250.5" x2="55.5162452562398" y2="249.87867965644"/>
    <line x1="55.5162452562398" y1="249.87867965644" x2="56.1375655997994" y2="249.401923788647"/>
    <line x1="56.1375655997994" y1="249.401923788647" x2="56.8611084644918" y2="249.102222521133"/>
    <line x1="56.8611084644918" y1="249.102222521133" x2="57.6375655997994" y2="249.0"/>
    <line x1="57.6375655997994" y1="249.0" x2="58.414022735107" y2="249.102222521133"/>
    <line x1="17.7764571353076" y1="149.102222521133" x2="18.5000000000001" y2="149.401923788647"/>
    <line x1="18.5000000000001" y1="149.401923788647" x2="19.1213203435596" y2="149.87867965644"/>
    <line x1="19.1213203435596" y1="149.87867965644" x2="19.5980762113534" y2="150.5"/>
    <line x1="19.5980762113534" y1="150.5" x2="19.8977774788672" y2="151.223542864692"/>
    <line x1="19.8977774788672" y1="151.223542864692" x2="20.0000000000001" y2="152.0"/>
    <line x1="20.0000000000001" y1="152.0" x2="19.8977774788672" y2="152.776457135308"/>
    <line x1="19.8977774788672" y1="152.776457135308" x2="19.5980762113534" y2="153.5"/>
    <line x1="19.5980762113534" y1="153.5" x2="19.1213203435596" y2="154.12132034356"/>
    <line x1="19.1213203435596" y1="154.12132034356" x2="18.5000000000001" y2="154.598076211353"/>
    <line x1="18.5000000000001" y1="154.598076211353" x2="17.7764571353076" y2="154.897777478867"/>
    <line x1="17.7764571353076" y1="154.897777478867" x2="17.0" y2="155.0"/>
    <line x1="17.0" y1="155.0" x2="16.2235428646924" y2="154.897777478867"/>
    <line x1="16.2235428646924" y1="154.897777478867" x2="15.5" y2="154.598076211353"/>
    <line x1="15.5" y1="154.598076211353" x2="14.8786796564404" y2="154.12132034356"/>
    <line x1="14.8786796564404" y1="154.12132034356" x2="14.4019237886467" y2="153.5"/>
    <line x1="14.4019237886467" y1="153.5" x2="14.1022225211328" y2="152.776457135308"/>
    <line x1="14.1022225211328" y1="152.776457135308" x2="13.9999999999999" y2="152.0"/>
    <line x1="13.9999999999999" y1="152.0" x2="14.1022225211328" y2="151.223542864692"/>
    <line x1="14.1022225211328" y1="151.223542864692" x2="14.4019237886467" y2="150.5"/>
    <line x1="14.4019237886467" y1="150.5" x2="14.8786796564404" y2="149.87867965644"/>
    <line x1="14.8786796564404" y1="149.87867965644" x2="15.5" y2="149.401923788647"/>
    <line x1="15.5" y1="149.401923788647" x2="16.2235428646924" y2="149.102222521133"/>
    <line x1="16.2235428646924" y1="149.102222521133" x2="17.0" y2="149.0"/>
    <line x1="17.0" y1="149.0" x2="17.7764571353076" y2="149.102222521133"/>
    <line x1="14.1022225211328" y1="251.223542864692" x2="14.4019237886467" y2="250.5"/>
    <line x1="14.4019237886467" y1="250.5" x2="14.8786796564404" y2="249.87867965644"/>
    <line x1="14.8786796564404" y1="249.87867965644" x2="15.5" y2="249.401923788647"/>
    <line x1="15.5" y1="249.401923788647" x2="16.2235428646924" y2="249.102222521133"/>
    <line x1="16.2235428646924" y1="249.102222521133" x2="17.0" y2="249.0"/>
    <line x1="17.0" y1="249.0" x2="17.7764571353077" y2="249.102222521133"/>
    <line x1="17.7764571353077" y1="249.102222521133" x2="18.5000000000001" y2="249.401923788647"/>
    <line x1="18.5000000000001" y1="249.401923788647" x2="19.1213203435596" y2="249.87867965644"/>
    <line x1="19.1213203435596" y1="249.87867965644" x2="19.5980762113534" y2="250.5"/>
    <line x1="19.5980762113534" y1="250.5" x2="19.8977774788673" y2="251.223542864692"/>
    <line x1="19.8977774788673" y1="251.223542864692" x2="20.0000000000001" y2="252.0"/>
    <line x1="20.0000000000001" y1="252.0" x2="19.8977774788673" y2="252.776457135308"/>
    <line x1="19.8977774788673" y1="252.776457135308" x2="19.5980762113534" y2="253.5"/>
    <line x1="19.5980762113534" y1="253.5" x2="19.1213203435596" y2="254.12132034356"/>
    <line x1="19.1213203435596" y1="254.12132034356" x2="18.5000000000001" y2="254.598076211353"/>
    <line x1="18.5000000000001" y1="254.598076211353" x2="17.7764571353076" y2="254.897777478867"/>
    <line x1="17.7764571353076" y1="254.897777478867" x2="17.0" y2="255.0"/>
    <line x1="17.0" y1="255.0" x2="16.2235428646924" y2="254.897777478867"/>
    <line x1="16.2235428646924" y1="254.897777478867" x2="15.5000000000001" y2="254.598076211353"/>
    <line x1="15.5000000000001" y1="254.598076211353" x2="14.8786796564405" y2="254.12132034356"/>
    <line x1="14.8786796564405" y1="254.12132034356" x2="14.4019237886467" y2="253.5"/>
    <line x1="14.4019237886467" y1="253.5" x2="14.1022225211328" y2="252.776457135308"/>
    <line x1="14.1022225211328" y1="252.776457135308" x2="14.0" y2="252.0"/>
    <line x1="14.0" y1="252.0" x2="14.1022225211328" y2="251.223542864692"/>
    <line x1="60.5353430786666" y1="60.7764571353075" x2="60.2356418111527" y2="61.5"/>
    <line x1="60.2356418111527" y1="61.5" x2="59.758885943359" y2="62.1213203435596"/>
    <line x1="59.758885943359" y1="62.1213203435596" x2="59.1375655997994" y2="62.5980762113533"/>
    <line x1="59.1375655997994" y1="62.5980762113533" x2="58.414022735107" y2="62.8977774788672"/>
    <line x1="58.414022735107" y1="62.8977774788672" x2="57.6375655997994" y2="63.0"/>
    <line x1="57.6375655997994" y1="63.0" x2="56.8611084644918" y2="62.8977774788672"/>
    <line x1="56.8611084644918" y1="62.8977774788672" x2="56.1375655997994" y2="62.5980762113533"/>
    <line x1="56.1375655997994" y1="62.5980762113533" x2="55.5162452562398" y2="62.1213203435596"/>
    <line x1="55.5162452562398" y1="62.1213203435596" x2="55.039489388446" y2="61.5"/>
    <line x1="55.039489388446" y1="61.5" x2="54.7397881209322" y2="60.7764571353076"/>
    <line x1="54.7397881209322" y1="60.7764571353076" x2="54.6375655997994" y2="60.0"/>
    <line x1="54.6375655997994" y1="60.0" x2="54.7397881209322" y2="59.2235428646924"/>
    <line x1="54.7397881209322" y1="59.2235428646924" x2="55.039489388446" y2="58.5"/>
    <line x1="55.039489388446" y1="58.5" x2="55.5162452562398" y2="57.8786796564403"/>
    <line x1="55.5162452562398" y1="57.8786796564403" x2="56.1375655997994" y2="57.4019237886467"/>
    <line x1="56.1375655997994" y1="57.4019237886467" x2="56.8611084644918" y2="57.1022225211328"/>
    <line x1="56.8611084644918" y1="57.1022225211328" x2="57.6375655997994" y2="57.0"/>
    <line x1="57.6375655997994" y1="57.0" x2="58.414022735107" y2="57.1022225211328"/>
    <line x1="58.414022735107" y1="57.1022225211328" x2="59.1375655997994" y2="57.4019237886467"/>
    <line x1="59.1375655997994" y1="57.4019237886467" x2="59.758885943359" y2="57.8786796564403"/>
    <line x1="59.758885943359" y1="57.8786796564403" x2="60.2356418111527" y2="58.5"/>
    <line x1="60.2356418111527" y1="58.5" x2="60.5353430786666" y2="59.2235428646925"/>
    <line x1="60.5353430786666" y1="59.2235428646925" x2="60.6375655997994" y2="60.0"/>
    <line x1="60.6375655997994" y1="60.0" x2="60.5353430786666" y2="60.7764571353075"/>
    <line x1="14.4019237886467" y1="58.5" x2="14.8786796564404" y2="57.8786796564404"/>
    <line x1="14.8786796564404" y1="57.8786796564404" x2="15.5" y2="57.4019237886467"/>
    <line x1="15.5" y1="57.4019237886467" x2="16.2235428646924" y2="57.1022225211328"/>
    <line x1="16.2235428646924" y1="57.1022225211328" x2="17.0" y2="57.0"/>
    <line x1="17.0" y1="57.0" x2="17.7764571353076" y2="57.1022225211328"/>
    <line x1="17.7764571353076" y1="57.1022225211328" x2="18.5000000000001" y2="57.4019237886467"/>
    <line x1="18.5000000000001" y1="57.4019237886467" x2="19.1213203435596" y2="57.8786796564404"/>
    <line x1="19.1213203435596" y1="57.8786796564404" x2="19.5980762113534" y2="58.5"/>
    <line x1="19.5980762113534" y1="58.5" x2="19.8977774788672" y2="59.2235428646924"/>
    <line x1="19.8977774788672" y1="59.2235428646924" x2="20.0000000000001" y2="60.0"/>
    <line x1="20.0000000000001" y1="60.0" x2="19.8977774788672" y2="60.7764571353076"/>
    <line x1="19.8977774788672" y1="60.7764571353076" x2="19.5980762113534" y2="61.5"/>
    <line x1="19.5980762113534" y1="61.5" x2="19.1213203435596" y2="62.1213203435596"/>
    <line x1="19.1213203435596" y1="62.1213203435596" x2="18.5000000000001" y2="62.5980762113533"/>
    <line x1="18.5000000000001" y1="62.5980762113533" x2="17.7764571353076" y2="62.8977774788672"/>
    <line x1="17.7764571353076" y1="62.8977774788672" x2="17.0" y2="63.0"/>
    <line x1="17.0" y1="63.0" x2="16.2235428646924" y2="62.8977774788672"/>
    <line x1="16.2235428646924" y1="62.8977774788672" x2="15.5" y2="62.5980762113533"/>
    <line x1="15.5" y1="62.5980762113533" x2="14.8786796564404" y2="62.1213203435596"/>
    <line x1="14.8786796564404" y1="62.1213203435596" x2="14.4019237886467" y2="61.5"/>
    <line x1="14.4019237886467" y1="61.5" x2="14.1022225211328" y2="60.7764571353076"/>
    <line x1="14.1022225211328" y1="60.7764571353076" x2="13.9999999999999" y2="60.0"/>
    <line x1="13.9999999999999" y1="60.0" x2="14.1022225211328" y2="59.2235428646924"/>
    <line x1="14.1022225211328" y1="59.2235428646924" x2="14.4019237886467" y2="58.5"/>
    <line x1="54.6375655997994" y1="344.0" x2="54.7397881209322" y2="343.223542864692"/>
    <line x1="54.7397881209322" y1="343.223542864692" x2="55.0394893884461" y2="342.5"/>
    <line x1="55.0394893884461" y1="342.5" x2="55.5162452562399" y2="341.87867965644"/>
    <line x1="55.5162452562399" y1="341.87867965644" x2="56.1375655997994" y2="341.401923788647"/>
    <line x1="56.1375655997994" y1="341.401923788647" x2="56.8611084644918" y2="341.102222521133"/>
    <line x1="56.8611084644918" y1="341.102222521133" x2="57.6375655997994" y2="341.0"/>
    <line x1="57.6375655997994" y1="341.0" x2="58.414022735107" y2="341.102222521133"/>
    <line x1="58.414022735107" y1="341.102222521133" x2="59.1375655997995" y2="341.401923788647"/>
    <line x1="59.1375655997995" y1="341.401923788647" x2="59.758885943359" y2="341.87867965644"/>
    <line x1="59.758885943359" y1="341.87867965644" x2="60.2356418111527" y2="342.5"/>
    <line x1="60.2356418111527" y1="342.5" x2="60.5353430786666" y2="343.223542864692"/>
    <line x1="60.5353430786666" y1="343.223542864692" x2="60.6375655997994" y2="344.0"/>
    <line x1="60.6375655997994" y1="344.0" x2="60.5353430786666" y2="344.776457135308"/>
    <line x1="60.5353430786666" y1="344.776457135308" x2="60.2356418111527" y2="345.5"/>
    <line x1="60.2356418111527" y1="345.5" x2="59.758885943359" y2="346.12132034356"/>
    <line x1="59.758885943359" y1="346.12132034356" x2="59.1375655997994" y2="346.598076211353"/>
    <line x1="59.1375655997994" y1="346.598076211353" x2="58.414022735107" y2="346.897777478867"/>
    <line x1="58.414022735107" y1="346.897777478867" x2="57.6375655997994" y2="347.0"/>
    <line x1="57.6375655997994" y1="347.0" x2="56.8611084644918" y2="346.897777478867"/>
    <line x1="56.8611084644918" y1="346.897777478867" x2="56.1375655997994" y2="346.598076211353"/>
    <line x1="56.1375655997994" y1="346.598076211353" x2="55.5162452562398" y2="346.12132034356"/>
    <line x1="55.5162452562398" y1="346.12132034356" x2="55.039489388446" y2="345.5"/>
    <line x1="55.039489388446" y1="345.5" x2="54.7397881209322" y2="344.776457135308"/>
    <line x1="54.7397881209322" y1="344.776457135308" x2="54.6375655997994" y2="344.0"/>
    <line x1="15.5" y1="346.598076211353" x2="14.8786796564405" y2="346.12132034356"/>
    <line x1="14.8786796564405" y1="346.12132034356" x2="14.4019237886467" y2="345.5"/>
    <line x1="14.4019237886467" y1="345.5" x2="14.1022225211328" y2="344.776457135308"/>
    <line x1="14.1022225211328" y1="344.776457135308" x2="14.0" y2="344.0"/>
    <line x1="14.0" y1="344.0" x2="14.1022225211328" y2="343.223542864692"/>
    <line x1="14.1022225211328" y1="343.223542864692" x2="14.4019237886467" y2="342.5"/>
    <line x1="14.4019237886467" y1="342.5" x2="14.8786796564404" y2="341.87867965644"/>
    <line x1="14.8786796564404" y1="341.87867965644" x2="15.5" y2="341.401923788647"/>
    <line x1="15.5" y1="341.401923788647" x2="16.2235428646924" y2="341.102222521133"/>
    <line x1="16.2235428646924" y1="341.102222521133" x2="17.0" y2="341.0"/>
    <line x1="17.0" y1="341.0" x2="17.7764571353077" y2="341.102222521133"/>
    <line x1="17.7764571353077" y1="341.102222521133" x2="18.5000000000001" y2="341.401923788647"/>
    <line x1="18.5000000000001" y1="341.401923788647" x2="19.1213203435597" y2="341.87867965644"/>
    <line x1="19.1213203435597" y1="341.87867965644" x2="19.5980762113534" y2="342.5"/>
    <line x1="19.5980762113534" y1="342.5" x2="19.8977774788672" y2="343.223542864692"/>
    <line x1="19.8977774788672" y1="343.223542864692" x2="20.0000000000001" y2="344.0"/>
    <line x1="20.0000000000001" y1="344.0" x2="19.8977774788672" y2="344.776457135308"/>
    <line x1="19.8977774788672" y1="344.776457135308" x2="19.5980762113534" y2="345.5"/>
    <line x1="19.5980762113534" y1="345.5" x2="19.1213203435597" y2="346.12132034356"/>
    <line x1="19.1213203435597" y1="346.12132034356" x2="18.5000000000001" y2="346.598076211353"/>
    <line x1="18.5000000000001" y1="346.598076211353" x2="17.7764571353077" y2="346.897777478867"/>
    <line x1="17.7764571353077" y1="346.897777478867" x2="17.0000000000001" y2="347.0"/>
    <line x1="17.0000000000001" y1="347.0" x2="16.2235428646924" y2="346.897777478867"/>
    <line x1="16.2235428646924" y1="346.897777478867" x2="15.5" y2="346.598076211353"/>
  </g>
</svg>
