<?xml version="1.0" standalone="no"?>
<!DOCTYPE svg PUBLIC "-//W3C//DTD SVG 1.1//EN" "http://www.w3.org/Graphics/SVG/1.1/DTD/svg11.dtd">
<svg width="356.944612582429mm" height="394.000000000008mm"
 viewBox="0 0 356.944612582429 394.000000000008"
 xmlns="http://www.w3.org/2000/svg" version="1.1"
 xmlns:xlink="http://www.w3.org/1999/xlink">
<desc>Output from Flights of Ideas SVG Sketchup Plugin</desc>

  <g id="face0" fill="none" stroke="rgb(0,0,255)" stroke-width="1" stroke-miterlimit="4" stroke-dasharray="none" stroke-linejoin="round" stroke-linecap="round">
    <line x1="346.944612582429" y1="382.088067494379" x2="346.944612582425" y2="255.588078140162"/>
    <line x1="346.944612582425" y1="255.588078140162" x2="346.944612582421" y2="10.0"/>
    <line x1="346.944612582421" y1="10.0" x2="10.0" y2="10.0000000000058"/>
    <line x1="10.0" y1="10.0000000000058" x2="10.0000000000002" y2="25.000000000006"/>
    <line x1="10.0000000000002" y1="25.000000000006" x2="11.3125909701299" y2="25.0653927034592"/>
    <line x1="11.3125909701299" y1="25.0653927034592" x2="12.6047389293073" y2="25.3052362193718"/>
    <line x1="12.6047389293073" y1="25.3052362193718" x2="13.8533633289822" y2="25.7152464254235"/>
    <line x1="13.8533633289822" y1="25.7152464254235" x2="15.0361610452198" y2="26.2880996553116"/>
    <line x1="15.0361610452198" y1="26.2880996553116" x2="16.1320047605821" y2="27.0135635152208"/>
    <line x1="16.1320047605821" y1="27.0135635152208" x2="17.12132034356" y2="27.8786796564461"/>
    <line x1="17.12132034356" y1="27.8786796564461" x2="17.9864364847832" y2="28.8679952394252"/>
    <line x1="17.9864364847832" y1="28.8679952394252" x2="18.7119003446948" y2="29.9638389547838"/>
    <line x1="18.7119003446948" y1="29.9638389547838" x2="19.2847535745825" y2="31.1466366710234"/>
    <line x1="19.2847535745825" y1="31.1466366710234" x2="19.6947637806356" y2="32.3952610706987"/>
    <line x1="19.6947637806356" y1="32.3952610706987" x2="19.9346072965469" y2="33.6874090298759"/>
    <line x1="19.9346072965469" y1="33.6874090298759" x2="20.0000000000015" y2="35.0000000000058"/>
    <line x1="20.0000000000015" y1="35.0000000000058" x2="20.0000000000077" y2="359.000000000004"/>
    <line x1="20.0000000000077" y1="359.000000000004" x2="19.9346072965527" y2="360.312590970135"/>
    <line x1="19.9346072965527" y1="360.312590970135" x2="19.6947637806416" y2="361.604738929312"/>
    <line x1="19.6947637806416" y1="361.604738929312" x2="19.2847535745883" y2="362.853363328987"/>
    <line x1="19.2847535745883" y1="362.853363328987" x2="18.7119003447016" y2="364.036161045224"/>
    <line x1="18.7119003447016" y1="364.036161045224" x2="17.9864364847899" y2="365.132004760584"/>
    <line x1="17.9864364847899" y1="365.132004760584" x2="17.1213203435655" y2="366.121320343565"/>
    <line x1="17.1213203435655" y1="366.121320343565" x2="16.1320047605881" y2="366.986436484786"/>
    <line x1="16.1320047605881" y1="366.986436484786" x2="15.0361610452268" y2="367.7119003447"/>
    <line x1="15.0361610452268" y1="367.7119003447" x2="13.8533633289883" y2="368.284753574587"/>
    <line x1="13.8533633289883" y1="368.284753574587" x2="12.604738929313" y2="368.694763780639"/>
    <line x1="12.604738929313" y1="368.694763780639" x2="11.3125909701351" y2="368.934607296551"/>
    <line x1="11.3125909701351" y1="368.934607296551" x2="10.0000000000068" y2="369.000000000005"/>
    <line x1="10.0000000000068" y1="369.000000000005" x2="10.0000000000061" y2="384.000000000008"/>
    <line x1="10.0000000000061" y1="384.000000000008" x2="346.944612582429" y2="383.999999999999"/>
    <line x1="346.944612582429" y1="383.999999999999" x2="346.944612582429" y2="382.088067494379"/>
    <line x1="131.000000000005" y1="334.000000000002" x2="131.000000000003" y2="309.500000000005"/>
    <line x1="131.000000000003" y1="309.500000000005" x2="131.318308800646" y2="307.631208581396"/>
    <line x1="131.318308800646" y1="307.631208581396" x2="131.736326127793" y2="305.782164673577"/>
    <line x1="131.736326127793" y1="305.782164673577" x2="132.252850197727" y2="303.958184206574"/>
    <line x1="132.252850197727" y1="303.958184206574" x2="132.866396023639" y2="302.164511053978"/>
    <line x1="132.866396023639" y1="302.164511053978" x2="133.575199684915" y2="300.406301957029"/>
    <line x1="133.575199684915" y1="300.406301957029" x2="134.377223398321" y2="298.688611699163"/>
    <line x1="134.377223398321" y1="298.688611699163" x2="135.270161376568" y2="297.016378573719"/>
    <line x1="135.270161376568" y1="297.016378573719" x2="136.251446457366" y2="295.394410186529"/>
    <line x1="136.251446457366" y1="295.394410186529" x2="137.318257483891" y2="293.827369634242"/>
    <line x1="137.318257483891" y1="293.827369634242" x2="138.467527415535" y2="292.319762098092"/>
    <line x1="138.467527415535" y1="292.319762098092" x2="139.695952145502" y2="290.875921891684"/>
    <line x1="139.695952145502" y1="290.875921891684" x2="141.000000000003" y2="289.500000000005"/>
    <line x1="141.000000000003" y1="289.500000000005" x2="161.000000000005" y2="269.500000000004"/>
    <line x1="161.000000000005" y1="269.500000000004" x2="162.304047854507" y2="268.124078108325"/>
    <line x1="162.304047854507" y1="268.124078108325" x2="163.532472584474" y2="266.680237901917"/>
    <line x1="163.532472584474" y1="266.680237901917" x2="164.681742516116" y2="265.172630365768"/>
    <line x1="164.681742516116" y1="265.172630365768" x2="165.748553542641" y2="263.60558981348"/>
    <line x1="165.748553542641" y1="263.60558981348" x2="166.729838623439" y2="261.98362142629"/>
    <line x1="166.729838623439" y1="261.98362142629" x2="167.622776601686" y2="260.311388300846"/>
    <line x1="167.622776601686" y1="260.311388300846" x2="168.424800315092" y2="258.59369804298"/>
    <line x1="168.424800315092" y1="258.59369804298" x2="169.133603976368" y2="256.83548894603"/>
    <line x1="169.133603976368" y1="256.83548894603" x2="169.747149802282" y2="255.041815793435"/>
    <line x1="169.747149802282" y1="255.041815793435" x2="170.263673872214" y2="253.217835326432"/>
    <line x1="170.263673872214" y1="253.217835326432" x2="170.681691199363" y2="251.368791418614"/>
    <line x1="170.681691199363" y1="251.368791418614" x2="171.000000000004" y2="249.500000000004"/>
    <line x1="171.000000000004" y1="249.500000000004" x2="171.000000000003" y2="144.500000000003"/>
    <line x1="171.000000000003" y1="144.500000000003" x2="170.925395085052" y2="142.570057033442"/>
    <line x1="170.925395085052" y1="142.570057033442" x2="170.702025611667" y2="140.651632725352"/>
    <line x1="170.702025611667" y1="140.651632725352" x2="170.331224736694" y2="138.75617698632"/>
    <line x1="170.331224736694" y1="138.75617698632" x2="169.815205545555" y2="136.895002641482"/>
    <line x1="169.815205545555" y1="136.895002641482" x2="169.157047843672" y2="135.079217911132"/>
    <line x1="169.157047843672" y1="135.079217911132" x2="168.360679774998" y2="133.319660112504"/>
    <line x1="168.360679774998" y1="133.319660112504" x2="167.430854377301" y2="131.626830978391"/>
    <line x1="167.430854377301" y1="131.626830978391" x2="166.373121214151" y2="130.010833978676"/>
    <line x1="166.373121214151" y1="130.010833978676" x2="165.193793252963" y2="128.48131401886"/>
    <line x1="165.193793252963" y1="128.48131401886" x2="163.899909186723" y2="127.047399875462"/>
    <line x1="163.899909186723" y1="127.047399875462" x2="162.499191424279" y2="125.717649711901"/>
    <line x1="162.499191424279" y1="125.717649711901" x2="161.000000000002" y2="124.500000000003"/>
    <line x1="161.000000000002" y1="124.500000000003" x2="141.000000000002" y2="104.500000000004"/>
    <line x1="141.000000000002" y1="104.500000000004" x2="139.695952145498" y2="103.124078108326"/>
    <line x1="139.695952145498" y1="103.124078108326" x2="138.467527415533" y2="101.680237901917"/>
    <line x1="138.467527415533" y1="101.680237901917" x2="137.318257483888" y2="100.172630365767"/>
    <line x1="137.318257483888" y1="100.172630365767" x2="136.251446457363" y2="98.6055898134806"/>
    <line x1="136.251446457363" y1="98.6055898134806" x2="135.270161376567" y2="96.9836214262898"/>
    <line x1="135.270161376567" y1="96.9836214262898" x2="134.377223398316" y2="95.3113883008474"/>
    <line x1="134.377223398316" y1="95.3113883008474" x2="133.575199684912" y2="93.5936980429807"/>
    <line x1="133.575199684912" y1="93.5936980429807" x2="132.866396023638" y2="91.8354889460291"/>
    <line x1="132.866396023638" y1="91.8354889460291" x2="132.252850197722" y2="90.0418157934362"/>
    <line x1="132.252850197722" y1="90.0418157934362" x2="131.736326127788" y2="88.2178353264336"/>
    <line x1="131.736326127788" y1="88.2178353264336" x2="131.318308800643" y2="86.3687914186155"/>
    <line x1="131.318308800643" y1="86.3687914186155" x2="131.0" y2="84.5000000000052"/>
    <line x1="131.0" y1="84.5000000000052" x2="131.000000000001" y2="60.0000000000022"/>
    <line x1="131.000000000001" y1="60.0000000000022" x2="131.085551386262" y2="58.6947380778019"/>
    <line x1="131.085551386262" y1="58.6947380778019" x2="131.34074173711" y2="57.4118095489786"/>
    <line x1="131.34074173711" y1="57.4118095489786" x2="131.761204674887" y2="56.1731656763529"/>
    <line x1="131.761204674887" y1="56.1731656763529" x2="132.339745962157" y2="55.0000000000039"/>
    <line x1="132.339745962157" y1="55.0000000000039" x2="133.066466597084" y2="53.9123857099136"/>
    <line x1="133.066466597084" y1="53.9123857099136" x2="133.928932188135" y2="52.9289321881378"/>
    <line x1="133.928932188135" y1="52.9289321881378" x2="134.912385709913" y2="52.0664665970916"/>
    <line x1="134.912385709913" y1="52.0664665970916" x2="136.0" y2="51.3397459621563"/>
    <line x1="136.0" y1="51.3397459621563" x2="137.173165676349" y2="50.761204674891"/>
    <line x1="137.173165676349" y1="50.761204674891" x2="138.411809548975" y2="50.34074173711"/>
    <line x1="138.411809548975" y1="50.34074173711" x2="139.6947380778" y2="50.0855513862657"/>
    <line x1="139.6947380778" y1="50.0855513862657" x2="141.0" y2="50.0000000000008"/>
    <line x1="141.0" y1="50.0000000000008" x2="299.999999999999" y2="49.9999999999993"/>
    <line x1="299.999999999999" y1="49.9999999999993" x2="301.3052619222" y2="50.0855513862615"/>
    <line x1="301.3052619222" y1="50.0855513862615" x2="302.588190451025" y2="50.3407417371086"/>
    <line x1="302.588190451025" y1="50.3407417371086" x2="303.826834323651" y2="50.7612046748879"/>
    <line x1="303.826834323651" y1="50.7612046748879" x2="305.000000000002" y2="51.3397459621549"/>
    <line x1="305.000000000002" y1="51.3397459621549" x2="306.087614290088" y2="52.0664665970884"/>
    <line x1="306.087614290088" y1="52.0664665970884" x2="307.07106781187" y2="52.9289321881322"/>
    <line x1="307.07106781187" y1="52.9289321881322" x2="307.933533402914" y2="53.9123857099135"/>
    <line x1="307.933533402914" y1="53.9123857099135" x2="308.660254037846" y2="55.0000000000007"/>
    <line x1="308.660254037846" y1="55.0000000000007" x2="309.238795325113" y2="56.1731656763486"/>
    <line x1="309.238795325113" y1="56.1731656763486" x2="309.659258262892" y2="57.4118095489723"/>
    <line x1="309.659258262892" y1="57.4118095489723" x2="309.914448613742" y2="58.6947380777987"/>
    <line x1="309.914448613742" y1="58.6947380777987" x2="310.000000000002" y2="59.9999999999992"/>
    <line x1="310.000000000002" y1="59.9999999999992" x2="310.000000000008" y2="333.999999999998"/>
    <line x1="310.000000000008" y1="333.999999999998" x2="309.914448613745" y2="335.305261922198"/>
    <line x1="309.914448613745" y1="335.305261922198" x2="309.659258262896" y2="336.588190451022"/>
    <line x1="309.659258262896" y1="336.588190451022" x2="309.23879532512" y2="337.826834323648"/>
    <line x1="309.23879532512" y1="337.826834323648" x2="308.660254037854" y2="338.999999999999"/>
    <line x1="308.660254037854" y1="338.999999999999" x2="307.933533402919" y2="340.087614290086"/>
    <line x1="307.933533402919" y1="340.087614290086" x2="307.071067811872" y2="341.071067811863"/>
    <line x1="307.071067811872" y1="341.071067811863" x2="306.087614290093" y2="341.933533402912"/>
    <line x1="306.087614290093" y1="341.933533402912" x2="305.000000000007" y2="342.660254037843"/>
    <line x1="305.000000000007" y1="342.660254037843" x2="303.826834323655" y2="343.238795325113"/>
    <line x1="303.826834323655" y1="343.238795325113" x2="302.58819045103" y2="343.659258262889"/>
    <line x1="302.58819045103" y1="343.659258262889" x2="301.305261922205" y2="343.914448613738"/>
    <line x1="301.305261922205" y1="343.914448613738" x2="300.000000000004" y2="343.999999999999"/>
    <line x1="300.000000000004" y1="343.999999999999" x2="141.000000000005" y2="344.0"/>
    <line x1="141.000000000005" y1="344.0" x2="139.694738077805" y2="343.91444861374"/>
    <line x1="139.694738077805" y1="343.91444861374" x2="138.41180954898" y2="343.659258262891"/>
    <line x1="138.41180954898" y1="343.659258262891" x2="137.173165676353" y2="343.238795325115"/>
    <line x1="137.173165676353" y1="343.238795325115" x2="136.000000000005" y2="342.660254037846"/>
    <line x1="136.000000000005" y1="342.660254037846" x2="134.912385709918" y2="341.933533402915"/>
    <line x1="134.912385709918" y1="341.933533402915" x2="133.92893218814" y2="341.071067811867"/>
    <line x1="133.92893218814" y1="341.071067811867" x2="133.06646659709" y2="340.087614290088"/>
    <line x1="133.06646659709" y1="340.087614290088" x2="132.339745962161" y2="339.000000000002"/>
    <line x1="132.339745962161" y1="339.000000000002" x2="131.761204674892" y2="337.826834323653"/>
    <line x1="131.761204674892" y1="337.826834323653" x2="131.340741737114" y2="336.588190451027"/>
    <line x1="131.340741737114" y1="336.588190451027" x2="131.085551386264" y2="335.305261922202"/>
    <line x1="131.085551386264" y1="335.305261922202" x2="131.000000000005" y2="334.000000000002"/>
    <line x1="93.6000000000035" y1="144.200000000001" x2="156.000000000002" y2="144.199999999999"/>
    <line x1="156.000000000002" y1="144.199999999999" x2="156.000000000004" y2="249.800000000001"/>
    <line x1="156.000000000004" y1="249.800000000001" x2="93.6000000000049" y2="249.800000000003"/>
    <line x1="93.6000000000049" y1="249.800000000003" x2="93.6000000000035" y2="144.200000000001"/>
    <line x1="323.168155447118" y1="93.9145415690776" x2="323.944612582426" y2="93.8123190479439"/>
    <line x1="323.944612582426" y1="93.8123190479439" x2="324.721069717734" y2="93.9145415690755"/>
    <line x1="324.721069717734" y1="93.9145415690755" x2="325.444612582426" y2="94.2142428365915"/>
    <line x1="325.444612582426" y1="94.2142428365915" x2="326.065932925982" y2="94.6909987043841"/>
    <line x1="326.065932925982" y1="94.6909987043841" x2="326.542688793776" y2="95.3123190479438"/>
    <line x1="326.542688793776" y1="95.3123190479438" x2="326.84239006129" y2="96.035861912635"/>
    <line x1="326.84239006129" y1="96.035861912635" x2="326.944612582423" y2="96.8123190479426"/>
    <line x1="326.944612582423" y1="96.8123190479426" x2="326.84239006129" y2="97.5887761832501"/>
    <line x1="326.84239006129" y1="97.5887761832501" x2="326.542688793776" y2="98.3123190479437"/>
    <line x1="326.542688793776" y1="98.3123190479437" x2="326.065932925986" y2="98.9336393915034"/>
    <line x1="326.065932925986" y1="98.9336393915034" x2="325.444612582426" y2="99.4103952592981"/>
    <line x1="325.444612582426" y1="99.4103952592981" x2="324.72106971773" y2="99.7100965268099"/>
    <line x1="324.72106971773" y1="99.7100965268099" x2="323.944612582422" y2="99.8123190479438"/>
    <line x1="323.944612582422" y1="99.8123190479438" x2="323.168155447115" y2="99.710096526812"/>
    <line x1="323.168155447115" y1="99.710096526812" x2="322.444612582426" y2="99.4103952592961"/>
    <line x1="322.444612582426" y1="99.4103952592961" x2="321.823292238866" y2="98.9336393915023"/>
    <line x1="321.823292238866" y1="98.9336393915023" x2="321.34653637107" y2="98.3123190479439"/>
    <line x1="321.34653637107" y1="98.3123190479439" x2="321.046835103555" y2="97.5887761832514"/>
    <line x1="321.046835103555" y1="97.5887761832514" x2="320.944612582423" y2="96.8123190479439"/>
    <line x1="320.944612582423" y1="96.8123190479439" x2="321.046835103555" y2="96.0358619126363"/>
    <line x1="321.046835103555" y1="96.0358619126363" x2="321.346536371069" y2="95.3123190479439"/>
    <line x1="321.346536371069" y1="95.3123190479439" x2="321.823292238863" y2="94.690998704383"/>
    <line x1="321.823292238863" y1="94.690998704383" x2="322.444612582426" y2="94.2142428365895"/>
    <line x1="322.444612582426" y1="94.2142428365895" x2="323.168155447118" y2="93.9145415690776"/>
    <line x1="323.168155447117" y1="193.914541569075" x2="323.944612582425" y2="193.812319047942"/>
    <line x1="323.944612582425" y1="193.812319047942" x2="324.721069717732" y2="193.914541569076"/>
    <line x1="324.721069717732" y1="193.914541569076" x2="325.444612582424" y2="194.214242836589"/>
    <line x1="325.444612582424" y1="194.214242836589" x2="326.065932925984" y2="194.690998704383"/>
    <line x1="326.065932925984" y1="194.690998704383" x2="326.542688793778" y2="195.312319047942"/>
    <line x1="326.542688793778" y1="195.312319047942" x2="326.842390061295" y2="196.035861912634"/>
    <line x1="326.842390061295" y1="196.035861912634" x2="326.944612582424" y2="196.812319047942"/>
    <line x1="326.944612582424" y1="196.812319047942" x2="326.842390061292" y2="197.588776183249"/>
    <line x1="326.842390061292" y1="197.588776183249" x2="326.542688793778" y2="198.312319047942"/>
    <line x1="326.542688793778" y1="198.312319047942" x2="326.065932925984" y2="198.933639391503"/>
    <line x1="326.065932925984" y1="198.933639391503" x2="325.444612582424" y2="199.410395259295"/>
    <line x1="325.444612582424" y1="199.410395259295" x2="324.721069717732" y2="199.71009652681"/>
    <line x1="324.721069717732" y1="199.71009652681" x2="323.944612582424" y2="199.812319047942"/>
    <line x1="323.944612582424" y1="199.812319047942" x2="323.168155447117" y2="199.710096526809"/>
    <line x1="323.168155447117" y1="199.710096526809" x2="322.444612582424" y2="199.410395259296"/>
    <line x1="322.444612582424" y1="199.410395259296" x2="321.823292238865" y2="198.933639391502"/>
    <line x1="321.823292238865" y1="198.933639391502" x2="321.346536371071" y2="198.312319047942"/>
    <line x1="321.346536371071" y1="198.312319047942" x2="321.046835103557" y2="197.588776183251"/>
    <line x1="321.046835103557" y1="197.588776183251" x2="320.944612582424" y2="196.812319047943"/>
    <line x1="320.944612582424" y1="196.812319047943" x2="321.046835103561" y2="196.035861912635"/>
    <line x1="321.046835103561" y1="196.035861912635" x2="321.346536371071" y2="195.312319047942"/>
    <line x1="321.346536371071" y1="195.312319047942" x2="321.823292238865" y2="194.690998704382"/>
    <line x1="321.823292238865" y1="194.690998704382" x2="322.444612582424" y2="194.21424283659"/>
    <line x1="322.444612582424" y1="194.21424283659" x2="323.168155447117" y2="193.914541569075"/>
    <line x1="326.065932925985" y1="298.933639391504" x2="325.444612582426" y2="299.410395259297"/>
    <line x1="325.444612582426" y1="299.410395259297" x2="324.721069717734" y2="299.71009652681"/>
    <line x1="324.721069717734" y1="299.71009652681" x2="323.944612582426" y2="299.812319047944"/>
    <line x1="323.944612582426" y1="299.812319047944" x2="323.168155447119" y2="299.710096526811"/>
    <line x1="323.168155447119" y1="299.710096526811" x2="322.444612582426" y2="299.410395259297"/>
    <line x1="322.444612582426" y1="299.410395259297" x2="321.823292238866" y2="298.933639391504"/>
    <line x1="321.823292238866" y1="298.933639391504" x2="321.346536371076" y2="298.312319047944"/>
    <line x1="321.346536371076" y1="298.312319047944" x2="321.046835103559" y2="297.588776183252"/>
    <line x1="321.046835103559" y1="297.588776183252" x2="320.944612582426" y2="296.812319047944"/>
    <line x1="320.944612582426" y1="296.812319047944" x2="321.046835103559" y2="296.035861912636"/>
    <line x1="321.046835103559" y1="296.035861912636" x2="321.346536371073" y2="295.312319047944"/>
    <line x1="321.346536371073" y1="295.312319047944" x2="321.823292238866" y2="294.690998704385"/>
    <line x1="321.823292238866" y1="294.690998704385" x2="322.444612582426" y2="294.21424283659"/>
    <line x1="322.444612582426" y1="294.21424283659" x2="323.168155447118" y2="293.914541569077"/>
    <line x1="323.168155447118" y1="293.914541569077" x2="323.944612582426" y2="293.812319047944"/>
    <line x1="323.944612582426" y1="293.812319047944" x2="324.721069717733" y2="293.914541569075"/>
    <line x1="324.721069717733" y1="293.914541569075" x2="325.444612582426" y2="294.214242836591"/>
    <line x1="325.444612582426" y1="294.214242836591" x2="326.065932925986" y2="294.690998704384"/>
    <line x1="326.065932925986" y1="294.690998704384" x2="326.542688793779" y2="295.312319047944"/>
    <line x1="326.542688793779" y1="295.312319047944" x2="326.842390061293" y2="296.035861912637"/>
    <line x1="326.842390061293" y1="296.035861912637" x2="326.944612582426" y2="296.812319047944"/>
    <line x1="326.944612582426" y1="296.812319047944" x2="326.842390061293" y2="297.588776183252"/>
    <line x1="326.842390061293" y1="297.588776183252" x2="326.542688793783" y2="298.312319047944"/>
    <line x1="326.542688793783" y1="298.312319047944" x2="326.065932925985" y2="298.933639391504"/>
    <line x1="80.3723062912171" y1="379.598076211358" x2="79.6487634265246" y2="379.897777478874"/>
    <line x1="79.6487634265246" y1="379.897777478874" x2="78.872306291217" y2="380.000000000004"/>
    <line x1="78.872306291217" y1="380.000000000004" x2="78.0958491559095" y2="379.897777478875"/>
    <line x1="78.0958491559095" y1="379.897777478875" x2="77.3723062912171" y2="379.598076211359"/>
    <line x1="77.3723062912171" y1="379.598076211359" x2="76.7509859476568" y2="379.121320343564"/>
    <line x1="76.7509859476568" y1="379.121320343564" x2="76.2742300798632" y2="378.500000000005"/>
    <line x1="76.2742300798632" y1="378.500000000005" x2="75.9745288123497" y2="377.776457135311"/>
    <line x1="75.9745288123497" y1="377.776457135311" x2="75.8723062912171" y2="377.000000000004"/>
    <line x1="75.8723062912171" y1="377.000000000004" x2="75.9745288123493" y2="376.223542864697"/>
    <line x1="75.9745288123493" y1="376.223542864697" x2="76.2742300798635" y2="375.500000000004"/>
    <line x1="76.2742300798635" y1="375.500000000004" x2="76.7509859476573" y2="374.878679656446"/>
    <line x1="76.7509859476573" y1="374.878679656446" x2="77.372306291217" y2="374.40192378865"/>
    <line x1="77.372306291217" y1="374.40192378865" x2="78.095849155911" y2="374.102222521136"/>
    <line x1="78.095849155911" y1="374.102222521136" x2="78.8723062912164" y2="374.000000000003"/>
    <line x1="78.8723062912164" y1="374.000000000003" x2="79.6487634265262" y2="374.102222521138"/>
    <line x1="79.6487634265262" y1="374.102222521138" x2="80.372306291217" y2="374.401923788651"/>
    <line x1="80.372306291217" y1="374.401923788651" x2="80.9936266347766" y2="374.878679656444"/>
    <line x1="80.9936266347766" y1="374.878679656444" x2="81.47038250257" y2="375.500000000004"/>
    <line x1="81.47038250257" y1="375.500000000004" x2="81.7700837700838" y2="376.223542864696"/>
    <line x1="81.7700837700838" y1="376.223542864696" x2="81.8723062912171" y2="377.000000000003"/>
    <line x1="81.8723062912171" y1="377.000000000003" x2="81.7700837700841" y2="377.776457135312"/>
    <line x1="81.7700837700841" y1="377.776457135312" x2="81.4703825025698" y2="378.500000000007"/>
    <line x1="81.4703825025698" y1="378.500000000007" x2="80.9936266347761" y2="379.121320343563"/>
    <line x1="80.9936266347761" y1="379.121320343563" x2="80.3723062912171" y2="379.598076211358"/>
    <line x1="176.750985947657" y1="379.12132034356" x2="176.274230079863" y2="378.500000000002"/>
    <line x1="176.274230079863" y1="378.500000000002" x2="175.974528812349" y2="377.77645713531"/>
    <line x1="175.974528812349" y1="377.77645713531" x2="175.872306291217" y2="377.000000000003"/>
    <line x1="175.872306291217" y1="377.000000000003" x2="175.974528812346" y2="376.223542864695"/>
    <line x1="175.974528812346" y1="376.223542864695" x2="176.274230079863" y2="375.500000000002"/>
    <line x1="176.274230079863" y1="375.500000000002" x2="176.750985947657" y2="374.878679656442"/>
    <line x1="176.750985947657" y1="374.878679656442" x2="177.372306291217" y2="374.401923788648"/>
    <line x1="177.372306291217" y1="374.401923788648" x2="178.095849155909" y2="374.102222521135"/>
    <line x1="178.095849155909" y1="374.102222521135" x2="178.872306291216" y2="374.000000000002"/>
    <line x1="178.872306291216" y1="374.000000000002" x2="179.648763426524" y2="374.102222521134"/>
    <line x1="179.648763426524" y1="374.102222521134" x2="180.372306291217" y2="374.401923788648"/>
    <line x1="180.372306291217" y1="374.401923788648" x2="180.993626634776" y2="374.878679656443"/>
    <line x1="180.993626634776" y1="374.878679656443" x2="181.47038250257" y2="375.500000000002"/>
    <line x1="181.47038250257" y1="375.500000000002" x2="181.77008377008" y2="376.223542864696"/>
    <line x1="181.77008377008" y1="376.223542864696" x2="181.872306291217" y2="377.0"/>
    <line x1="181.872306291217" y1="377.0" x2="181.770083770084" y2="377.776457135311"/>
    <line x1="181.770083770084" y1="377.776457135311" x2="181.47038250257" y2="378.500000000001"/>
    <line x1="181.47038250257" y1="378.500000000001" x2="180.993626634776" y2="379.121320343562"/>
    <line x1="180.993626634776" y1="379.121320343562" x2="180.372306291217" y2="379.598076211355"/>
    <line x1="180.372306291217" y1="379.598076211355" x2="179.648763426524" y2="379.897777478869"/>
    <line x1="179.648763426524" y1="379.897777478869" x2="178.872306291217" y2="380.000000000002"/>
    <line x1="178.872306291217" y1="380.000000000002" x2="178.095849155909" y2="379.897777478869"/>
    <line x1="178.095849155909" y1="379.897777478869" x2="177.372306291217" y2="379.598076211353"/>
    <line x1="177.372306291217" y1="379.598076211353" x2="176.750985947657" y2="379.12132034356"/>
    <line x1="278.872306291216" y1="373.999999999999" x2="279.648763426524" y2="374.102222521132"/>
    <line x1="279.648763426524" y1="374.102222521132" x2="280.372306291216" y2="374.401923788646"/>
    <line x1="280.372306291216" y1="374.401923788646" x2="280.993626634776" y2="374.878679656441"/>
    <line x1="280.993626634776" y1="374.878679656441" x2="281.470382502569" y2="375.499999999999"/>
    <line x1="281.470382502569" y1="375.499999999999" x2="281.77008377008" y2="376.223542864692"/>
    <line x1="281.77008377008" y1="376.223542864692" x2="281.872306291213" y2="376.999999999999"/>
    <line x1="281.872306291213" y1="376.999999999999" x2="281.77008377008" y2="377.776457135307"/>
    <line x1="281.77008377008" y1="377.776457135307" x2="281.470382502566" y2="378.499999999999"/>
    <line x1="281.470382502566" y1="378.499999999999" x2="280.993626634776" y2="379.12132034356"/>
    <line x1="280.993626634776" y1="379.12132034356" x2="280.372306291216" y2="379.598076211353"/>
    <line x1="280.372306291216" y1="379.598076211353" x2="279.648763426524" y2="379.897777478867"/>
    <line x1="279.648763426524" y1="379.897777478867" x2="278.872306291216" y2="380.0"/>
    <line x1="278.872306291216" y1="380.0" x2="278.095849155909" y2="379.897777478868"/>
    <line x1="278.095849155909" y1="379.897777478868" x2="277.372306291216" y2="379.598076211353"/>
    <line x1="277.372306291216" y1="379.598076211353" x2="276.750985947657" y2="379.121320343559"/>
    <line x1="276.750985947657" y1="379.121320343559" x2="276.27423007986" y2="378.500000000002"/>
    <line x1="276.27423007986" y1="378.500000000002" x2="275.974528812346" y2="377.776457135308"/>
    <line x1="275.974528812346" y1="377.776457135308" x2="275.872306291213" y2="377.0"/>
    <line x1="275.872306291213" y1="377.0" x2="275.974528812346" y2="376.223542864693"/>
    <line x1="275.974528812346" y1="376.223542864693" x2="276.274230079863" y2="375.500000000002"/>
    <line x1="276.274230079863" y1="375.500000000002" x2="276.750985947657" y2="374.87867965644"/>
    <line x1="276.750985947657" y1="374.87867965644" x2="277.372306291216" y2="374.401923788646"/>
    <line x1="277.372306291216" y1="374.401923788646" x2="278.095849155909" y2="374.102222521133"/>
    <line x1="278.095849155909" y1="374.102222521133" x2="278.872306291216" y2="373.999999999999"/>
    <line x1="80.3723062912109" y1="19.5980762113575" x2="79.6487634265183" y2="19.897777478872"/>
    <line x1="79.6487634265183" y1="19.897777478872" x2="78.8723062912108" y2="20.0000000000046"/>
    <line x1="78.8723062912108" y1="20.0000000000046" x2="78.0958491559034" y2="19.8977774788718"/>
    <line x1="78.0958491559034" y1="19.8977774788718" x2="77.3723062912109" y2="19.5980762113568"/>
    <line x1="77.3723062912109" y1="19.5980762113568" x2="76.750985947653" y2="19.1213203435643"/>
    <line x1="76.750985947653" y1="19.1213203435643" x2="76.2742300798571" y2="18.5000000000049"/>
    <line x1="76.2742300798571" y1="18.5000000000049" x2="75.9745288123435" y2="17.7764571353123"/>
    <line x1="75.9745288123435" y1="17.7764571353123" x2="75.8723062912109" y2="17.0000000000049"/>
    <line x1="75.8723062912109" y1="17.0000000000049" x2="75.9745288123431" y2="16.2235428646974"/>
    <line x1="75.9745288123431" y1="16.2235428646974" x2="76.2742300798573" y2="15.5000000000048"/>
    <line x1="76.2742300798573" y1="15.5000000000048" x2="76.7509859476512" y2="14.8786796564451"/>
    <line x1="76.7509859476512" y1="14.8786796564451" x2="77.3723062912109" y2="14.4019237886514"/>
    <line x1="77.3723062912109" y1="14.4019237886514" x2="78.0958491559047" y2="14.1022225211377"/>
    <line x1="78.0958491559047" y1="14.1022225211377" x2="78.8723062912123" y2="14.0000000000048"/>
    <line x1="78.8723062912123" y1="14.0000000000048" x2="79.6487634265198" y2="14.1022225211376"/>
    <line x1="79.6487634265198" y1="14.1022225211376" x2="80.3723062912107" y2="14.401923788651"/>
    <line x1="80.3723062912107" y1="14.401923788651" x2="80.9936266347702" y2="14.8786796564452"/>
    <line x1="80.9936266347702" y1="14.8786796564452" x2="81.4703825025637" y2="15.5000000000047"/>
    <line x1="81.4703825025637" y1="15.5000000000047" x2="81.7700837700775" y2="16.223542864697"/>
    <line x1="81.7700837700775" y1="16.223542864697" x2="81.8723062912107" y2="17.0000000000047"/>
    <line x1="81.8723062912107" y1="17.0000000000047" x2="81.7700837700777" y2="17.7764571353122"/>
    <line x1="81.7700837700777" y1="17.7764571353122" x2="81.4703825025636" y2="18.5000000000046"/>
    <line x1="81.4703825025636" y1="18.5000000000046" x2="80.9936266347719" y2="19.1213203435642"/>
    <line x1="80.9936266347719" y1="19.1213203435642" x2="80.3723062912109" y2="19.5980762113575"/>
    <line x1="177.372306291211" y1="19.5980762113545" x2="176.750985947651" y2="19.1213203435626"/>
    <line x1="176.750985947651" y1="19.1213203435626" x2="176.274230079854" y2="18.5000000000031"/>
    <line x1="176.274230079854" y1="18.5000000000031" x2="175.974528812343" y2="17.7764571353106"/>
    <line x1="175.974528812343" y1="17.7764571353106" x2="175.872306291211" y2="17.0000000000031"/>
    <line x1="175.872306291211" y1="17.0000000000031" x2="175.974528812343" y2="16.2235428646955"/>
    <line x1="175.974528812343" y1="16.2235428646955" x2="176.274230079857" y2="15.500000000003"/>
    <line x1="176.274230079857" y1="15.500000000003" x2="176.750985947651" y2="14.8786796564434"/>
    <line x1="176.750985947651" y1="14.8786796564434" x2="177.37230629121" y2="14.4019237886479"/>
    <line x1="177.37230629121" y1="14.4019237886479" x2="178.095849155903" y2="14.1022225211358"/>
    <line x1="178.095849155903" y1="14.1022225211358" x2="178.87230629121" y2="14.000000000003"/>
    <line x1="178.87230629121" y1="14.000000000003" x2="179.648763426518" y2="14.1022225211349"/>
    <line x1="179.648763426518" y1="14.1022225211349" x2="180.37230629121" y2="14.4019237886496"/>
    <line x1="180.37230629121" y1="14.4019237886496" x2="180.99362663477" y2="14.8786796564432"/>
    <line x1="180.99362663477" y1="14.8786796564432" x2="181.470382502563" y2="15.5000000000029"/>
    <line x1="181.470382502563" y1="15.5000000000029" x2="181.770083770077" y2="16.2235428646954"/>
    <line x1="181.770083770077" y1="16.2235428646954" x2="181.872306291211" y2="17.0000000000028"/>
    <line x1="181.872306291211" y1="17.0000000000028" x2="181.770083770077" y2="17.7764571353105"/>
    <line x1="181.770083770077" y1="17.7764571353105" x2="181.47038250256" y2="18.5000000000029"/>
    <line x1="181.47038250256" y1="18.5000000000029" x2="180.99362663477" y2="19.1213203435626"/>
    <line x1="180.99362663477" y1="19.1213203435626" x2="180.372306291211" y2="19.5980762113562"/>
    <line x1="180.372306291211" y1="19.5980762113562" x2="179.648763426518" y2="19.8977774788692"/>
    <line x1="179.648763426518" y1="19.8977774788692" x2="178.87230629121" y2="20.000000000003"/>
    <line x1="178.87230629121" y1="20.000000000003" x2="178.095849155903" y2="19.8977774788701"/>
    <line x1="178.095849155903" y1="19.8977774788701" x2="177.372306291211" y2="19.5980762113545"/>
    <line x1="278.095849155899" y1="14.102222521134" x2="278.872306291207" y2="14.0000000000013"/>
    <line x1="278.872306291207" y1="14.0000000000013" x2="279.648763426514" y2="14.1022225211336"/>
    <line x1="279.648763426514" y1="14.1022225211336" x2="280.372306291207" y2="14.4019237886478"/>
    <line x1="280.372306291207" y1="14.4019237886478" x2="280.993626634766" y2="14.8786796564415"/>
    <line x1="280.993626634766" y1="14.8786796564415" x2="281.47038250256" y2="15.5000000000012"/>
    <line x1="281.47038250256" y1="15.5000000000012" x2="281.770083770077" y2="16.2235428646927"/>
    <line x1="281.770083770077" y1="16.2235428646927" x2="281.87230629121" y2="16.9999999999993"/>
    <line x1="281.87230629121" y1="16.9999999999993" x2="281.770083770077" y2="17.7764571353078"/>
    <line x1="281.770083770077" y1="17.7764571353078" x2="281.47038250256" y2="18.5000000000011"/>
    <line x1="281.47038250256" y1="18.5000000000011" x2="280.993626634766" y2="19.1213203435608"/>
    <line x1="280.993626634766" y1="19.1213203435608" x2="280.372306291207" y2="19.5980762113545"/>
    <line x1="280.372306291207" y1="19.5980762113545" x2="279.648763426515" y2="19.897777478868"/>
    <line x1="279.648763426515" y1="19.897777478868" x2="278.872306291207" y2="20.0000000000012"/>
    <line x1="278.872306291207" y1="20.0000000000012" x2="278.095849155899" y2="19.8977774788684"/>
    <line x1="278.095849155899" y1="19.8977774788684" x2="277.372306291207" y2="19.5980762113546"/>
    <line x1="277.372306291207" y1="19.5980762113546" x2="276.750985947647" y2="19.121320343559"/>
    <line x1="276.750985947647" y1="19.121320343559" x2="276.274230079854" y2="18.5000000000013"/>
    <line x1="276.274230079854" y1="18.5000000000013" x2="275.974528812343" y2="17.7764571353088"/>
    <line x1="275.974528812343" y1="17.7764571353088" x2="275.87230629121" y2="17.0000000000013"/>
    <line x1="275.87230629121" y1="17.0000000000013" x2="275.974528812343" y2="16.2235428646937"/>
    <line x1="275.974528812343" y1="16.2235428646937" x2="276.274230079853" y2="15.5000000000013"/>
    <line x1="276.274230079853" y1="15.5000000000013" x2="276.750985947647" y2="14.8786796564398"/>
    <line x1="276.750985947647" y1="14.8786796564398" x2="277.372306291207" y2="14.4019237886479"/>
    <line x1="277.372306291207" y1="14.4019237886479" x2="278.095849155899" y2="14.102222521134"/>
    <line x1="61.5000000000007" y1="49.4019237886516" x2="62.1213203435608" y2="49.8786796564456"/>
    <line x1="62.1213203435608" y1="49.8786796564456" x2="62.598076211354" y2="50.5000000000052"/>
    <line x1="62.598076211354" y1="50.5000000000052" x2="62.897777478868" y2="51.2235428646975"/>
    <line x1="62.897777478868" y1="51.2235428646975" x2="63.0000000000009" y2="52.0000000000049"/>
    <line x1="63.0000000000009" y1="52.0000000000049" x2="62.897777478868" y2="52.7764571353127"/>
    <line x1="62.897777478868" y1="52.7764571353127" x2="62.5980762113541" y2="53.500000000005"/>
    <line x1="62.5980762113541" y1="53.500000000005" x2="62.1213203435605" y2="54.1213203435648"/>
    <line x1="62.1213203435605" y1="54.1213203435648" x2="61.5000000000009" y2="54.5980762113583"/>
    <line x1="61.5000000000009" y1="54.5980762113583" x2="60.7764571353088" y2="54.8977774788723"/>
    <line x1="60.7764571353088" y1="54.8977774788723" x2="60.0000000000007" y2="55.0000000000053"/>
    <line x1="60.0000000000007" y1="55.0000000000053" x2="59.2235428646936" y2="54.8977774788719"/>
    <line x1="59.2235428646936" y1="54.8977774788719" x2="58.5000000000008" y2="54.5980762113585"/>
    <line x1="58.5000000000008" y1="54.5980762113585" x2="57.8786796564411" y2="54.1213203435649"/>
    <line x1="57.8786796564411" y1="54.1213203435649" x2="57.4019237886474" y2="53.5000000000053"/>
    <line x1="57.4019237886474" y1="53.5000000000053" x2="57.1022225211335" y2="52.7764571353128"/>
    <line x1="57.1022225211335" y1="52.7764571353128" x2="57.0000000000007" y2="52.0000000000052"/>
    <line x1="57.0000000000007" y1="52.0000000000052" x2="57.1022225211336" y2="51.2235428646975"/>
    <line x1="57.1022225211336" y1="51.2235428646975" x2="57.4019237886473" y2="50.5000000000052"/>
    <line x1="57.4019237886473" y1="50.5000000000052" x2="57.8786796564415" y2="49.8786796564456"/>
    <line x1="57.8786796564415" y1="49.8786796564456" x2="58.5000000000006" y2="49.4019237886518"/>
    <line x1="58.5000000000006" y1="49.4019237886518" x2="59.2235428646932" y2="49.1022225211374"/>
    <line x1="59.2235428646932" y1="49.1022225211374" x2="60.0000000000006" y2="49.0000000000053"/>
    <line x1="60.0000000000006" y1="49.0000000000053" x2="60.7764571353082" y2="49.1022225211379"/>
    <line x1="60.7764571353082" y1="49.1022225211379" x2="61.5000000000007" y2="49.4019237886516"/>
    <line x1="62.8977774788717" y1="266.223542864697" x2="63.0000000000045" y2="267.000000000005"/>
    <line x1="63.0000000000045" y1="267.000000000005" x2="62.8977774788717" y2="267.776457135313"/>
    <line x1="62.8977774788717" y1="267.776457135313" x2="62.5980762113579" y2="268.500000000005"/>
    <line x1="62.5980762113579" y1="268.500000000005" x2="62.1213203435642" y2="269.121320343564"/>
    <line x1="62.1213203435642" y1="269.121320343564" x2="61.5000000000045" y2="269.598076211358"/>
    <line x1="61.5000000000045" y1="269.598076211358" x2="60.7764571353121" y2="269.897777478872"/>
    <line x1="60.7764571353121" y1="269.897777478872" x2="60.0000000000046" y2="270.000000000005"/>
    <line x1="60.0000000000046" y1="270.000000000005" x2="59.223542864697" y2="269.897777478872"/>
    <line x1="59.223542864697" y1="269.897777478872" x2="58.5000000000045" y2="269.598076211358"/>
    <line x1="58.5000000000045" y1="269.598076211358" x2="57.8786796564449" y2="269.121320343565"/>
    <line x1="57.8786796564449" y1="269.121320343565" x2="57.4019237886513" y2="268.500000000005"/>
    <line x1="57.4019237886513" y1="268.500000000005" x2="57.1022225211373" y2="267.776457135313"/>
    <line x1="57.1022225211373" y1="267.776457135313" x2="57.0000000000045" y2="267.000000000005"/>
    <line x1="57.0000000000045" y1="267.000000000005" x2="57.1022225211373" y2="266.223542864697"/>
    <line x1="57.1022225211373" y1="266.223542864697" x2="57.4019237886511" y2="265.500000000005"/>
    <line x1="57.4019237886511" y1="265.500000000005" x2="57.8786796564448" y2="264.878679656445"/>
    <line x1="57.8786796564448" y1="264.878679656445" x2="58.5000000000049" y2="264.401923788652"/>
    <line x1="58.5000000000049" y1="264.401923788652" x2="59.2235428646969" y2="264.102222521138"/>
    <line x1="59.2235428646969" y1="264.102222521138" x2="60.0000000000045" y2="264.000000000005"/>
    <line x1="60.0000000000045" y1="264.000000000005" x2="60.7764571353121" y2="264.102222521138"/>
    <line x1="60.7764571353121" y1="264.102222521138" x2="61.5000000000049" y2="264.401923788652"/>
    <line x1="61.5000000000049" y1="264.401923788652" x2="62.1213203435641" y2="264.878679656445"/>
    <line x1="62.1213203435641" y1="264.878679656445" x2="62.5980762113578" y2="265.500000000005"/>
    <line x1="62.5980762113578" y1="265.500000000005" x2="62.8977774788717" y2="266.223542864697"/>
    <line x1="61.5000000000059" y1="339.401923788651" x2="62.1213203435656" y2="339.878679656445"/>
    <line x1="62.1213203435656" y1="339.878679656445" x2="62.5980762113592" y2="340.500000000005"/>
    <line x1="62.5980762113592" y1="340.500000000005" x2="62.8977774788731" y2="341.223542864697"/>
    <line x1="62.8977774788731" y1="341.223542864697" x2="63.0000000000059" y2="342.000000000005"/>
    <line x1="63.0000000000059" y1="342.000000000005" x2="62.8977774788731" y2="342.776457135312"/>
    <line x1="62.8977774788731" y1="342.776457135312" x2="62.5980762113597" y2="343.500000000005"/>
    <line x1="62.5980762113597" y1="343.500000000005" x2="62.1213203435656" y2="344.121320343564"/>
    <line x1="62.1213203435656" y1="344.121320343564" x2="61.500000000006" y2="344.598076211358"/>
    <line x1="61.500000000006" y1="344.598076211358" x2="60.7764571353135" y2="344.897777478872"/>
    <line x1="60.7764571353135" y1="344.897777478872" x2="60.000000000006" y2="345.000000000005"/>
    <line x1="60.000000000006" y1="345.000000000005" x2="59.2235428646984" y2="344.897777478871"/>
    <line x1="59.2235428646984" y1="344.897777478871" x2="58.500000000006" y2="344.598076211358"/>
    <line x1="58.500000000006" y1="344.598076211358" x2="57.8786796564463" y2="344.121320343565"/>
    <line x1="57.8786796564463" y1="344.121320343565" x2="57.401923788653" y2="343.500000000005"/>
    <line x1="57.401923788653" y1="343.500000000005" x2="57.1022225211387" y2="342.776457135312"/>
    <line x1="57.1022225211387" y1="342.776457135312" x2="57.0000000000059" y2="342.000000000004"/>
    <line x1="57.0000000000059" y1="342.000000000004" x2="57.1022225211386" y2="341.223542864697"/>
    <line x1="57.1022225211386" y1="341.223542864697" x2="57.4019237886526" y2="340.500000000005"/>
    <line x1="57.4019237886526" y1="340.500000000005" x2="57.8786796564463" y2="339.878679656445"/>
    <line x1="57.8786796564463" y1="339.878679656445" x2="58.5000000000058" y2="339.401923788652"/>
    <line x1="58.5000000000058" y1="339.401923788652" x2="59.2235428646983" y2="339.102222521137"/>
    <line x1="59.2235428646983" y1="339.102222521137" x2="60.0000000000059" y2="339.000000000004"/>
    <line x1="60.0000000000059" y1="339.000000000004" x2="60.7764571353134" y2="339.102222521137"/>
    <line x1="60.7764571353134" y1="339.102222521137" x2="61.5000000000059" y2="339.401923788651"/>
    <line x1="57.8786796564424" y1="124.878679656445" x2="58.5000000000019" y2="124.401923788652"/>
    <line x1="58.5000000000019" y1="124.401923788652" x2="59.2235428646944" y2="124.102222521138"/>
    <line x1="59.2235428646944" y1="124.102222521138" x2="60.000000000002" y2="124.000000000005"/>
    <line x1="60.000000000002" y1="124.000000000005" x2="60.7764571353095" y2="124.102222521138"/>
    <line x1="60.7764571353095" y1="124.102222521138" x2="61.500000000002" y2="124.401923788652"/>
    <line x1="61.500000000002" y1="124.401923788652" x2="62.1213203435616" y2="124.878679656446"/>
    <line x1="62.1213203435616" y1="124.878679656446" x2="62.5980762113553" y2="125.500000000005"/>
    <line x1="62.5980762113553" y1="125.500000000005" x2="62.8977774788693" y2="126.223542864698"/>
    <line x1="62.8977774788693" y1="126.223542864698" x2="63.0000000000022" y2="127.000000000005"/>
    <line x1="63.0000000000022" y1="127.000000000005" x2="62.8977774788693" y2="127.776457135313"/>
    <line x1="62.8977774788693" y1="127.776457135313" x2="62.5980762113554" y2="128.500000000005"/>
    <line x1="62.5980762113554" y1="128.500000000005" x2="62.1213203435618" y2="129.121320343565"/>
    <line x1="62.1213203435618" y1="129.121320343565" x2="61.500000000002" y2="129.598076211358"/>
    <line x1="61.500000000002" y1="129.598076211358" x2="60.7764571353097" y2="129.897777478872"/>
    <line x1="60.7764571353097" y1="129.897777478872" x2="60.000000000002" y2="130.000000000005"/>
    <line x1="60.000000000002" y1="130.000000000005" x2="59.2235428646944" y2="129.897777478872"/>
    <line x1="59.2235428646944" y1="129.897777478872" x2="58.5000000000021" y2="129.598076211358"/>
    <line x1="58.5000000000021" y1="129.598076211358" x2="57.8786796564424" y2="129.121320343565"/>
    <line x1="57.8786796564424" y1="129.121320343565" x2="57.4019237886488" y2="128.500000000005"/>
    <line x1="57.4019237886488" y1="128.500000000005" x2="57.1022225211349" y2="127.776457135313"/>
    <line x1="57.1022225211349" y1="127.776457135313" x2="57.0000000000021" y2="127.000000000005"/>
    <line x1="57.0000000000021" y1="127.000000000005" x2="57.1022225211349" y2="126.223542864698"/>
    <line x1="57.1022225211349" y1="126.223542864698" x2="57.4019237886487" y2="125.500000000005"/>
    <line x1="57.4019237886487" y1="125.500000000005" x2="57.8786796564424" y2="124.878679656445"/>
    <line x1="159.368629150104" y1="148.8686291501" x2="159.700000000002" y2="148.614359353944"/>
    <line x1="159.700000000002" y1="148.614359353944" x2="160.085889527838" y2="148.454518677936"/>
    <line x1="160.085889527838" y1="148.454518677936" x2="160.500000000002" y2="148.399999999999"/>
    <line x1="160.500000000002" y1="148.399999999999" x2="160.914110472166" y2="148.454518677936"/>
    <line x1="160.914110472166" y1="148.454518677936" x2="161.300000000002" y2="148.614359353944"/>
    <line x1="161.300000000002" y1="148.614359353944" x2="161.631370849901" y2="148.868629150101"/>
    <line x1="161.631370849901" y1="148.868629150101" x2="161.885640646058" y2="149.199999999999"/>
    <line x1="161.885640646058" y1="149.199999999999" x2="162.045481322065" y2="149.585889527835"/>
    <line x1="162.045481322065" y1="149.585889527835" x2="162.100000000002" y2="149.999999999999"/>
    <line x1="162.100000000002" y1="149.999999999999" x2="162.045481322065" y2="150.414110472163"/>
    <line x1="162.045481322065" y1="150.414110472163" x2="161.885640646057" y2="150.799999999999"/>
    <line x1="161.885640646057" y1="150.799999999999" x2="161.6313708499" y2="151.131370849897"/>
    <line x1="161.6313708499" y1="151.131370849897" x2="161.300000000002" y2="151.385640646054"/>
    <line x1="161.300000000002" y1="151.385640646054" x2="160.914110472166" y2="151.545481322062"/>
    <line x1="160.914110472166" y1="151.545481322062" x2="160.500000000002" y2="151.599999999999"/>
    <line x1="160.500000000002" y1="151.599999999999" x2="160.085889527838" y2="151.545481322061"/>
    <line x1="160.085889527838" y1="151.545481322061" x2="159.700000000002" y2="151.385640646054"/>
    <line x1="159.700000000002" y1="151.385640646054" x2="159.368629150103" y2="151.131370849897"/>
    <line x1="159.368629150103" y1="151.131370849897" x2="159.114359353947" y2="150.799999999999"/>
    <line x1="159.114359353947" y1="150.799999999999" x2="158.95451867794" y2="150.414110472163"/>
    <line x1="158.95451867794" y1="150.414110472163" x2="158.900000000002" y2="149.999999999999"/>
    <line x1="158.900000000002" y1="149.999999999999" x2="158.95451867794" y2="149.585889527835"/>
    <line x1="158.95451867794" y1="149.585889527835" x2="159.114359353947" y2="149.199999999999"/>
    <line x1="159.114359353947" y1="149.199999999999" x2="159.368629150104" y2="148.8686291501"/>
    <line x1="160.500000000004" y1="241.700000000001" x2="160.914110472168" y2="241.754518677938"/>
    <line x1="160.914110472168" y1="241.754518677938" x2="161.300000000004" y2="241.914359353945"/>
    <line x1="161.300000000004" y1="241.914359353945" x2="161.631370849903" y2="242.168629150102"/>
    <line x1="161.631370849903" y1="242.168629150102" x2="161.885640646059" y2="242.500000000001"/>
    <line x1="161.885640646059" y1="242.500000000001" x2="162.045481322066" y2="242.885889527836"/>
    <line x1="162.045481322066" y1="242.885889527836" x2="162.100000000003" y2="243.300000000001"/>
    <line x1="162.100000000003" y1="243.300000000001" x2="162.045481322066" y2="243.714110472165"/>
    <line x1="162.045481322066" y1="243.714110472165" x2="161.885640646059" y2="244.100000000001"/>
    <line x1="161.885640646059" y1="244.100000000001" x2="161.631370849903" y2="244.431370849899"/>
    <line x1="161.631370849903" y1="244.431370849899" x2="161.300000000004" y2="244.685640646056"/>
    <line x1="161.300000000004" y1="244.685640646056" x2="160.914110472168" y2="244.845481322063"/>
    <line x1="160.914110472168" y1="244.845481322063" x2="160.500000000004" y2="244.900000000001"/>
    <line x1="160.500000000004" y1="244.900000000001" x2="160.08588952784" y2="244.845481322063"/>
    <line x1="160.08588952784" y1="244.845481322063" x2="159.700000000004" y2="244.685640646056"/>
    <line x1="159.700000000004" y1="244.685640646056" x2="159.368629150105" y2="244.431370849899"/>
    <line x1="159.368629150105" y1="244.431370849899" x2="159.114359353949" y2="244.100000000001"/>
    <line x1="159.114359353949" y1="244.100000000001" x2="158.954518677941" y2="243.714110472165"/>
    <line x1="158.954518677941" y1="243.714110472165" x2="158.900000000003" y2="243.300000000001"/>
    <line x1="158.900000000003" y1="243.300000000001" x2="158.954518677941" y2="242.885889527837"/>
    <line x1="158.954518677941" y1="242.885889527837" x2="159.114359353949" y2="242.500000000001"/>
    <line x1="159.114359353949" y1="242.500000000001" x2="159.368629150106" y2="242.168629150102"/>
    <line x1="159.368629150106" y1="242.168629150102" x2="159.700000000004" y2="241.914359353945"/>
    <line x1="159.700000000004" y1="241.914359353945" x2="160.08588952784" y2="241.754518677938"/>
    <line x1="160.08588952784" y1="241.754518677938" x2="160.500000000004" y2="241.700000000001"/>
    <line x1="88.6858895278395" y1="148.454518677938" x2="89.1000000000035" y2="148.400000000001"/>
    <line x1="89.1000000000035" y1="148.400000000001" x2="89.5141104721675" y2="148.454518677938"/>
    <line x1="89.5141104721675" y1="148.454518677938" x2="89.9000000000036" y2="148.614359353945"/>
    <line x1="89.9000000000036" y1="148.614359353945" x2="90.2313708499019" y2="148.868629150102"/>
    <line x1="90.2313708499019" y1="148.868629150102" x2="90.4856406460586" y2="149.200000000001"/>
    <line x1="90.4856406460586" y1="149.200000000001" x2="90.645481322066" y2="149.585889527837"/>
    <line x1="90.645481322066" y1="149.585889527837" x2="90.7000000000036" y2="150.000000000001"/>
    <line x1="90.7000000000036" y1="150.000000000001" x2="90.645481322066" y2="150.414110472165"/>
    <line x1="90.645481322066" y1="150.414110472165" x2="90.4856406460586" y2="150.800000000001"/>
    <line x1="90.4856406460586" y1="150.800000000001" x2="90.2313708499019" y2="151.131370849899"/>
    <line x1="90.2313708499019" y1="151.131370849899" x2="89.9000000000034" y2="151.385640646056"/>
    <line x1="89.9000000000034" y1="151.385640646056" x2="89.5141104721675" y2="151.545481322063"/>
    <line x1="89.5141104721675" y1="151.545481322063" x2="89.1000000000036" y2="151.600000000001"/>
    <line x1="89.1000000000036" y1="151.600000000001" x2="88.6858895278397" y2="151.545481322063"/>
    <line x1="88.6858895278397" y1="151.545481322063" x2="88.3000000000035" y2="151.385640646056"/>
    <line x1="88.3000000000035" y1="151.385640646056" x2="87.9686291501051" y2="151.131370849899"/>
    <line x1="87.9686291501051" y1="151.131370849899" x2="87.7143593539486" y2="150.800000000001"/>
    <line x1="87.7143593539486" y1="150.800000000001" x2="87.5545186779411" y2="150.414110472165"/>
    <line x1="87.5545186779411" y1="150.414110472165" x2="87.5000000000037" y2="150.000000000001"/>
    <line x1="87.5000000000037" y1="150.000000000001" x2="87.554518677941" y2="149.585889527837"/>
    <line x1="87.554518677941" y1="149.585889527837" x2="87.7143593539485" y2="149.200000000001"/>
    <line x1="87.7143593539485" y1="149.200000000001" x2="87.968629150105" y2="148.868629150102"/>
    <line x1="87.968629150105" y1="148.868629150102" x2="88.3000000000035" y2="148.614359353946"/>
    <line x1="88.3000000000035" y1="148.614359353946" x2="88.6858895278395" y2="148.454518677938"/>
    <line x1="89.5141104721687" y1="241.754518677941" x2="89.9000000000048" y2="241.914359353948"/>
    <line x1="89.9000000000048" y1="241.914359353948" x2="90.2313708499032" y2="242.168629150105"/>
    <line x1="90.2313708499032" y1="242.168629150105" x2="90.4856406460598" y2="242.500000000004"/>
    <line x1="90.4856406460598" y1="242.500000000004" x2="90.6454813220673" y2="242.885889527839"/>
    <line x1="90.6454813220673" y1="242.885889527839" x2="90.7000000000047" y2="243.300000000003"/>
    <line x1="90.7000000000047" y1="243.300000000003" x2="90.6454813220673" y2="243.714110472168"/>
    <line x1="90.6454813220673" y1="243.714110472168" x2="90.4856406460599" y2="244.100000000003"/>
    <line x1="90.4856406460599" y1="244.100000000003" x2="90.2313708499033" y2="244.431370849902"/>
    <line x1="90.2313708499033" y1="244.431370849902" x2="89.9000000000049" y2="244.685640646059"/>
    <line x1="89.9000000000049" y1="244.685640646059" x2="89.5141104721689" y2="244.845481322066"/>
    <line x1="89.5141104721689" y1="244.845481322066" x2="89.1000000000049" y2="244.900000000004"/>
    <line x1="89.1000000000049" y1="244.900000000004" x2="88.6858895278409" y2="244.845481322066"/>
    <line x1="88.6858895278409" y1="244.845481322066" x2="88.3000000000048" y2="244.685640646059"/>
    <line x1="88.3000000000048" y1="244.685640646059" x2="87.9686291501063" y2="244.431370849902"/>
    <line x1="87.9686291501063" y1="244.431370849902" x2="87.7143593539498" y2="244.100000000004"/>
    <line x1="87.7143593539498" y1="244.100000000004" x2="87.5545186779423" y2="243.714110472168"/>
    <line x1="87.5545186779423" y1="243.714110472168" x2="87.5000000000047" y2="243.300000000004"/>
    <line x1="87.5000000000047" y1="243.300000000004" x2="87.5545186779422" y2="242.88588952784"/>
    <line x1="87.5545186779422" y1="242.88588952784" x2="87.7143593539498" y2="242.500000000004"/>
    <line x1="87.7143593539498" y1="242.500000000004" x2="87.9686291501063" y2="242.168629150105"/>
    <line x1="87.9686291501063" y1="242.168629150105" x2="88.3000000000047" y2="241.914359353948"/>
    <line x1="88.3000000000047" y1="241.914359353948" x2="88.6858895278406" y2="241.754518677941"/>
    <line x1="88.6858895278406" y1="241.754518677941" x2="89.1000000000047" y2="241.700000000004"/>
    <line x1="89.1000000000047" y1="241.700000000004" x2="89.5141104721687" y2="241.754518677941"/>
  </g>
</svg>
