<?xml version="1.0" standalone="no"?>
<!DOCTYPE svg PUBLIC "-//W3C//DTD SVG 1.1//EN" "http://www.w3.org/Graphics/SVG/1.1/DTD/svg11.dtd">
<svg width="403.324789760008mm" height="384.0mm"
 viewBox="0 0 403.324789760008 384.0"
 xmlns="http://www.w3.org/2000/svg" version="1.1"
 xmlns:xlink="http://www.w3.org/1999/xlink">
<desc>Output from Flights of Ideas SVG Sketchup Plugin</desc>

  <g id="face0" fill="none" stroke="rgb(0,0,255)" stroke-width="1" stroke-miterlimit="4" stroke-dasharray="none" stroke-linejoin="round" stroke-linecap="round">
    <line x1="357.130104159376" y1="127.479909578198" x2="384.295560800818" y2="97.6142244265466"/>
    <line x1="384.295560800818" y1="97.6142244265466" x2="385.703315735297" y2="95.3555513070564"/>
    <line x1="385.703315735297" y1="95.3555513070564" x2="386.999993099609" y2="93.0313297106631"/>
    <line x1="386.999993099609" y1="93.0313297106631" x2="388.182547735623" y2="90.6470179128688"/>
    <line x1="388.182547735623" y1="90.6470179128688" x2="389.248202494632" y2="88.2082153069041"/>
    <line x1="389.248202494632" y1="88.2082153069041" x2="390.194454759299" y2="85.7206492539374"/>
    <line x1="390.194454759299" y1="85.7206492539374" x2="391.019082320879" y2="83.1901616327583"/>
    <line x1="391.019082320879" y1="83.1901616327583" x2="391.720148597928" y2="80.6226951205242"/>
    <line x1="391.720148597928" y1="80.6226951205242" x2="392.296007184229" y2="78.02427923679"/>
    <line x1="392.296007184229" y1="78.02427923679" x2="392.745305715267" y2="75.4010161835934"/>
    <line x1="392.745305715267" y1="75.4010161835934" x2="393.06698904416" y2="72.7590665148504"/>
    <line x1="393.06698904416" y1="72.7590665148504" x2="393.260301719608" y2="70.1046346687164"/>
    <line x1="393.260301719608" y1="70.1046346687164" x2="393.324789760008" y2="67.4439543968867"/>
    <line x1="393.324789760008" y1="67.4439543968867" x2="393.324789760008" y2="10.0"/>
    <line x1="393.324789760008" y1="10.0" x2="10.0000000000003" y2="10.0000000000001"/>
    <line x1="10.0000000000003" y1="10.0000000000001" x2="10.0000000000004" y2="25.0"/>
    <line x1="10.0000000000004" y1="25.0" x2="11.3125909701303" y2="25.0653927034531"/>
    <line x1="11.3125909701303" y1="25.0653927034531" x2="12.6047389293074" y2="25.3052362193658"/>
    <line x1="12.6047389293074" y1="25.3052362193658" x2="13.8533633289828" y2="25.7152464254176"/>
    <line x1="13.8533633289828" y1="25.7152464254176" x2="15.0361610452205" y2="26.2880996553058"/>
    <line x1="15.0361610452205" y1="26.2880996553058" x2="16.1320047605811" y2="27.0135635152159"/>
    <line x1="16.1320047605811" y1="27.0135635152159" x2="17.1213203435601" y2="27.8786796564403"/>
    <line x1="17.1213203435601" y1="27.8786796564403" x2="17.9864364847836" y2="28.867995239419"/>
    <line x1="17.9864364847836" y1="28.867995239419" x2="18.7119003446948" y2="29.9638389547789"/>
    <line x1="18.7119003446948" y1="29.9638389547789" x2="19.2847535745829" y2="31.1466366710176"/>
    <line x1="19.2847535745829" y1="31.1466366710176" x2="19.6947637806345" y2="32.3952610706932"/>
    <line x1="19.6947637806345" y1="32.3952610706932" x2="19.9346072965472" y2="33.68740902987"/>
    <line x1="19.9346072965472" y1="33.68740902987" x2="20.0000000000005" y2="34.9999999999999"/>
    <line x1="20.0000000000005" y1="34.9999999999999" x2="20.0000000000005" y2="349.0"/>
    <line x1="20.0000000000005" y1="349.0" x2="19.9346072965473" y2="350.312590970129"/>
    <line x1="19.9346072965473" y1="350.312590970129" x2="19.6947637806346" y2="351.604738929306"/>
    <line x1="19.6947637806346" y1="351.604738929306" x2="19.2847535745829" y2="352.853363328982"/>
    <line x1="19.2847535745829" y1="352.853363328982" x2="18.7119003446944" y2="354.03616104522"/>
    <line x1="18.7119003446944" y1="354.03616104522" x2="17.986436484784" y2="355.13200476058"/>
    <line x1="17.986436484784" y1="355.13200476058" x2="17.1213203435601" y2="356.121320343559"/>
    <line x1="17.1213203435601" y1="356.121320343559" x2="16.1320047605811" y2="356.986436484783"/>
    <line x1="16.1320047605811" y1="356.986436484783" x2="15.0361610452209" y2="357.711900344694"/>
    <line x1="15.0361610452209" y1="357.711900344694" x2="13.8533633289828" y2="358.284753574582"/>
    <line x1="13.8533633289828" y1="358.284753574582" x2="12.6047389293075" y2="358.694763780634"/>
    <line x1="12.6047389293075" y1="358.694763780634" x2="11.3125909701297" y2="358.934607296546"/>
    <line x1="11.3125909701297" y1="358.934607296546" x2="10.0" y2="358.999999999999"/>
    <line x1="10.0" y1="358.999999999999" x2="10.0000000000004" y2="374.0"/>
    <line x1="10.0000000000004" y1="374.0" x2="346.944612582421" y2="374.0"/>
    <line x1="346.944612582421" y1="374.0" x2="346.944612582421" y2="159.888078140161"/>
    <line x1="346.944612582421" y1="159.888078140161" x2="347.017556951801" y2="157.014160776267"/>
    <line x1="347.017556951801" y1="157.014160776267" x2="347.236202211728" y2="154.147644398182"/>
    <line x1="347.236202211728" y1="154.147644398182" x2="347.599985301311" y2="151.295910932507"/>
    <line x1="347.599985301311" y1="151.295910932507" x2="348.107969396997" y2="148.466304236507"/>
    <line x1="348.107969396997" y1="148.466304236507" x2="348.758846325093" y2="145.666111186021"/>
    <line x1="348.758846325093" y1="145.666111186021" x2="349.550939930619" y2="142.902542910113"/>
    <line x1="349.550939930619" y1="142.902542910113" x2="350.482210393776" y2="140.182716220787"/>
    <line x1="350.482210393776" y1="140.182716220787" x2="351.550259482949" y2="137.51363528559"/>
    <line x1="351.550259482949" y1="137.51363528559" x2="352.752336730693" y2="134.902173590299"/>
    <line x1="352.752336730693" y1="134.902173590299" x2="354.085346516803" y2="132.355056238143"/>
    <line x1="354.085346516803" y1="132.355056238143" x2="355.545856040243" y2="129.87884263115"/>
    <line x1="355.545856040243" y1="129.87884263115" x2="357.130104159376" y2="127.479909578198"/>
    <line x1="310.0" y1="323.999999999999" x2="309.914448613739" y2="325.305261922199"/>
    <line x1="309.914448613739" y1="325.305261922199" x2="309.659258262891" y2="326.588190451024"/>
    <line x1="309.659258262891" y1="326.588190451024" x2="309.238795325114" y2="327.82683432365"/>
    <line x1="309.238795325114" y1="327.82683432365" x2="308.660254037845" y2="329.0"/>
    <line x1="308.660254037845" y1="329.0" x2="307.933533402913" y2="330.087614290086"/>
    <line x1="307.933533402913" y1="330.087614290086" x2="307.071067811866" y2="331.071067811864"/>
    <line x1="307.071067811866" y1="331.071067811864" x2="306.087614290088" y2="331.933533402912"/>
    <line x1="306.087614290088" y1="331.933533402912" x2="305.000000000001" y2="332.660254037843"/>
    <line x1="305.000000000001" y1="332.660254037843" x2="303.82683432365" y2="333.238795325113"/>
    <line x1="303.82683432365" y1="333.238795325113" x2="302.588190451025" y2="333.65925826289"/>
    <line x1="302.588190451025" y1="333.65925826289" x2="301.3052619222" y2="333.914448613738"/>
    <line x1="301.3052619222" y1="333.914448613738" x2="300.0" y2="333.999999999999"/>
    <line x1="300.0" y1="333.999999999999" x2="136.0" y2="333.999999999999"/>
    <line x1="136.0" y1="333.999999999999" x2="134.694738077799" y2="333.914448613738"/>
    <line x1="134.694738077799" y1="333.914448613738" x2="133.411809548975" y2="333.65925826289"/>
    <line x1="133.411809548975" y1="333.65925826289" x2="132.173165676348" y2="333.238795325113"/>
    <line x1="132.173165676348" y1="333.238795325113" x2="131.0" y2="332.660254037843"/>
    <line x1="131.0" y1="332.660254037843" x2="129.912385709913" y2="331.933533402912"/>
    <line x1="129.912385709913" y1="331.933533402912" x2="128.928932188135" y2="331.071067811864"/>
    <line x1="128.928932188135" y1="331.071067811864" x2="128.066466597088" y2="330.087614290087"/>
    <line x1="128.066466597088" y1="330.087614290087" x2="127.339745962155" y2="329.0"/>
    <line x1="127.339745962155" y1="329.0" x2="126.761204674887" y2="327.82683432365"/>
    <line x1="126.761204674887" y1="327.82683432365" x2="126.340741737109" y2="326.588190451024"/>
    <line x1="126.340741737109" y1="326.588190451024" x2="126.085551386262" y2="325.3052619222"/>
    <line x1="126.085551386262" y1="325.3052619222" x2="126.0" y2="323.999999999999"/>
    <line x1="126.0" y1="323.999999999999" x2="126.000000000001" y2="59.9999999999995"/>
    <line x1="126.000000000001" y1="59.9999999999995" x2="126.085551386262" y2="58.6947380777988"/>
    <line x1="126.085551386262" y1="58.6947380777988" x2="126.34074173711" y2="57.4118095489744"/>
    <line x1="126.34074173711" y1="57.4118095489744" x2="126.761204674887" y2="56.1731656763491"/>
    <line x1="126.761204674887" y1="56.1731656763491" x2="127.339745962156" y2="55.0000000000001"/>
    <line x1="127.339745962156" y1="55.0000000000001" x2="128.066466597088" y2="53.9123857099122"/>
    <line x1="128.066466597088" y1="53.9123857099122" x2="128.928932188134" y2="52.9289321881339"/>
    <line x1="128.928932188134" y1="52.9289321881339" x2="129.912385709913" y2="52.0664665970878"/>
    <line x1="129.912385709913" y1="52.0664665970878" x2="131.0" y2="51.339745962155"/>
    <line x1="131.0" y1="51.339745962155" x2="132.173165676349" y2="50.7612046748874"/>
    <line x1="132.173165676349" y1="50.7612046748874" x2="133.411809548975" y2="50.3407417371087"/>
    <line x1="133.411809548975" y1="50.3407417371087" x2="134.694738077799" y2="50.0855513862621"/>
    <line x1="134.694738077799" y1="50.0855513862621" x2="136.0" y2="49.9999999999994"/>
    <line x1="136.0" y1="49.9999999999994" x2="300.0" y2="49.9999999999992"/>
    <line x1="300.0" y1="49.9999999999992" x2="301.3052619222" y2="50.0855513862612"/>
    <line x1="301.3052619222" y1="50.0855513862612" x2="302.588190451025" y2="50.3407417371085"/>
    <line x1="302.588190451025" y1="50.3407417371085" x2="303.826834323651" y2="50.7612046748863"/>
    <line x1="303.826834323651" y1="50.7612046748863" x2="305.000000000001" y2="51.3397459621548"/>
    <line x1="305.000000000001" y1="51.3397459621548" x2="306.087614290088" y2="52.0664665970877"/>
    <line x1="306.087614290088" y1="52.0664665970877" x2="307.071067811866" y2="52.9289321881338"/>
    <line x1="307.071067811866" y1="52.9289321881338" x2="307.933533402914" y2="53.9123857099128"/>
    <line x1="307.933533402914" y1="53.9123857099128" x2="308.660254037845" y2="54.9999999999998"/>
    <line x1="308.660254037845" y1="54.9999999999998" x2="309.238795325113" y2="56.1731656763483"/>
    <line x1="309.238795325113" y1="56.1731656763483" x2="309.659258262891" y2="57.411809548974"/>
    <line x1="309.659258262891" y1="57.411809548974" x2="309.914448613739" y2="58.6947380777988"/>
    <line x1="309.914448613739" y1="58.6947380777988" x2="310.000000000001" y2="59.9999999999992"/>
    <line x1="310.000000000001" y1="59.9999999999992" x2="310.0" y2="323.999999999999"/>
    <line x1="323.168155447114" y1="294.897777478867" x2="322.444612582421" y2="294.598076211353"/>
    <line x1="322.444612582421" y1="294.598076211353" x2="321.823292238862" y2="294.121320343559"/>
    <line x1="321.823292238862" y1="294.121320343559" x2="321.346536371068" y2="293.5"/>
    <line x1="321.346536371068" y1="293.5" x2="321.046835103554" y2="292.776457135307"/>
    <line x1="321.046835103554" y1="292.776457135307" x2="320.944612582421" y2="292.0"/>
    <line x1="320.944612582421" y1="292.0" x2="321.046835103554" y2="291.223542864692"/>
    <line x1="321.046835103554" y1="291.223542864692" x2="321.346536371068" y2="290.5"/>
    <line x1="321.346536371068" y1="290.5" x2="321.823292238862" y2="289.87867965644"/>
    <line x1="321.823292238862" y1="289.87867965644" x2="322.444612582421" y2="289.401923788646"/>
    <line x1="322.444612582421" y1="289.401923788646" x2="323.168155447114" y2="289.102222521133"/>
    <line x1="323.168155447114" y1="289.102222521133" x2="323.944612582421" y2="289.0"/>
    <line x1="323.944612582421" y1="289.0" x2="324.721069717729" y2="289.102222521133"/>
    <line x1="324.721069717729" y1="289.102222521133" x2="325.444612582421" y2="289.401923788646"/>
    <line x1="325.444612582421" y1="289.401923788646" x2="326.065932925981" y2="289.87867965644"/>
    <line x1="326.065932925981" y1="289.87867965644" x2="326.542688793775" y2="290.5"/>
    <line x1="326.542688793775" y1="290.5" x2="326.842390061289" y2="291.223542864692"/>
    <line x1="326.842390061289" y1="291.223542864692" x2="326.944612582421" y2="292.0"/>
    <line x1="326.944612582421" y1="292.0" x2="326.842390061289" y2="292.776457135307"/>
    <line x1="326.842390061289" y1="292.776457135307" x2="326.542688793775" y2="293.5"/>
    <line x1="326.542688793775" y1="293.5" x2="326.065932925981" y2="294.121320343559"/>
    <line x1="326.065932925981" y1="294.121320343559" x2="325.444612582421" y2="294.598076211353"/>
    <line x1="325.444612582421" y1="294.598076211353" x2="324.721069717729" y2="294.897777478867"/>
    <line x1="324.721069717729" y1="294.897777478867" x2="323.944612582421" y2="295.0"/>
    <line x1="323.944612582421" y1="295.0" x2="323.168155447114" y2="294.897777478867"/>
    <line x1="324.721069717729" y1="194.897777478867" x2="323.944612582421" y2="195.0"/>
    <line x1="323.944612582421" y1="195.0" x2="323.168155447114" y2="194.897777478867"/>
    <line x1="323.168155447114" y1="194.897777478867" x2="322.444612582421" y2="194.598076211353"/>
    <line x1="322.444612582421" y1="194.598076211353" x2="321.823292238862" y2="194.121320343559"/>
    <line x1="321.823292238862" y1="194.121320343559" x2="321.346536371068" y2="193.5"/>
    <line x1="321.346536371068" y1="193.5" x2="321.046835103554" y2="192.776457135307"/>
    <line x1="321.046835103554" y1="192.776457135307" x2="320.944612582421" y2="192.0"/>
    <line x1="320.944612582421" y1="192.0" x2="321.046835103554" y2="191.223542864692"/>
    <line x1="321.046835103554" y1="191.223542864692" x2="321.346536371068" y2="190.5"/>
    <line x1="321.346536371068" y1="190.5" x2="321.823292238862" y2="189.87867965644"/>
    <line x1="321.823292238862" y1="189.87867965644" x2="322.444612582421" y2="189.401923788646"/>
    <line x1="322.444612582421" y1="189.401923788646" x2="323.168155447114" y2="189.102222521132"/>
    <line x1="323.168155447114" y1="189.102222521132" x2="323.944612582421" y2="189.0"/>
    <line x1="323.944612582421" y1="189.0" x2="324.721069717729" y2="189.102222521132"/>
    <line x1="324.721069717729" y1="189.102222521132" x2="325.444612582421" y2="189.401923788646"/>
    <line x1="325.444612582421" y1="189.401923788646" x2="326.065932925981" y2="189.87867965644"/>
    <line x1="326.065932925981" y1="189.87867965644" x2="326.542688793775" y2="190.5"/>
    <line x1="326.542688793775" y1="190.5" x2="326.842390061289" y2="191.223542864692"/>
    <line x1="326.842390061289" y1="191.223542864692" x2="326.944612582421" y2="192.0"/>
    <line x1="326.944612582421" y1="192.0" x2="326.842390061289" y2="192.776457135307"/>
    <line x1="326.842390061289" y1="192.776457135307" x2="326.542688793775" y2="193.5"/>
    <line x1="326.542688793775" y1="193.5" x2="326.065932925981" y2="194.121320343559"/>
    <line x1="326.065932925981" y1="194.121320343559" x2="325.444612582421" y2="194.598076211353"/>
    <line x1="325.444612582421" y1="194.598076211353" x2="324.721069717729" y2="194.897777478867"/>
    <line x1="326.065932925981" y1="89.8786796564401" x2="326.542688793775" y2="90.4999999999997"/>
    <line x1="326.542688793775" y1="90.4999999999997" x2="326.842390061289" y2="91.2235428646922"/>
    <line x1="326.842390061289" y1="91.2235428646922" x2="326.944612582421" y2="91.9999999999997"/>
    <line x1="326.944612582421" y1="91.9999999999997" x2="326.842390061289" y2="92.7764571353074"/>
    <line x1="326.842390061289" y1="92.7764571353074" x2="326.542688793775" y2="93.4999999999998"/>
    <line x1="326.542688793775" y1="93.4999999999998" x2="326.065932925981" y2="94.1213203435594"/>
    <line x1="326.065932925981" y1="94.1213203435594" x2="325.444612582421" y2="94.5980762113531"/>
    <line x1="325.444612582421" y1="94.5980762113531" x2="324.721069717729" y2="94.897777478867"/>
    <line x1="324.721069717729" y1="94.897777478867" x2="323.944612582421" y2="94.9999999999998"/>
    <line x1="323.944612582421" y1="94.9999999999998" x2="323.168155447114" y2="94.897777478867"/>
    <line x1="323.168155447114" y1="94.897777478867" x2="322.444612582421" y2="94.5980762113531"/>
    <line x1="322.444612582421" y1="94.5980762113531" x2="321.823292238862" y2="94.1213203435594"/>
    <line x1="321.823292238862" y1="94.1213203435594" x2="321.346536371068" y2="93.4999999999998"/>
    <line x1="321.346536371068" y1="93.4999999999998" x2="321.046835103554" y2="92.7764571353074"/>
    <line x1="321.046835103554" y1="92.7764571353074" x2="320.944612582421" y2="91.9999999999997"/>
    <line x1="320.944612582421" y1="91.9999999999997" x2="321.046835103554" y2="91.2235428646922"/>
    <line x1="321.046835103554" y1="91.2235428646922" x2="321.346536371068" y2="90.4999999999998"/>
    <line x1="321.346536371068" y1="90.4999999999998" x2="321.823292238862" y2="89.8786796564401"/>
    <line x1="321.823292238862" y1="89.8786796564401" x2="322.444612582421" y2="89.4019237886465"/>
    <line x1="322.444612582421" y1="89.4019237886465" x2="323.168155447114" y2="89.1022225211326"/>
    <line x1="323.168155447114" y1="89.1022225211326" x2="323.944612582421" y2="88.9999999999998"/>
    <line x1="323.944612582421" y1="88.9999999999998" x2="324.721069717729" y2="89.1022225211325"/>
    <line x1="324.721069717729" y1="89.1022225211325" x2="325.444612582421" y2="89.4019237886465"/>
    <line x1="325.444612582421" y1="89.4019237886465" x2="326.065932925981" y2="89.8786796564401"/>
    <line x1="61.5000000000006" y1="89.4019237886467" x2="62.1213203435602" y2="89.8786796564402"/>
    <line x1="62.1213203435602" y1="89.8786796564402" x2="62.5980762113539" y2="90.5000000000001"/>
    <line x1="62.5980762113539" y1="90.5000000000001" x2="62.8977774788678" y2="91.2235428646925"/>
    <line x1="62.8977774788678" y1="91.2235428646925" x2="63.0000000000006" y2="91.9999999999998"/>
    <line x1="63.0000000000006" y1="91.9999999999998" x2="62.8977774788678" y2="92.7764571353076"/>
    <line x1="62.8977774788678" y1="92.7764571353076" x2="62.5980762113539" y2="93.5000000000003"/>
    <line x1="62.5980762113539" y1="93.5000000000003" x2="62.1213203435602" y2="94.1213203435596"/>
    <line x1="62.1213203435602" y1="94.1213203435596" x2="61.5000000000006" y2="94.5980762113529"/>
    <line x1="61.5000000000006" y1="94.5980762113529" x2="60.7764571353082" y2="94.897777478867"/>
    <line x1="60.7764571353082" y1="94.897777478867" x2="60.0000000000006" y2="94.9999999999998"/>
    <line x1="60.0000000000006" y1="94.9999999999998" x2="59.2235428646931" y2="94.8977774788668"/>
    <line x1="59.2235428646931" y1="94.8977774788668" x2="58.5000000000006" y2="94.5980762113534"/>
    <line x1="58.5000000000006" y1="94.5980762113534" x2="57.878679656441" y2="94.1213203435596"/>
    <line x1="57.878679656441" y1="94.1213203435596" x2="57.4019237886473" y2="93.4999999999999"/>
    <line x1="57.4019237886473" y1="93.4999999999999" x2="57.1022225211334" y2="92.7764571353074"/>
    <line x1="57.1022225211334" y1="92.7764571353074" x2="57.0000000000006" y2="92.0000000000003"/>
    <line x1="57.0000000000006" y1="92.0000000000003" x2="57.1022225211334" y2="91.2235428646925"/>
    <line x1="57.1022225211334" y1="91.2235428646925" x2="57.4019237886473" y2="90.4999999999996"/>
    <line x1="57.4019237886473" y1="90.4999999999996" x2="57.878679656441" y2="89.8786796564404"/>
    <line x1="57.878679656441" y1="89.8786796564404" x2="58.5000000000006" y2="89.4019237886466"/>
    <line x1="58.5000000000006" y1="89.4019237886466" x2="59.2235428646931" y2="89.1022225211326"/>
    <line x1="59.2235428646931" y1="89.1022225211326" x2="60.0000000000006" y2="89.0000000000001"/>
    <line x1="60.0000000000006" y1="89.0000000000001" x2="60.7764571353081" y2="89.1022225211332"/>
    <line x1="60.7764571353081" y1="89.1022225211332" x2="61.5000000000006" y2="89.4019237886467"/>
    <line x1="62.1213203435603" y1="194.12132034356" x2="61.5000000000006" y2="194.598076211353"/>
    <line x1="61.5000000000006" y1="194.598076211353" x2="60.7764571353082" y2="194.897777478867"/>
    <line x1="60.7764571353082" y1="194.897777478867" x2="60.0000000000006" y2="195.0"/>
    <line x1="60.0000000000006" y1="195.0" x2="59.2235428646931" y2="194.897777478867"/>
    <line x1="59.2235428646931" y1="194.897777478867" x2="58.5000000000006" y2="194.598076211353"/>
    <line x1="58.5000000000006" y1="194.598076211353" x2="57.878679656441" y2="194.12132034356"/>
    <line x1="57.878679656441" y1="194.12132034356" x2="57.4019237886473" y2="193.5"/>
    <line x1="57.4019237886473" y1="193.5" x2="57.1022225211334" y2="192.776457135308"/>
    <line x1="57.1022225211334" y1="192.776457135308" x2="57.0000000000006" y2="192.0"/>
    <line x1="57.0000000000006" y1="192.0" x2="57.1022225211334" y2="191.223542864692"/>
    <line x1="57.1022225211334" y1="191.223542864692" x2="57.4019237886474" y2="190.5"/>
    <line x1="57.4019237886474" y1="190.5" x2="57.878679656441" y2="189.87867965644"/>
    <line x1="57.878679656441" y1="189.87867965644" x2="58.5000000000006" y2="189.401923788647"/>
    <line x1="58.5000000000006" y1="189.401923788647" x2="59.2235428646931" y2="189.102222521133"/>
    <line x1="59.2235428646931" y1="189.102222521133" x2="60.0000000000006" y2="189.0"/>
    <line x1="60.0000000000006" y1="189.0" x2="60.7764571353082" y2="189.102222521132"/>
    <line x1="60.7764571353082" y1="189.102222521132" x2="61.5000000000006" y2="189.401923788646"/>
    <line x1="61.5000000000006" y1="189.401923788646" x2="62.1213203435603" y2="189.87867965644"/>
    <line x1="62.1213203435603" y1="189.87867965644" x2="62.598076211354" y2="190.5"/>
    <line x1="62.598076211354" y1="190.5" x2="62.8977774788678" y2="191.223542864692"/>
    <line x1="62.8977774788678" y1="191.223542864692" x2="63.0000000000006" y2="192.0"/>
    <line x1="63.0000000000006" y1="192.0" x2="62.8977774788677" y2="192.776457135307"/>
    <line x1="62.8977774788677" y1="192.776457135307" x2="62.5980762113539" y2="193.5"/>
    <line x1="62.5980762113539" y1="193.5" x2="62.1213203435603" y2="194.12132034356"/>
    <line x1="62.1213203435603" y1="289.87867965644" x2="62.598076211354" y2="290.5"/>
    <line x1="62.598076211354" y1="290.5" x2="62.8977774788679" y2="291.223542864692"/>
    <line x1="62.8977774788679" y1="291.223542864692" x2="63.0000000000007" y2="292.0"/>
    <line x1="63.0000000000007" y1="292.0" x2="62.8977774788679" y2="292.776457135307"/>
    <line x1="62.8977774788679" y1="292.776457135307" x2="62.598076211354" y2="293.5"/>
    <line x1="62.598076211354" y1="293.5" x2="62.1213203435602" y2="294.12132034356"/>
    <line x1="62.1213203435602" y1="294.12132034356" x2="61.5000000000007" y2="294.598076211353"/>
    <line x1="61.5000000000007" y1="294.598076211353" x2="60.7764571353082" y2="294.897777478867"/>
    <line x1="60.7764571353082" y1="294.897777478867" x2="60.0000000000006" y2="295.0"/>
    <line x1="60.0000000000006" y1="295.0" x2="59.2235428646931" y2="294.897777478867"/>
    <line x1="59.2235428646931" y1="294.897777478867" x2="58.5000000000006" y2="294.598076211353"/>
    <line x1="58.5000000000006" y1="294.598076211353" x2="57.8786796564409" y2="294.12132034356"/>
    <line x1="57.8786796564409" y1="294.12132034356" x2="57.4019237886473" y2="293.5"/>
    <line x1="57.4019237886473" y1="293.5" x2="57.1022225211334" y2="292.776457135308"/>
    <line x1="57.1022225211334" y1="292.776457135308" x2="57.0000000000006" y2="292.0"/>
    <line x1="57.0000000000006" y1="292.0" x2="57.1022225211334" y2="291.223542864692"/>
    <line x1="57.1022225211334" y1="291.223542864692" x2="57.4019237886473" y2="290.5"/>
    <line x1="57.4019237886473" y1="290.5" x2="57.878679656441" y2="289.87867965644"/>
    <line x1="57.878679656441" y1="289.87867965644" x2="58.5000000000006" y2="289.401923788647"/>
    <line x1="58.5000000000006" y1="289.401923788647" x2="59.2235428646931" y2="289.102222521133"/>
    <line x1="59.2235428646931" y1="289.102222521133" x2="60.0000000000007" y2="289.0"/>
    <line x1="60.0000000000007" y1="289.0" x2="60.7764571353082" y2="289.102222521133"/>
    <line x1="60.7764571353082" y1="289.102222521133" x2="61.5000000000007" y2="289.401923788647"/>
    <line x1="61.5000000000007" y1="289.401923788647" x2="62.1213203435603" y2="289.87867965644"/>
    <line x1="77.4446125824214" y1="19.5980762113535" x2="76.8232922388618" y2="19.1213203435598"/>
    <line x1="76.8232922388618" y1="19.1213203435598" x2="76.346536371068" y2="18.5000000000002"/>
    <line x1="76.346536371068" y1="18.5000000000002" x2="76.0468351035542" y2="17.7764571353076"/>
    <line x1="76.0468351035542" y1="17.7764571353076" x2="75.9446125824214" y2="17.0"/>
    <line x1="75.9446125824214" y1="17.0" x2="76.0468351035542" y2="16.2235428646924"/>
    <line x1="76.0468351035542" y1="16.2235428646924" x2="76.3465363710681" y2="15.4999999999999"/>
    <line x1="76.3465363710681" y1="15.4999999999999" x2="76.8232922388617" y2="14.8786796564404"/>
    <line x1="76.8232922388617" y1="14.8786796564404" x2="77.4446125824214" y2="14.4019237886466"/>
    <line x1="77.4446125824214" y1="14.4019237886466" x2="78.1681554471137" y2="14.1022225211328"/>
    <line x1="78.1681554471137" y1="14.1022225211328" x2="78.9446125824214" y2="13.9999999999999"/>
    <line x1="78.9446125824214" y1="13.9999999999999" x2="79.7210697177289" y2="14.1022225211327"/>
    <line x1="79.7210697177289" y1="14.1022225211327" x2="80.4446125824214" y2="14.4019237886466"/>
    <line x1="80.4446125824214" y1="14.4019237886466" x2="81.065932925981" y2="14.8786796564403"/>
    <line x1="81.065932925981" y1="14.8786796564403" x2="81.5426887937747" y2="15.4999999999998"/>
    <line x1="81.5426887937747" y1="15.4999999999998" x2="81.8423900612885" y2="16.2235428646924"/>
    <line x1="81.8423900612885" y1="16.2235428646924" x2="81.9446125824213" y2="17.0"/>
    <line x1="81.9446125824213" y1="17.0" x2="81.8423900612886" y2="17.7764571353075"/>
    <line x1="81.8423900612886" y1="17.7764571353075" x2="81.5426887937747" y2="18.5000000000001"/>
    <line x1="81.5426887937747" y1="18.5000000000001" x2="81.065932925981" y2="19.1213203435597"/>
    <line x1="81.065932925981" y1="19.1213203435597" x2="80.4446125824214" y2="19.5980762113534"/>
    <line x1="80.4446125824214" y1="19.5980762113534" x2="79.7210697177289" y2="19.8977774788672"/>
    <line x1="79.7210697177289" y1="19.8977774788672" x2="78.9446125824214" y2="20.0000000000002"/>
    <line x1="78.9446125824214" y1="20.0000000000002" x2="78.1681554471138" y2="19.8977774788674"/>
    <line x1="78.1681554471138" y1="19.8977774788674" x2="77.4446125824214" y2="19.5980762113535"/>
    <line x1="177.444612582421" y1="14.4019237886466" x2="178.168155447114" y2="14.1022225211327"/>
    <line x1="178.168155447114" y1="14.1022225211327" x2="178.944612582421" y2="13.9999999999999"/>
    <line x1="178.944612582421" y1="13.9999999999999" x2="179.721069717729" y2="14.1022225211327"/>
    <line x1="179.721069717729" y1="14.1022225211327" x2="180.444612582421" y2="14.4019237886466"/>
    <line x1="180.444612582421" y1="14.4019237886466" x2="181.065932925981" y2="14.8786796564403"/>
    <line x1="181.065932925981" y1="14.8786796564403" x2="181.542688793774" y2="15.4999999999999"/>
    <line x1="181.542688793774" y1="15.4999999999999" x2="181.842390061288" y2="16.2235428646924"/>
    <line x1="181.842390061288" y1="16.2235428646924" x2="181.944612582421" y2="16.9999999999999"/>
    <line x1="181.944612582421" y1="16.9999999999999" x2="181.842390061288" y2="17.7764571353075"/>
    <line x1="181.842390061288" y1="17.7764571353075" x2="181.542688793774" y2="18.5000000000001"/>
    <line x1="181.542688793774" y1="18.5000000000001" x2="181.065932925981" y2="19.1213203435599"/>
    <line x1="181.065932925981" y1="19.1213203435599" x2="180.444612582421" y2="19.5980762113535"/>
    <line x1="180.444612582421" y1="19.5980762113535" x2="179.721069717728" y2="19.8977774788674"/>
    <line x1="179.721069717728" y1="19.8977774788674" x2="178.944612582421" y2="20.0000000000001"/>
    <line x1="178.944612582421" y1="20.0000000000001" x2="178.168155447114" y2="19.8977774788673"/>
    <line x1="178.168155447114" y1="19.8977774788673" x2="177.444612582421" y2="19.5980762113535"/>
    <line x1="177.444612582421" y1="19.5980762113535" x2="176.823292238861" y2="19.1213203435599"/>
    <line x1="176.823292238861" y1="19.1213203435599" x2="176.346536371068" y2="18.5000000000001"/>
    <line x1="176.346536371068" y1="18.5000000000001" x2="176.046835103554" y2="17.7764571353075"/>
    <line x1="176.046835103554" y1="17.7764571353075" x2="175.944612582421" y2="16.9999999999999"/>
    <line x1="175.944612582421" y1="16.9999999999999" x2="176.046835103554" y2="16.2235428646924"/>
    <line x1="176.046835103554" y1="16.2235428646924" x2="176.346536371068" y2="15.5"/>
    <line x1="176.346536371068" y1="15.5" x2="176.823292238861" y2="14.8786796564404"/>
    <line x1="176.823292238861" y1="14.8786796564404" x2="177.444612582421" y2="14.4019237886466"/>
    <line x1="279.721069717727" y1="19.8977774788674" x2="278.944612582419" y2="20.0000000000001"/>
    <line x1="278.944612582419" y1="20.0000000000001" x2="278.168155447112" y2="19.8977774788673"/>
    <line x1="278.168155447112" y1="19.8977774788673" x2="277.444612582419" y2="19.5980762113535"/>
    <line x1="277.444612582419" y1="19.5980762113535" x2="276.823292238859" y2="19.1213203435598"/>
    <line x1="276.823292238859" y1="19.1213203435598" x2="276.346536371066" y2="18.5000000000001"/>
    <line x1="276.346536371066" y1="18.5000000000001" x2="276.046835103552" y2="17.7764571353075"/>
    <line x1="276.046835103552" y1="17.7764571353075" x2="275.944612582419" y2="16.9999999999999"/>
    <line x1="275.944612582419" y1="16.9999999999999" x2="276.046835103552" y2="16.2235428646924"/>
    <line x1="276.046835103552" y1="16.2235428646924" x2="276.346536371066" y2="15.5"/>
    <line x1="276.346536371066" y1="15.5" x2="276.82329223886" y2="14.8786796564403"/>
    <line x1="276.82329223886" y1="14.8786796564403" x2="277.444612582419" y2="14.4019237886467"/>
    <line x1="277.444612582419" y1="14.4019237886467" x2="278.168155447112" y2="14.1022225211327"/>
    <line x1="278.168155447112" y1="14.1022225211327" x2="278.944612582419" y2="14.0"/>
    <line x1="278.944612582419" y1="14.0" x2="279.721069717727" y2="14.1022225211327"/>
    <line x1="279.721069717727" y1="14.1022225211327" x2="280.444612582419" y2="14.4019237886467"/>
    <line x1="280.444612582419" y1="14.4019237886467" x2="281.065932925979" y2="14.8786796564403"/>
    <line x1="281.065932925979" y1="14.8786796564403" x2="281.542688793773" y2="15.4999999999999"/>
    <line x1="281.542688793773" y1="15.4999999999999" x2="281.842390061286" y2="16.2235428646924"/>
    <line x1="281.842390061286" y1="16.2235428646924" x2="281.944612582419" y2="16.9999999999999"/>
    <line x1="281.944612582419" y1="16.9999999999999" x2="281.842390061286" y2="17.7764571353075"/>
    <line x1="281.842390061286" y1="17.7764571353075" x2="281.542688793773" y2="18.5000000000001"/>
    <line x1="281.542688793773" y1="18.5000000000001" x2="281.065932925979" y2="19.1213203435598"/>
    <line x1="281.065932925979" y1="19.1213203435598" x2="280.444612582419" y2="19.5980762113535"/>
    <line x1="280.444612582419" y1="19.5980762113535" x2="279.721069717727" y2="19.8977774788674"/>
    <line x1="76.3465363710681" y1="368.499999999999" x2="76.0468351035541" y2="367.776457135307"/>
    <line x1="76.0468351035541" y1="367.776457135307" x2="75.9446125824214" y2="366.999999999999"/>
    <line x1="75.9446125824214" y1="366.999999999999" x2="76.0468351035541" y2="366.223542864692"/>
    <line x1="76.0468351035541" y1="366.223542864692" x2="76.3465363710681" y2="365.5"/>
    <line x1="76.3465363710681" y1="365.5" x2="76.8232922388617" y2="364.87867965644"/>
    <line x1="76.8232922388617" y1="364.87867965644" x2="77.4446125824214" y2="364.401923788646"/>
    <line x1="77.4446125824214" y1="364.401923788646" x2="78.1681554471137" y2="364.102222521132"/>
    <line x1="78.1681554471137" y1="364.102222521132" x2="78.9446125824213" y2="363.999999999999"/>
    <line x1="78.9446125824213" y1="363.999999999999" x2="79.721069717729" y2="364.102222521133"/>
    <line x1="79.721069717729" y1="364.102222521133" x2="80.4446125824214" y2="364.401923788646"/>
    <line x1="80.4446125824214" y1="364.401923788646" x2="81.065932925981" y2="364.87867965644"/>
    <line x1="81.065932925981" y1="364.87867965644" x2="81.5426887937747" y2="365.499999999999"/>
    <line x1="81.5426887937747" y1="365.499999999999" x2="81.8423900612886" y2="366.223542864692"/>
    <line x1="81.8423900612886" y1="366.223542864692" x2="81.9446125824214" y2="366.999999999999"/>
    <line x1="81.9446125824214" y1="366.999999999999" x2="81.8423900612886" y2="367.776457135307"/>
    <line x1="81.8423900612886" y1="367.776457135307" x2="81.5426887937747" y2="368.499999999999"/>
    <line x1="81.5426887937747" y1="368.499999999999" x2="81.065932925981" y2="369.12132034356"/>
    <line x1="81.065932925981" y1="369.12132034356" x2="80.4446125824215" y2="369.598076211353"/>
    <line x1="80.4446125824215" y1="369.598076211353" x2="79.7210697177288" y2="369.897777478867"/>
    <line x1="79.7210697177288" y1="369.897777478867" x2="78.9446125824214" y2="370.0"/>
    <line x1="78.9446125824214" y1="370.0" x2="78.1681554471139" y2="369.897777478867"/>
    <line x1="78.1681554471139" y1="369.897777478867" x2="77.4446125824214" y2="369.598076211353"/>
    <line x1="77.4446125824214" y1="369.598076211353" x2="76.8232922388618" y2="369.12132034356"/>
    <line x1="76.8232922388618" y1="369.12132034356" x2="76.3465363710681" y2="368.499999999999"/>
    <line x1="180.444612582421" y1="364.401923788646" x2="181.065932925981" y2="364.87867965644"/>
    <line x1="181.065932925981" y1="364.87867965644" x2="181.542688793774" y2="365.499999999999"/>
    <line x1="181.542688793774" y1="365.499999999999" x2="181.842390061288" y2="366.223542864692"/>
    <line x1="181.842390061288" y1="366.223542864692" x2="181.944612582421" y2="366.999999999999"/>
    <line x1="181.944612582421" y1="366.999999999999" x2="181.842390061288" y2="367.776457135307"/>
    <line x1="181.842390061288" y1="367.776457135307" x2="181.542688793774" y2="368.5"/>
    <line x1="181.542688793774" y1="368.5" x2="181.065932925981" y2="369.121320343559"/>
    <line x1="181.065932925981" y1="369.121320343559" x2="180.444612582421" y2="369.598076211353"/>
    <line x1="180.444612582421" y1="369.598076211353" x2="179.721069717729" y2="369.897777478867"/>
    <line x1="179.721069717729" y1="369.897777478867" x2="178.944612582421" y2="370.0"/>
    <line x1="178.944612582421" y1="370.0" x2="178.168155447113" y2="369.897777478867"/>
    <line x1="178.168155447113" y1="369.897777478867" x2="177.444612582421" y2="369.598076211353"/>
    <line x1="177.444612582421" y1="369.598076211353" x2="176.823292238861" y2="369.121320343559"/>
    <line x1="176.823292238861" y1="369.121320343559" x2="176.346536371068" y2="368.499999999999"/>
    <line x1="176.346536371068" y1="368.499999999999" x2="176.046835103554" y2="367.776457135307"/>
    <line x1="176.046835103554" y1="367.776457135307" x2="175.944612582421" y2="367.0"/>
    <line x1="175.944612582421" y1="367.0" x2="176.046835103554" y2="366.223542864692"/>
    <line x1="176.046835103554" y1="366.223542864692" x2="176.346536371068" y2="365.499999999999"/>
    <line x1="176.346536371068" y1="365.499999999999" x2="176.823292238861" y2="364.87867965644"/>
    <line x1="176.823292238861" y1="364.87867965644" x2="177.444612582421" y2="364.401923788646"/>
    <line x1="177.444612582421" y1="364.401923788646" x2="178.168155447114" y2="364.102222521132"/>
    <line x1="178.168155447114" y1="364.102222521132" x2="178.944612582421" y2="363.999999999999"/>
    <line x1="178.944612582421" y1="363.999999999999" x2="179.721069717729" y2="364.102222521132"/>
    <line x1="179.721069717729" y1="364.102222521132" x2="180.444612582421" y2="364.401923788646"/>
    <line x1="276.82329223886" y1="369.121320343559" x2="276.346536371066" y2="368.5"/>
    <line x1="276.346536371066" y1="368.5" x2="276.046835103552" y2="367.776457135307"/>
    <line x1="276.046835103552" y1="367.776457135307" x2="275.944612582419" y2="367.0"/>
    <line x1="275.944612582419" y1="367.0" x2="276.046835103552" y2="366.223542864692"/>
    <line x1="276.046835103552" y1="366.223542864692" x2="276.346536371066" y2="365.499999999999"/>
    <line x1="276.346536371066" y1="365.499999999999" x2="276.823292238859" y2="364.87867965644"/>
    <line x1="276.823292238859" y1="364.87867965644" x2="277.444612582419" y2="364.401923788646"/>
    <line x1="277.444612582419" y1="364.401923788646" x2="278.168155447112" y2="364.102222521132"/>
    <line x1="278.168155447112" y1="364.102222521132" x2="278.944612582419" y2="363.999999999999"/>
    <line x1="278.944612582419" y1="363.999999999999" x2="279.721069717727" y2="364.102222521132"/>
    <line x1="279.721069717727" y1="364.102222521132" x2="280.444612582419" y2="364.401923788646"/>
    <line x1="280.444612582419" y1="364.401923788646" x2="281.065932925979" y2="364.87867965644"/>
    <line x1="281.065932925979" y1="364.87867965644" x2="281.542688793772" y2="365.499999999999"/>
    <line x1="281.542688793772" y1="365.499999999999" x2="281.842390061286" y2="366.223542864692"/>
    <line x1="281.842390061286" y1="366.223542864692" x2="281.944612582419" y2="366.999999999999"/>
    <line x1="281.944612582419" y1="366.999999999999" x2="281.842390061286" y2="367.776457135307"/>
    <line x1="281.842390061286" y1="367.776457135307" x2="281.542688793773" y2="368.5"/>
    <line x1="281.542688793773" y1="368.5" x2="281.065932925979" y2="369.121320343559"/>
    <line x1="281.065932925979" y1="369.121320343559" x2="280.444612582419" y2="369.598076211353"/>
    <line x1="280.444612582419" y1="369.598076211353" x2="279.721069717727" y2="369.897777478867"/>
    <line x1="279.721069717727" y1="369.897777478867" x2="278.944612582419" y2="370.0"/>
    <line x1="278.944612582419" y1="370.0" x2="278.168155447112" y2="369.897777478867"/>
    <line x1="278.168155447112" y1="369.897777478867" x2="277.444612582419" y2="369.598076211353"/>
    <line x1="277.444612582419" y1="369.598076211353" x2="276.82329223886" y2="369.121320343559"/>
    <line x1="363.324789760008" y1="20.0" x2="362.5483326247" y2="19.8977774788672"/>
    <line x1="362.5483326247" y1="19.8977774788672" x2="361.824789760008" y2="19.5980762113533"/>
    <line x1="361.824789760008" y1="19.5980762113533" x2="361.203469416448" y2="19.1213203435597"/>
    <line x1="361.203469416448" y1="19.1213203435597" x2="360.726713548655" y2="18.5"/>
    <line x1="360.726713548655" y1="18.5" x2="360.427012281141" y2="17.7764571353076"/>
    <line x1="360.427012281141" y1="17.7764571353076" x2="360.324789760008" y2="17.0"/>
    <line x1="360.324789760008" y1="17.0" x2="360.427012281141" y2="16.2235428646924"/>
    <line x1="360.427012281141" y1="16.2235428646924" x2="360.726713548655" y2="15.5"/>
    <line x1="360.726713548655" y1="15.5" x2="361.203469416448" y2="14.8786796564404"/>
    <line x1="361.203469416448" y1="14.8786796564404" x2="361.824789760008" y2="14.4019237886467"/>
    <line x1="361.824789760008" y1="14.4019237886467" x2="362.5483326247" y2="14.1022225211328"/>
    <line x1="362.5483326247" y1="14.1022225211328" x2="363.324789760008" y2="14.0"/>
    <line x1="363.324789760008" y1="14.0" x2="364.101246895316" y2="14.1022225211328"/>
    <line x1="364.101246895316" y1="14.1022225211328" x2="364.824789760008" y2="14.4019237886467"/>
    <line x1="364.824789760008" y1="14.4019237886467" x2="365.446110103568" y2="14.8786796564403"/>
    <line x1="365.446110103568" y1="14.8786796564403" x2="365.922865971361" y2="15.4999999999999"/>
    <line x1="365.922865971361" y1="15.4999999999999" x2="366.222567238875" y2="16.2235428646924"/>
    <line x1="366.222567238875" y1="16.2235428646924" x2="366.324789760008" y2="17.0"/>
    <line x1="366.324789760008" y1="17.0" x2="366.222567238875" y2="17.7764571353076"/>
    <line x1="366.222567238875" y1="17.7764571353076" x2="365.922865971361" y2="18.5"/>
    <line x1="365.922865971361" y1="18.5" x2="365.446110103568" y2="19.1213203435597"/>
    <line x1="365.446110103568" y1="19.1213203435597" x2="364.824789760008" y2="19.5980762113533"/>
    <line x1="364.824789760008" y1="19.5980762113533" x2="364.101246895316" y2="19.8977774788672"/>
    <line x1="364.101246895316" y1="19.8977774788672" x2="363.324789760008" y2="20.0"/>
  </g>
</svg>
